2021年  6月 11日 金曜日 18:23:57 JST

@@@@ sonic136-mmseqs-qfo20-essentials-ismb21-default @@@@

Run START:	Fri Jun 11 18:23:57 2021
SonicParanoid 1.3.6 will be executed with the following parameters:
Run ID:	sonic136-mmseqs-qfo20-essentials-ismb21-ml5-default
Run directory: /home/salvocos/tmp/sonicparanoid_runs/qfo2020-runs/sonic136-qfo20-ismb-all/sonic136-mmseqs-qfo20-essentials-ismb21-default/runs/sonic136-mmseqs-qfo20-essentials-ismb21-ml5-default
Input directory: /home/salvocos/tmp/sonicparanoid_runs/qfo2020-runs/qfo2020processed_fixed_xtropicalis/
Input proteomes:	78
Output directory: /home/salvocos/tmp/sonicparanoid_runs/qfo2020-runs/sonic136-qfo20-ismb-all/sonic136-mmseqs-qfo20-essentials-ismb21-default
Run mode:	default (MMseqs2 s=4.0)
Prefilter matrix (MMsesq2):	vtml80
Python version: 3.8.5 (default, May 27 2021, 13:30:53) 
[GCC 9.3.0]
Python executables: /home/salvocos/work_repos/sonic-dev/bin/python3
SonicParanoid installation directory: /home/salvocos/work_repos/sonic-dev/lib/python3.8/site-packages/sonicparanoid
GCC version: 9
GCC distribution: 9
Alignments directory: /home/salvocos/tmp/sonicparanoid_runs/qfo2020-runs/sonic136-qfo20-ismb-all/sonic136-mmseqs-qfo20-essentials-ismb21-default/alignments/
Pairwise tables directory: /home/salvocos/tmp/sonicparanoid_runs/qfo2020-runs/sonic136-qfo20-ismb-all/sonic136-mmseqs-qfo20-essentials-ismb21-default/runs/sonic136-mmseqs-qfo20-essentials-ismb21-ml5-default/pairwise_orthologs/
Directory with ortholog groups: /home/salvocos/tmp/sonicparanoid_runs/qfo2020-runs/sonic136-qfo20-ismb-all/sonic136-mmseqs-qfo20-essentials-ismb21-default/runs/sonic136-mmseqs-qfo20-essentials-ismb21-ml5-default/ortholog_groups/
Pairwise tables database directory: /home/salvocos/tmp/sonicparanoid_runs/qfo2020-runs/sonic136-qfo20-ismb-all/sonic136-mmseqs-qfo20-essentials-ismb21-default/orthologs_db/
Update run:	False
Create pre-filter indexes:	True
Complete overwrite:	False
Re-create ortholog tables:	True
Threads:	128
Memory per thread (Gigabytes):	15.66
Minimum memory per thread (Gigabytes):	1.75
Compress alignments:	True
Compression level:	5
MCL inflation:	1.50

For the 78 input species 3003 combinations are possible.

6084 MMseqs2 alignments will be performed...
Creating 78 MMseqs2 databases...

MMseqs2 databases creation elapsed time (seconds):	11.049

Performing 3081 alignment jobs using MMseqs2...
Elapsed time for all-vs-all alignments using MMseqs2 (seconds):	1660.198

Predicting 3003 ortholog tables...
Ortholog tables creation elapsed time (seconds):	48.111

Creating ortholog groups using MCL clustering...
Creating orthology matrixes...
Ortholog matrixes creation elapsed time (seconds):	14.48

Merging inparalog matrixes...
Inparalogs merging elapsed time (seconds):	108.499

Creating input matrix for MCL...
MCL graph creation elapsed time (seconds):	59.604

Running MCL...
MCL execution elapsed time (seconds):	771.516

Generating final output files...
Elapsed time for the creation of final output (seconds):	47.652
Ortholog groups creation elapsed time (seconds):	1001.787

Ortholog groups:	34897
Single-copy ortholog groups:	17046

The ortholog groups and related statistics are stored in the directory:
/home/salvocos/tmp/sonicparanoid_runs/qfo2020-runs/sonic136-qfo20-ismb-all/sonic136-mmseqs-qfo20-essentials-ismb21-default/runs/sonic136-mmseqs-qfo20-essentials-ismb21-ml5-default/ortholog_groups

Creating file with homolog pairs...
Total orthologous relations	14246271

Total elapsed time (seconds):	2762.497

@@@@ sonic136-mmseqs-qfo20-complete-ismb21-default @@@@

Run START:	Fri Jun 11 19:10:09 2021
SonicParanoid 1.3.6 will be executed with the following parameters:
Run ID:	sonic136-mmseqs-qfo20-complete-ismb21-ml5-default
Run directory: /home/salvocos/tmp/sonicparanoid_runs/qfo2020-runs/sonic136-qfo20-ismb-all/sonic136-mmseqs-qfo20-complete-ismb21-default/runs/sonic136-mmseqs-qfo20-complete-ismb21-ml5-default
Input directory: /home/salvocos/tmp/sonicparanoid_runs/qfo2020-runs/qfo2020processed_fixed_xtropicalis/
Input proteomes:	78
Output directory: /home/salvocos/tmp/sonicparanoid_runs/qfo2020-runs/sonic136-qfo20-ismb-all/sonic136-mmseqs-qfo20-complete-ismb21-default
Run mode:	default (MMseqs2 s=4.0)
Prefilter matrix (MMsesq2):	vtml80
Python version: 3.8.5 (default, May 27 2021, 13:30:53) 
[GCC 9.3.0]
Python executables: /home/salvocos/work_repos/sonic-dev/bin/python3
SonicParanoid installation directory: /home/salvocos/work_repos/sonic-dev/lib/python3.8/site-packages/sonicparanoid
GCC version: 9
GCC distribution: 9
Alignments directory: /home/salvocos/tmp/sonicparanoid_runs/qfo2020-runs/sonic136-qfo20-ismb-all/sonic136-mmseqs-qfo20-complete-ismb21-default/alignments/
Pairwise tables directory: /home/salvocos/tmp/sonicparanoid_runs/qfo2020-runs/sonic136-qfo20-ismb-all/sonic136-mmseqs-qfo20-complete-ismb21-default/runs/sonic136-mmseqs-qfo20-complete-ismb21-ml5-default/pairwise_orthologs/
Directory with ortholog groups: /home/salvocos/tmp/sonicparanoid_runs/qfo2020-runs/sonic136-qfo20-ismb-all/sonic136-mmseqs-qfo20-complete-ismb21-default/runs/sonic136-mmseqs-qfo20-complete-ismb21-ml5-default/ortholog_groups/
Pairwise tables database directory: /home/salvocos/tmp/sonicparanoid_runs/qfo2020-runs/sonic136-qfo20-ismb-all/sonic136-mmseqs-qfo20-complete-ismb21-default/orthologs_db/
Update run:	False
Create pre-filter indexes:	True
Complete overwrite:	False
Re-create ortholog tables:	True
Threads:	128
Memory per thread (Gigabytes):	15.66
Minimum memory per thread (Gigabytes):	1.75
Compress alignments:	True
Compression level:	5
MCL inflation:	1.50

For the 78 input species 3003 combinations are possible.

6084 MMseqs2 alignments will be performed...
Creating 78 MMseqs2 databases...

MMseqs2 databases creation elapsed time (seconds):	11.217

Performing 3081 alignment jobs using MMseqs2...
Elapsed time for all-vs-all alignments using MMseqs2 (seconds):	2292.97

Predicting 3003 ortholog tables...
Ortholog tables creation elapsed time (seconds):	47.608

Creating ortholog groups using MCL clustering...
Creating orthology matrixes...
Ortholog matrixes creation elapsed time (seconds):	14.83

Merging inparalog matrixes...
Inparalogs merging elapsed time (seconds):	107.651

Creating input matrix for MCL...
MCL graph creation elapsed time (seconds):	59.765

Running MCL...
MCL execution elapsed time (seconds):	728.743

Generating final output files...
Elapsed time for the creation of final output (seconds):	49.648
Ortholog groups creation elapsed time (seconds):	960.671

Ortholog groups:	34975
Single-copy ortholog groups:	17098

The ortholog groups and related statistics are stored in the directory:
/home/salvocos/tmp/sonicparanoid_runs/qfo2020-runs/sonic136-qfo20-ismb-all/sonic136-mmseqs-qfo20-complete-ismb21-default/runs/sonic136-mmseqs-qfo20-complete-ismb21-ml5-default/ortholog_groups

Creating file with homolog pairs...
Total orthologous relations	14140955

Total elapsed time (seconds):	3353.969

@@@@ sonic136-mmseqs-qfo20-essentials-ismb21-sensitive @@@@

Run START:	Fri Jun 11 20:06:13 2021
SonicParanoid 1.3.6 will be executed with the following parameters:
Run ID:	sonic136-mmseqs-qfo20-essentials-ismb21-ml5-sensitive
Run directory: /home/salvocos/tmp/sonicparanoid_runs/qfo2020-runs/sonic136-qfo20-ismb-all/sonic136-mmseqs-qfo20-essentials-ismb21-sensitive/runs/sonic136-mmseqs-qfo20-essentials-ismb21-ml5-sensitive
Input directory: /home/salvocos/tmp/sonicparanoid_runs/qfo2020-runs/qfo2020processed_fixed_xtropicalis/
Input proteomes:	78
Output directory: /home/salvocos/tmp/sonicparanoid_runs/qfo2020-runs/sonic136-qfo20-ismb-all/sonic136-mmseqs-qfo20-essentials-ismb21-sensitive
Run mode:	sensitive (MMseqs2 s=6.0)
Prefilter matrix (MMsesq2):	vtml80
Python version: 3.8.5 (default, May 27 2021, 13:30:53) 
[GCC 9.3.0]
Python executables: /home/salvocos/work_repos/sonic-dev/bin/python3
SonicParanoid installation directory: /home/salvocos/work_repos/sonic-dev/lib/python3.8/site-packages/sonicparanoid
GCC version: 9
GCC distribution: 9
Alignments directory: /home/salvocos/tmp/sonicparanoid_runs/qfo2020-runs/sonic136-qfo20-ismb-all/sonic136-mmseqs-qfo20-essentials-ismb21-sensitive/alignments/
Pairwise tables directory: /home/salvocos/tmp/sonicparanoid_runs/qfo2020-runs/sonic136-qfo20-ismb-all/sonic136-mmseqs-qfo20-essentials-ismb21-sensitive/runs/sonic136-mmseqs-qfo20-essentials-ismb21-ml5-sensitive/pairwise_orthologs/
Directory with ortholog groups: /home/salvocos/tmp/sonicparanoid_runs/qfo2020-runs/sonic136-qfo20-ismb-all/sonic136-mmseqs-qfo20-essentials-ismb21-sensitive/runs/sonic136-mmseqs-qfo20-essentials-ismb21-ml5-sensitive/ortholog_groups/
Pairwise tables database directory: /home/salvocos/tmp/sonicparanoid_runs/qfo2020-runs/sonic136-qfo20-ismb-all/sonic136-mmseqs-qfo20-essentials-ismb21-sensitive/orthologs_db/
Update run:	False
Create pre-filter indexes:	True
Complete overwrite:	False
Re-create ortholog tables:	True
Threads:	128
Memory per thread (Gigabytes):	15.66
Minimum memory per thread (Gigabytes):	1.75
Compress alignments:	True
Compression level:	5
MCL inflation:	1.50

For the 78 input species 3003 combinations are possible.

6084 MMseqs2 alignments will be performed...
Creating 78 MMseqs2 databases...

MMseqs2 databases creation elapsed time (seconds):	11.146

Performing 3081 alignment jobs using MMseqs2...
Elapsed time for all-vs-all alignments using MMseqs2 (seconds):	6558.236

Predicting 3003 ortholog tables...
Ortholog tables creation elapsed time (seconds):	60.334

Creating ortholog groups using MCL clustering...
Creating orthology matrixes...
Ortholog matrixes creation elapsed time (seconds):	14.876

Merging inparalog matrixes...
Inparalogs merging elapsed time (seconds):	90.243

Creating input matrix for MCL...
MCL graph creation elapsed time (seconds):	49.665

Running MCL...
MCL execution elapsed time (seconds):	714.446

Generating final output files...
Elapsed time for the creation of final output (seconds):	46.1
Ortholog groups creation elapsed time (seconds):	915.37

Ortholog groups:	33493
Single-copy ortholog groups:	15868

The ortholog groups and related statistics are stored in the directory:
/home/salvocos/tmp/sonicparanoid_runs/qfo2020-runs/sonic136-qfo20-ismb-all/sonic136-mmseqs-qfo20-essentials-ismb21-sensitive/runs/sonic136-mmseqs-qfo20-essentials-ismb21-ml5-sensitive/ortholog_groups

Creating file with homolog pairs...
Total orthologous relations	14701842

Total elapsed time (seconds):	7589.511

@@@@ sonic136-mmseqs-qfo20-complete-ismb21-sensitive @@@@

Run START:	Fri Jun 11 22:12:52 2021
SonicParanoid 1.3.6 will be executed with the following parameters:
Run ID:	sonic136-mmseqs-qfo20-complete-ismb21-ml5-sensitive
Run directory: /home/salvocos/tmp/sonicparanoid_runs/qfo2020-runs/sonic136-qfo20-ismb-all/sonic136-mmseqs-qfo20-complete-ismb21-sensitive/runs/sonic136-mmseqs-qfo20-complete-ismb21-ml5-sensitive
Input directory: /home/salvocos/tmp/sonicparanoid_runs/qfo2020-runs/qfo2020processed_fixed_xtropicalis/
Input proteomes:	78
Output directory: /home/salvocos/tmp/sonicparanoid_runs/qfo2020-runs/sonic136-qfo20-ismb-all/sonic136-mmseqs-qfo20-complete-ismb21-sensitive
Run mode:	sensitive (MMseqs2 s=6.0)
Prefilter matrix (MMsesq2):	vtml80
Python version: 3.8.5 (default, May 27 2021, 13:30:53) 
[GCC 9.3.0]
Python executables: /home/salvocos/work_repos/sonic-dev/bin/python3
SonicParanoid installation directory: /home/salvocos/work_repos/sonic-dev/lib/python3.8/site-packages/sonicparanoid
GCC version: 9
GCC distribution: 9
Alignments directory: /home/salvocos/tmp/sonicparanoid_runs/qfo2020-runs/sonic136-qfo20-ismb-all/sonic136-mmseqs-qfo20-complete-ismb21-sensitive/alignments/
Pairwise tables directory: /home/salvocos/tmp/sonicparanoid_runs/qfo2020-runs/sonic136-qfo20-ismb-all/sonic136-mmseqs-qfo20-complete-ismb21-sensitive/runs/sonic136-mmseqs-qfo20-complete-ismb21-ml5-sensitive/pairwise_orthologs/
Directory with ortholog groups: /home/salvocos/tmp/sonicparanoid_runs/qfo2020-runs/sonic136-qfo20-ismb-all/sonic136-mmseqs-qfo20-complete-ismb21-sensitive/runs/sonic136-mmseqs-qfo20-complete-ismb21-ml5-sensitive/ortholog_groups/
Pairwise tables database directory: /home/salvocos/tmp/sonicparanoid_runs/qfo2020-runs/sonic136-qfo20-ismb-all/sonic136-mmseqs-qfo20-complete-ismb21-sensitive/orthologs_db/
Update run:	False
Create pre-filter indexes:	True
Complete overwrite:	False
Re-create ortholog tables:	True
Threads:	128
Memory per thread (Gigabytes):	15.66
Minimum memory per thread (Gigabytes):	1.75
Compress alignments:	True
Compression level:	5
MCL inflation:	1.50

For the 78 input species 3003 combinations are possible.

6084 MMseqs2 alignments will be performed...
Creating 78 MMseqs2 databases...

MMseqs2 databases creation elapsed time (seconds):	11.288

Performing 3081 alignment jobs using MMseqs2...
Elapsed time for all-vs-all alignments using MMseqs2 (seconds):	10502.973

Predicting 3003 ortholog tables...
Ortholog tables creation elapsed time (seconds):	56.955

Creating ortholog groups using MCL clustering...
Creating orthology matrixes...
Ortholog matrixes creation elapsed time (seconds):	14.737

Merging inparalog matrixes...
Inparalogs merging elapsed time (seconds):	89.621

Creating input matrix for MCL...
MCL graph creation elapsed time (seconds):	49.876

Running MCL...
MCL execution elapsed time (seconds):	704.316

Generating final output files...
Elapsed time for the creation of final output (seconds):	45.876
Ortholog groups creation elapsed time (seconds):	904.458

Ortholog groups:	33533
Single-copy ortholog groups:	15901

The ortholog groups and related statistics are stored in the directory:
/home/salvocos/tmp/sonicparanoid_runs/qfo2020-runs/sonic136-qfo20-ismb-all/sonic136-mmseqs-qfo20-complete-ismb21-sensitive/runs/sonic136-mmseqs-qfo20-complete-ismb21-ml5-sensitive/ortholog_groups

Creating file with homolog pairs...
Total orthologous relations	14653974

Total elapsed time (seconds):	11519.931
@@@@ sonic136-mmseqs-qfo20-essentials-ismb21-fast @@@@


Run START:	Sat Jun 12 01:25:01 2021
SonicParanoid 1.3.6 will be executed with the following parameters:
Run ID:	sonic136-mmseqs-qfo20-essentials-ismb21-ml5-fast
Run directory: /home/salvocos/tmp/sonicparanoid_runs/qfo2020-runs/sonic136-qfo20-ismb-all/sonic136-mmseqs-qfo20-essentials-ismb21-fast/runs/sonic136-mmseqs-qfo20-essentials-ismb21-ml5-fast
Input directory: /home/salvocos/tmp/sonicparanoid_runs/qfo2020-runs/qfo2020processed_fixed_xtropicalis/
Input proteomes:	78
Output directory: /home/salvocos/tmp/sonicparanoid_runs/qfo2020-runs/sonic136-qfo20-ismb-all/sonic136-mmseqs-qfo20-essentials-ismb21-fast
Run mode:	fast (MMseqs2 s=2.5)
Prefilter matrix (MMsesq2):	vtml80
Python version: 3.8.5 (default, May 27 2021, 13:30:53) 
[GCC 9.3.0]
Python executables: /home/salvocos/work_repos/sonic-dev/bin/python3
SonicParanoid installation directory: /home/salvocos/work_repos/sonic-dev/lib/python3.8/site-packages/sonicparanoid
GCC version: 9
GCC distribution: 9
Alignments directory: /home/salvocos/tmp/sonicparanoid_runs/qfo2020-runs/sonic136-qfo20-ismb-all/sonic136-mmseqs-qfo20-essentials-ismb21-fast/alignments/
Pairwise tables directory: /home/salvocos/tmp/sonicparanoid_runs/qfo2020-runs/sonic136-qfo20-ismb-all/sonic136-mmseqs-qfo20-essentials-ismb21-fast/runs/sonic136-mmseqs-qfo20-essentials-ismb21-ml5-fast/pairwise_orthologs/
Directory with ortholog groups: /home/salvocos/tmp/sonicparanoid_runs/qfo2020-runs/sonic136-qfo20-ismb-all/sonic136-mmseqs-qfo20-essentials-ismb21-fast/runs/sonic136-mmseqs-qfo20-essentials-ismb21-ml5-fast/ortholog_groups/
Pairwise tables database directory: /home/salvocos/tmp/sonicparanoid_runs/qfo2020-runs/sonic136-qfo20-ismb-all/sonic136-mmseqs-qfo20-essentials-ismb21-fast/orthologs_db/
Update run:	False
Create pre-filter indexes:	True
Complete overwrite:	False
Re-create ortholog tables:	True
Threads:	128
Memory per thread (Gigabytes):	15.66
Minimum memory per thread (Gigabytes):	1.75
Compress alignments:	True
Compression level:	5
MCL inflation:	1.50

For the 78 input species 3003 combinations are possible.

6084 MMseqs2 alignments will be performed...
Creating 78 MMseqs2 databases...

MMseqs2 databases creation elapsed time (seconds):	11.302

Performing 3081 alignment jobs using MMseqs2...
Elapsed time for all-vs-all alignments using MMseqs2 (seconds):	833.885

Predicting 3003 ortholog tables...
Ortholog tables creation elapsed time (seconds):	42.307

Creating ortholog groups using MCL clustering...
Creating orthology matrixes...
Ortholog matrixes creation elapsed time (seconds):	21.137

Merging inparalog matrixes...
Inparalogs merging elapsed time (seconds):	96.971

Creating input matrix for MCL...
MCL graph creation elapsed time (seconds):	54.634

Running MCL...
MCL execution elapsed time (seconds):	808.523

Generating final output files...
Elapsed time for the creation of final output (seconds):	50.654
Ortholog groups creation elapsed time (seconds):	1031.958

Ortholog groups:	37008
Single-copy ortholog groups:	18798

The ortholog groups and related statistics are stored in the directory:
/home/salvocos/tmp/sonicparanoid_runs/qfo2020-runs/sonic136-qfo20-ismb-all/sonic136-mmseqs-qfo20-essentials-ismb21-fast/runs/sonic136-mmseqs-qfo20-essentials-ismb21-ml5-fast/ortholog_groups

Creating file with homolog pairs...
Total orthologous relations	13353587

Total elapsed time (seconds):	1957.751
@@@@ sonic136-mmseqs-qfo20-complete-ismb21-fast @@@@


Run START:	Sat Jun 12 01:57:49 2021
SonicParanoid 1.3.6 will be executed with the following parameters:
Run ID:	sonic136-mmseqs-qfo20-complete-ismb21-ml5-fast
Run directory: /home/salvocos/tmp/sonicparanoid_runs/qfo2020-runs/sonic136-qfo20-ismb-all/sonic136-mmseqs-qfo20-complete-ismb21-fast/runs/sonic136-mmseqs-qfo20-complete-ismb21-ml5-fast
Input directory: /home/salvocos/tmp/sonicparanoid_runs/qfo2020-runs/qfo2020processed_fixed_xtropicalis/
Input proteomes:	78
Output directory: /home/salvocos/tmp/sonicparanoid_runs/qfo2020-runs/sonic136-qfo20-ismb-all/sonic136-mmseqs-qfo20-complete-ismb21-fast
Run mode:	fast (MMseqs2 s=2.5)
Prefilter matrix (MMsesq2):	vtml80
Python version: 3.8.5 (default, May 27 2021, 13:30:53) 
[GCC 9.3.0]
Python executables: /home/salvocos/work_repos/sonic-dev/bin/python3
SonicParanoid installation directory: /home/salvocos/work_repos/sonic-dev/lib/python3.8/site-packages/sonicparanoid
GCC version: 9
GCC distribution: 9
Alignments directory: /home/salvocos/tmp/sonicparanoid_runs/qfo2020-runs/sonic136-qfo20-ismb-all/sonic136-mmseqs-qfo20-complete-ismb21-fast/alignments/
Pairwise tables directory: /home/salvocos/tmp/sonicparanoid_runs/qfo2020-runs/sonic136-qfo20-ismb-all/sonic136-mmseqs-qfo20-complete-ismb21-fast/runs/sonic136-mmseqs-qfo20-complete-ismb21-ml5-fast/pairwise_orthologs/
Directory with ortholog groups: /home/salvocos/tmp/sonicparanoid_runs/qfo2020-runs/sonic136-qfo20-ismb-all/sonic136-mmseqs-qfo20-complete-ismb21-fast/runs/sonic136-mmseqs-qfo20-complete-ismb21-ml5-fast/ortholog_groups/
Pairwise tables database directory: /home/salvocos/tmp/sonicparanoid_runs/qfo2020-runs/sonic136-qfo20-ismb-all/sonic136-mmseqs-qfo20-complete-ismb21-fast/orthologs_db/
Update run:	False
Create pre-filter indexes:	True
Complete overwrite:	False
Re-create ortholog tables:	True
Threads:	128
Memory per thread (Gigabytes):	15.66
Minimum memory per thread (Gigabytes):	1.75
Compress alignments:	True
Compression level:	5
MCL inflation:	1.50

For the 78 input species 3003 combinations are possible.

6084 MMseqs2 alignments will be performed...
Creating 78 MMseqs2 databases...

MMseqs2 databases creation elapsed time (seconds):	11.309

Performing 3081 alignment jobs using MMseqs2...
Elapsed time for all-vs-all alignments using MMseqs2 (seconds):	967.714

Predicting 3003 ortholog tables...
Ortholog tables creation elapsed time (seconds):	42.245

Creating ortholog groups using MCL clustering...
Creating orthology matrixes...
Ortholog matrixes creation elapsed time (seconds):	21.083

Merging inparalog matrixes...
Inparalogs merging elapsed time (seconds):	97.146

Creating input matrix for MCL...
MCL graph creation elapsed time (seconds):	53.606

Running MCL...
MCL execution elapsed time (seconds):	801.34

Generating final output files...
Elapsed time for the creation of final output (seconds):	50.924
Ortholog groups creation elapsed time (seconds):	1024.132

Ortholog groups:	37101
Single-copy ortholog groups:	18862

The ortholog groups and related statistics are stored in the directory:
/home/salvocos/tmp/sonicparanoid_runs/qfo2020-runs/sonic136-qfo20-ismb-all/sonic136-mmseqs-qfo20-complete-ismb21-fast/runs/sonic136-mmseqs-qfo20-complete-ismb21-ml5-fast/ortholog_groups

Creating file with homolog pairs...
Total orthologous relations	13220255

Total elapsed time (seconds):	2083.456

@@@@ sonic136-mmseqs-qfo20-essentials-ismb21-most-sensitive @@@@

Run START:	Sat Jun 12 02:32:42 2021
SonicParanoid 1.3.6 will be executed with the following parameters:
Run ID:	sonic136-mmseqs-qfo20-essentials-ismb21-ml5-most-sensitive
Run directory: /home/salvocos/tmp/sonicparanoid_runs/qfo2020-runs/sonic136-qfo20-ismb-all/sonic136-mmseqs-qfo20-essentials-ismb21-most-sensitive/runs/sonic136-mmseqs-qfo20-essentials-ismb21-ml5-most-sensitive
Input directory: /home/salvocos/tmp/sonicparanoid_runs/qfo2020-runs/qfo2020processed_fixed_xtropicalis/
Input proteomes:	78
Output directory: /home/salvocos/tmp/sonicparanoid_runs/qfo2020-runs/sonic136-qfo20-ismb-all/sonic136-mmseqs-qfo20-essentials-ismb21-most-sensitive
Run mode:	most-sensitive (MMseqs2 s=7.5)
Prefilter matrix (MMsesq2):	vtml80
Python version: 3.8.5 (default, May 27 2021, 13:30:53) 
[GCC 9.3.0]
Python executables: /home/salvocos/work_repos/sonic-dev/bin/python3
SonicParanoid installation directory: /home/salvocos/work_repos/sonic-dev/lib/python3.8/site-packages/sonicparanoid
GCC version: 9
GCC distribution: 9
Alignments directory: /home/salvocos/tmp/sonicparanoid_runs/qfo2020-runs/sonic136-qfo20-ismb-all/sonic136-mmseqs-qfo20-essentials-ismb21-most-sensitive/alignments/
Pairwise tables directory: /home/salvocos/tmp/sonicparanoid_runs/qfo2020-runs/sonic136-qfo20-ismb-all/sonic136-mmseqs-qfo20-essentials-ismb21-most-sensitive/runs/sonic136-mmseqs-qfo20-essentials-ismb21-ml5-most-sensitive/pairwise_orthologs/
Directory with ortholog groups: /home/salvocos/tmp/sonicparanoid_runs/qfo2020-runs/sonic136-qfo20-ismb-all/sonic136-mmseqs-qfo20-essentials-ismb21-most-sensitive/runs/sonic136-mmseqs-qfo20-essentials-ismb21-ml5-most-sensitive/ortholog_groups/
Pairwise tables database directory: /home/salvocos/tmp/sonicparanoid_runs/qfo2020-runs/sonic136-qfo20-ismb-all/sonic136-mmseqs-qfo20-essentials-ismb21-most-sensitive/orthologs_db/
Update run:	False
Create pre-filter indexes:	True
Complete overwrite:	False
Re-create ortholog tables:	True
Threads:	128
Memory per thread (Gigabytes):	15.66
Minimum memory per thread (Gigabytes):	1.75
Compress alignments:	True
Compression level:	5
MCL inflation:	1.50

For the 78 input species 3003 combinations are possible.

6084 MMseqs2 alignments will be performed...
Creating 78 MMseqs2 databases...

MMseqs2 databases creation elapsed time (seconds):	11.166

Performing 3081 alignment jobs using MMseqs2...
Elapsed time for all-vs-all alignments using MMseqs2 (seconds):	16150.772

Predicting 3003 ortholog tables...
Ortholog tables creation elapsed time (seconds):	62.543

Creating ortholog groups using MCL clustering...
Creating orthology matrixes...
Ortholog matrixes creation elapsed time (seconds):	15.397

Merging inparalog matrixes...
Inparalogs merging elapsed time (seconds):	86.364

Creating input matrix for MCL...
MCL graph creation elapsed time (seconds):	49.85

Running MCL...
MCL execution elapsed time (seconds):	695.01

Generating final output files...
Elapsed time for the creation of final output (seconds):	44.922
Ortholog groups creation elapsed time (seconds):	891.581

Ortholog groups:	33146
Single-copy ortholog groups:	15599

The ortholog groups and related statistics are stored in the directory:
/home/salvocos/tmp/sonicparanoid_runs/qfo2020-runs/sonic136-qfo20-ismb-all/sonic136-mmseqs-qfo20-essentials-ismb21-most-sensitive/runs/sonic136-mmseqs-qfo20-essentials-ismb21-ml5-most-sensitive/ortholog_groups

Creating file with homolog pairs...
Total orthologous relations	15073846

Total elapsed time (seconds):	17161.426

@@@@ sonic136-mmseqs-qfo20-complete-ismb21-most-sensitive @@@@

Run START:	Sat Jun 12 07:18:53 2021
SonicParanoid 1.3.6 will be executed with the following parameters:
Run ID:	sonic136-mmseqs-qfo20-complete-ismb21-ml5-most-sensitive
Run directory: /home/salvocos/tmp/sonicparanoid_runs/qfo2020-runs/sonic136-qfo20-ismb-all/sonic136-mmseqs-qfo20-complete-ismb21-most-sensitive/runs/sonic136-mmseqs-qfo20-complete-ismb21-ml5-most-sensitive
Input directory: /home/salvocos/tmp/sonicparanoid_runs/qfo2020-runs/qfo2020processed_fixed_xtropicalis/
Input proteomes:	78
Output directory: /home/salvocos/tmp/sonicparanoid_runs/qfo2020-runs/sonic136-qfo20-ismb-all/sonic136-mmseqs-qfo20-complete-ismb21-most-sensitive
Run mode:	most-sensitive (MMseqs2 s=7.5)
Prefilter matrix (MMsesq2):	vtml80
Python version: 3.8.5 (default, May 27 2021, 13:30:53) 
[GCC 9.3.0]
Python executables: /home/salvocos/work_repos/sonic-dev/bin/python3
SonicParanoid installation directory: /home/salvocos/work_repos/sonic-dev/lib/python3.8/site-packages/sonicparanoid
GCC version: 9
GCC distribution: 9
Alignments directory: /home/salvocos/tmp/sonicparanoid_runs/qfo2020-runs/sonic136-qfo20-ismb-all/sonic136-mmseqs-qfo20-complete-ismb21-most-sensitive/alignments/
Pairwise tables directory: /home/salvocos/tmp/sonicparanoid_runs/qfo2020-runs/sonic136-qfo20-ismb-all/sonic136-mmseqs-qfo20-complete-ismb21-most-sensitive/runs/sonic136-mmseqs-qfo20-complete-ismb21-ml5-most-sensitive/pairwise_orthologs/
Directory with ortholog groups: /home/salvocos/tmp/sonicparanoid_runs/qfo2020-runs/sonic136-qfo20-ismb-all/sonic136-mmseqs-qfo20-complete-ismb21-most-sensitive/runs/sonic136-mmseqs-qfo20-complete-ismb21-ml5-most-sensitive/ortholog_groups/
Pairwise tables database directory: /home/salvocos/tmp/sonicparanoid_runs/qfo2020-runs/sonic136-qfo20-ismb-all/sonic136-mmseqs-qfo20-complete-ismb21-most-sensitive/orthologs_db/
Update run:	False
Create pre-filter indexes:	True
Complete overwrite:	False
Re-create ortholog tables:	True
Threads:	128
Memory per thread (Gigabytes):	15.66
Minimum memory per thread (Gigabytes):	1.75
Compress alignments:	True
Compression level:	5
MCL inflation:	1.50

For the 78 input species 3003 combinations are possible.

6084 MMseqs2 alignments will be performed...
Creating 78 MMseqs2 databases...

MMseqs2 databases creation elapsed time (seconds):	11.189

Performing 3081 alignment jobs using MMseqs2...
Elapsed time for all-vs-all alignments using MMseqs2 (seconds):	29006.689

Predicting 3003 ortholog tables...
Ortholog tables creation elapsed time (seconds):	62.512

Creating ortholog groups using MCL clustering...
Creating orthology matrixes...
Ortholog matrixes creation elapsed time (seconds):	15.335

Merging inparalog matrixes...
Inparalogs merging elapsed time (seconds):	85.804

Creating input matrix for MCL...
MCL graph creation elapsed time (seconds):	48.352

Running MCL...
MCL execution elapsed time (seconds):	694.153

Generating final output files...
Elapsed time for the creation of final output (seconds):	45.461
Ortholog groups creation elapsed time (seconds):	889.139

Ortholog groups:	33189
Single-copy ortholog groups:	15639

The ortholog groups and related statistics are stored in the directory:
/home/salvocos/tmp/sonicparanoid_runs/qfo2020-runs/sonic136-qfo20-ismb-all/sonic136-mmseqs-qfo20-complete-ismb21-most-sensitive/runs/sonic136-mmseqs-qfo20-complete-ismb21-ml5-most-sensitive/ortholog_groups

Creating file with homolog pairs...
Total orthologous relations	14992380

Total elapsed time (seconds):	30015.753
@@@@ sonic136-dmnd-qfo20-essentials-fast @@@@


Run START:	Sat Jun 12 15:39:19 2021
SonicParanoid 1.3.6 will be executed with the following parameters:
Run ID:	sonic136-dmnd-qfo20-essentials-ismb21-ml5-fast
Run directory: /home/salvocos/tmp/sonicparanoid_runs/qfo2020-runs/sonic136-qfo20-ismb-all/sonic136-dmnd-qfo20-essentials-fast/runs/sonic136-dmnd-qfo20-essentials-ismb21-ml5-fast
Input directory: /home/salvocos/tmp/sonicparanoid_runs/qfo2020-runs/qfo2020processed_fixed_xtropicalis/
Input proteomes:	78
Output directory: /home/salvocos/tmp/sonicparanoid_runs/qfo2020-runs/sonic136-qfo20-ismb-all/sonic136-dmnd-qfo20-essentials-fast
Run mode:	fast (Diamond [--mid-sensitive])
Python version: 3.8.5 (default, May 27 2021, 13:30:53) 
[GCC 9.3.0]
Python executables: /home/salvocos/work_repos/sonic-dev/bin/python3
SonicParanoid installation directory: /home/salvocos/work_repos/sonic-dev/lib/python3.8/site-packages/sonicparanoid
GCC version: 9
GCC distribution: 9
Alignments directory: /home/salvocos/tmp/sonicparanoid_runs/qfo2020-runs/sonic136-qfo20-ismb-all/sonic136-dmnd-qfo20-essentials-fast/alignments/
Pairwise tables directory: /home/salvocos/tmp/sonicparanoid_runs/qfo2020-runs/sonic136-qfo20-ismb-all/sonic136-dmnd-qfo20-essentials-fast/runs/sonic136-dmnd-qfo20-essentials-ismb21-ml5-fast/pairwise_orthologs/
Directory with ortholog groups: /home/salvocos/tmp/sonicparanoid_runs/qfo2020-runs/sonic136-qfo20-ismb-all/sonic136-dmnd-qfo20-essentials-fast/runs/sonic136-dmnd-qfo20-essentials-ismb21-ml5-fast/ortholog_groups/
Pairwise tables database directory: /home/salvocos/tmp/sonicparanoid_runs/qfo2020-runs/sonic136-qfo20-ismb-all/sonic136-dmnd-qfo20-essentials-fast/orthologs_db/
Update run:	False
Create pre-filter indexes:	False
Complete overwrite:	False
Re-create ortholog tables:	True
Threads:	128
Memory per thread (Gigabytes):	15.66
Minimum memory per thread (Gigabytes):	1.75
Compress alignments:	True
Compression level:	5
MCL inflation:	1.50

For the 78 input species 3003 combinations are possible.

6084 Diamond alignments will be performed...
Creating 78 Diamond databases...

Diamond databases creation elapsed time (seconds):	0.54

Performing 3081 alignment jobs using Diamond...
Elapsed time for all-vs-all alignments using Diamond (seconds):	602.482

Predicting 3003 ortholog tables...
Ortholog tables creation elapsed time (seconds):	15.567

Creating ortholog groups using MCL clustering...
Creating orthology matrixes...
Ortholog matrixes creation elapsed time (seconds):	6.215

Merging inparalog matrixes...
Inparalogs merging elapsed time (seconds):	13.43

Creating input matrix for MCL...
MCL graph creation elapsed time (seconds):	20.356

Running MCL...
MCL execution elapsed time (seconds):	780.023

Generating final output files...
Elapsed time for the creation of final output (seconds):	47.845
Ortholog groups creation elapsed time (seconds):	867.903

Ortholog groups:	35520
Single-copy ortholog groups:	17230

The ortholog groups and related statistics are stored in the directory:
/home/salvocos/tmp/sonicparanoid_runs/qfo2020-runs/sonic136-qfo20-ismb-all/sonic136-dmnd-qfo20-essentials-fast/runs/sonic136-dmnd-qfo20-essentials-ismb21-ml5-fast/ortholog_groups

Creating file with homolog pairs...
Total orthologous relations	11219356

Total elapsed time (seconds):	1524.434

@@@@ sonic136-dmnd-qfo20-essentials-default @@@@

Run START:	Sat Jun 12 16:04:44 2021
SonicParanoid 1.3.6 will be executed with the following parameters:
Run ID:	sonic136-dmnd-qfo20-essentials-ismb21-ml5-default
Run directory: /home/salvocos/tmp/sonicparanoid_runs/qfo2020-runs/sonic136-qfo20-ismb-all/sonic136-dmnd-qfo20-essentials-default/runs/sonic136-dmnd-qfo20-essentials-ismb21-ml5-default
Input directory: /home/salvocos/tmp/sonicparanoid_runs/qfo2020-runs/qfo2020processed_fixed_xtropicalis/
Input proteomes:	78
Output directory: /home/salvocos/tmp/sonicparanoid_runs/qfo2020-runs/sonic136-qfo20-ismb-all/sonic136-dmnd-qfo20-essentials-default
Run mode:	default (Diamond [--sensitive])
Python version: 3.8.5 (default, May 27 2021, 13:30:53) 
[GCC 9.3.0]
Python executables: /home/salvocos/work_repos/sonic-dev/bin/python3
SonicParanoid installation directory: /home/salvocos/work_repos/sonic-dev/lib/python3.8/site-packages/sonicparanoid
GCC version: 9
GCC distribution: 9
Alignments directory: /home/salvocos/tmp/sonicparanoid_runs/qfo2020-runs/sonic136-qfo20-ismb-all/sonic136-dmnd-qfo20-essentials-default/alignments/
Pairwise tables directory: /home/salvocos/tmp/sonicparanoid_runs/qfo2020-runs/sonic136-qfo20-ismb-all/sonic136-dmnd-qfo20-essentials-default/runs/sonic136-dmnd-qfo20-essentials-ismb21-ml5-default/pairwise_orthologs/
Directory with ortholog groups: /home/salvocos/tmp/sonicparanoid_runs/qfo2020-runs/sonic136-qfo20-ismb-all/sonic136-dmnd-qfo20-essentials-default/runs/sonic136-dmnd-qfo20-essentials-ismb21-ml5-default/ortholog_groups/
Pairwise tables database directory: /home/salvocos/tmp/sonicparanoid_runs/qfo2020-runs/sonic136-qfo20-ismb-all/sonic136-dmnd-qfo20-essentials-default/orthologs_db/
Update run:	False
Create pre-filter indexes:	False
Complete overwrite:	False
Re-create ortholog tables:	True
Threads:	128
Memory per thread (Gigabytes):	15.66
Minimum memory per thread (Gigabytes):	1.75
Compress alignments:	True
Compression level:	5
MCL inflation:	1.50

For the 78 input species 3003 combinations are possible.

6084 Diamond alignments will be performed...
Creating 78 Diamond databases...

Diamond databases creation elapsed time (seconds):	0.564

Performing 3081 alignment jobs using Diamond...
Elapsed time for all-vs-all alignments using Diamond (seconds):	1072.95

Predicting 3003 ortholog tables...
Ortholog tables creation elapsed time (seconds):	16.65

Creating ortholog groups using MCL clustering...
Creating orthology matrixes...
Ortholog matrixes creation elapsed time (seconds):	6.484

Merging inparalog matrixes...
Inparalogs merging elapsed time (seconds):	13.388

Creating input matrix for MCL...
MCL graph creation elapsed time (seconds):	21.079

Running MCL...
MCL execution elapsed time (seconds):	737.472

Generating final output files...
Elapsed time for the creation of final output (seconds):	47.39
Ortholog groups creation elapsed time (seconds):	825.856

Ortholog groups:	34899
Single-copy ortholog groups:	16694

The ortholog groups and related statistics are stored in the directory:
/home/salvocos/tmp/sonicparanoid_runs/qfo2020-runs/sonic136-qfo20-ismb-all/sonic136-dmnd-qfo20-essentials-default/runs/sonic136-dmnd-qfo20-essentials-ismb21-ml5-default/ortholog_groups

Creating file with homolog pairs...
Total orthologous relations	11616887

Total elapsed time (seconds):	1956.130

@@@@ sonic136-dmnd-qfo20-essentials-sensitive @@@@

Run START:	Sat Jun 12 16:37:21 2021
SonicParanoid 1.3.6 will be executed with the following parameters:
Run ID:	sonic136-dmnd-qfo20-essentials-ismb21-ml5-sensitive
Run directory: /home/salvocos/tmp/sonicparanoid_runs/qfo2020-runs/sonic136-qfo20-ismb-all/sonic136-dmnd-qfo20-essentials-sensitive/runs/sonic136-dmnd-qfo20-essentials-ismb21-ml5-sensitive
Input directory: /home/salvocos/tmp/sonicparanoid_runs/qfo2020-runs/qfo2020processed_fixed_xtropicalis/
Input proteomes:	78
Output directory: /home/salvocos/tmp/sonicparanoid_runs/qfo2020-runs/sonic136-qfo20-ismb-all/sonic136-dmnd-qfo20-essentials-sensitive
Run mode:	sensitive (Diamond [--very-sensitive])
Python version: 3.8.5 (default, May 27 2021, 13:30:53) 
[GCC 9.3.0]
Python executables: /home/salvocos/work_repos/sonic-dev/bin/python3
SonicParanoid installation directory: /home/salvocos/work_repos/sonic-dev/lib/python3.8/site-packages/sonicparanoid
GCC version: 9
GCC distribution: 9
Alignments directory: /home/salvocos/tmp/sonicparanoid_runs/qfo2020-runs/sonic136-qfo20-ismb-all/sonic136-dmnd-qfo20-essentials-sensitive/alignments/
Pairwise tables directory: /home/salvocos/tmp/sonicparanoid_runs/qfo2020-runs/sonic136-qfo20-ismb-all/sonic136-dmnd-qfo20-essentials-sensitive/runs/sonic136-dmnd-qfo20-essentials-ismb21-ml5-sensitive/pairwise_orthologs/
Directory with ortholog groups: /home/salvocos/tmp/sonicparanoid_runs/qfo2020-runs/sonic136-qfo20-ismb-all/sonic136-dmnd-qfo20-essentials-sensitive/runs/sonic136-dmnd-qfo20-essentials-ismb21-ml5-sensitive/ortholog_groups/
Pairwise tables database directory: /home/salvocos/tmp/sonicparanoid_runs/qfo2020-runs/sonic136-qfo20-ismb-all/sonic136-dmnd-qfo20-essentials-sensitive/orthologs_db/
Update run:	False
Create pre-filter indexes:	False
Complete overwrite:	False
Re-create ortholog tables:	True
Threads:	128
Memory per thread (Gigabytes):	15.66
Minimum memory per thread (Gigabytes):	1.75
Compress alignments:	True
Compression level:	5
MCL inflation:	1.50

For the 78 input species 3003 combinations are possible.

6084 Diamond alignments will be performed...
Creating 78 Diamond databases...

Diamond databases creation elapsed time (seconds):	0.532

Performing 3081 alignment jobs using Diamond...
Elapsed time for all-vs-all alignments using Diamond (seconds):	1339.651

Predicting 3003 ortholog tables...
Ortholog tables creation elapsed time (seconds):	17.685

Creating ortholog groups using MCL clustering...
Creating orthology matrixes...
Ortholog matrixes creation elapsed time (seconds):	6.709

Merging inparalog matrixes...
Inparalogs merging elapsed time (seconds):	13.72

Creating input matrix for MCL...
MCL graph creation elapsed time (seconds):	21.062

Running MCL...
MCL execution elapsed time (seconds):	713.205

Generating final output files...
Elapsed time for the creation of final output (seconds):	48.757
Ortholog groups creation elapsed time (seconds):	803.52

Ortholog groups:	34659
Single-copy ortholog groups:	16484

The ortholog groups and related statistics are stored in the directory:
/home/salvocos/tmp/sonicparanoid_runs/qfo2020-runs/sonic136-qfo20-ismb-all/sonic136-dmnd-qfo20-essentials-sensitive/runs/sonic136-dmnd-qfo20-essentials-ismb21-ml5-sensitive/ortholog_groups

Creating file with homolog pairs...
Total orthologous relations	11884276

Total elapsed time (seconds):	2201.368

@@@@ sonic136-dmnd-qfo20-essentials-most-sensitive @@@@

Run START:	Sat Jun 12 17:14:04 2021
SonicParanoid 1.3.6 will be executed with the following parameters:
Run ID:	sonic136-dmnd-qfo20-essentials-ismb21-ml5-most-sensitive
Run directory: /home/salvocos/tmp/sonicparanoid_runs/qfo2020-runs/sonic136-qfo20-ismb-all/sonic136-dmnd-qfo20-essentials-most-sensitive/runs/sonic136-dmnd-qfo20-essentials-ismb21-ml5-most-sensitive
Input directory: /home/salvocos/tmp/sonicparanoid_runs/qfo2020-runs/qfo2020processed_fixed_xtropicalis/
Input proteomes:	78
Output directory: /home/salvocos/tmp/sonicparanoid_runs/qfo2020-runs/sonic136-qfo20-ismb-all/sonic136-dmnd-qfo20-essentials-most-sensitive
Run mode:	most-sensitive (Diamond [--ultra-sensitive])
Python version: 3.8.5 (default, May 27 2021, 13:30:53) 
[GCC 9.3.0]
Python executables: /home/salvocos/work_repos/sonic-dev/bin/python3
SonicParanoid installation directory: /home/salvocos/work_repos/sonic-dev/lib/python3.8/site-packages/sonicparanoid
GCC version: 9
GCC distribution: 9
Alignments directory: /home/salvocos/tmp/sonicparanoid_runs/qfo2020-runs/sonic136-qfo20-ismb-all/sonic136-dmnd-qfo20-essentials-most-sensitive/alignments/
Pairwise tables directory: /home/salvocos/tmp/sonicparanoid_runs/qfo2020-runs/sonic136-qfo20-ismb-all/sonic136-dmnd-qfo20-essentials-most-sensitive/runs/sonic136-dmnd-qfo20-essentials-ismb21-ml5-most-sensitive/pairwise_orthologs/
Directory with ortholog groups: /home/salvocos/tmp/sonicparanoid_runs/qfo2020-runs/sonic136-qfo20-ismb-all/sonic136-dmnd-qfo20-essentials-most-sensitive/runs/sonic136-dmnd-qfo20-essentials-ismb21-ml5-most-sensitive/ortholog_groups/
Pairwise tables database directory: /home/salvocos/tmp/sonicparanoid_runs/qfo2020-runs/sonic136-qfo20-ismb-all/sonic136-dmnd-qfo20-essentials-most-sensitive/orthologs_db/
Update run:	False
Create pre-filter indexes:	False
Complete overwrite:	False
Re-create ortholog tables:	True
Threads:	128
Memory per thread (Gigabytes):	15.66
Minimum memory per thread (Gigabytes):	1.75
Compress alignments:	True
Compression level:	5
MCL inflation:	1.50

For the 78 input species 3003 combinations are possible.

6084 Diamond alignments will be performed...
Creating 78 Diamond databases...

Diamond databases creation elapsed time (seconds):	0.534

Performing 3081 alignment jobs using Diamond...
Elapsed time for all-vs-all alignments using Diamond (seconds):	5352.835

Predicting 3003 ortholog tables...
Ortholog tables creation elapsed time (seconds):	19.995

Creating ortholog groups using MCL clustering...
Creating orthology matrixes...
Ortholog matrixes creation elapsed time (seconds):	6.795

Merging inparalog matrixes...
Inparalogs merging elapsed time (seconds):	13.828

Creating input matrix for MCL...
MCL graph creation elapsed time (seconds):	21.035

Running MCL...
MCL execution elapsed time (seconds):	718.785

Generating final output files...
Elapsed time for the creation of final output (seconds):	46.456
Ortholog groups creation elapsed time (seconds):	806.96

Ortholog groups:	34506
Single-copy ortholog groups:	16385

The ortholog groups and related statistics are stored in the directory:
/home/salvocos/tmp/sonicparanoid_runs/qfo2020-runs/sonic136-qfo20-ismb-all/sonic136-dmnd-qfo20-essentials-most-sensitive/runs/sonic136-dmnd-qfo20-essentials-ismb21-ml5-most-sensitive/ortholog_groups

Creating file with homolog pairs...
Total orthologous relations	11964955

Total elapsed time (seconds):	6221.650
@@@@ sonic136-dmnd-qfo20-complete-fast @@@@


Run START:	Sat Jun 12 18:57:46 2021
SonicParanoid 1.3.6 will be executed with the following parameters:
Run ID:	sonic136-dmnd-qfo20-complete-ismb21-ml5-fast
Run directory: /home/salvocos/tmp/sonicparanoid_runs/qfo2020-runs/sonic136-qfo20-ismb-all/sonic136-dmnd-qfo20-complete-fast/runs/sonic136-dmnd-qfo20-complete-ismb21-ml5-fast
Input directory: /home/salvocos/tmp/sonicparanoid_runs/qfo2020-runs/qfo2020processed_fixed_xtropicalis/
Input proteomes:	78
Output directory: /home/salvocos/tmp/sonicparanoid_runs/qfo2020-runs/sonic136-qfo20-ismb-all/sonic136-dmnd-qfo20-complete-fast
Run mode:	fast (Diamond [--mid-sensitive])
Python version: 3.8.5 (default, May 27 2021, 13:30:53) 
[GCC 9.3.0]
Python executables: /home/salvocos/work_repos/sonic-dev/bin/python3
SonicParanoid installation directory: /home/salvocos/work_repos/sonic-dev/lib/python3.8/site-packages/sonicparanoid
GCC version: 9
GCC distribution: 9
Alignments directory: /home/salvocos/tmp/sonicparanoid_runs/qfo2020-runs/sonic136-qfo20-ismb-all/sonic136-dmnd-qfo20-complete-fast/alignments/
Pairwise tables directory: /home/salvocos/tmp/sonicparanoid_runs/qfo2020-runs/sonic136-qfo20-ismb-all/sonic136-dmnd-qfo20-complete-fast/runs/sonic136-dmnd-qfo20-complete-ismb21-ml5-fast/pairwise_orthologs/
Directory with ortholog groups: /home/salvocos/tmp/sonicparanoid_runs/qfo2020-runs/sonic136-qfo20-ismb-all/sonic136-dmnd-qfo20-complete-fast/runs/sonic136-dmnd-qfo20-complete-ismb21-ml5-fast/ortholog_groups/
Pairwise tables database directory: /home/salvocos/tmp/sonicparanoid_runs/qfo2020-runs/sonic136-qfo20-ismb-all/sonic136-dmnd-qfo20-complete-fast/orthologs_db/
Update run:	False
Create pre-filter indexes:	False
Complete overwrite:	False
Re-create ortholog tables:	True
Threads:	128
Memory per thread (Gigabytes):	15.66
Minimum memory per thread (Gigabytes):	1.75
Compress alignments:	True
Compression level:	5
MCL inflation:	1.50

For the 78 input species 3003 combinations are possible.

6084 Diamond alignments will be performed...
Creating 78 Diamond databases...

Diamond databases creation elapsed time (seconds):	0.567

Performing 3081 alignment jobs using Diamond...
Elapsed time for all-vs-all alignments using Diamond (seconds):	764.609

Predicting 3003 ortholog tables...
Ortholog tables creation elapsed time (seconds):	16.672

Creating ortholog groups using MCL clustering...
Creating orthology matrixes...
Ortholog matrixes creation elapsed time (seconds):	6.2

Merging inparalog matrixes...
Inparalogs merging elapsed time (seconds):	13.597

Creating input matrix for MCL...
MCL graph creation elapsed time (seconds):	20.685

Running MCL...
MCL execution elapsed time (seconds):	747.705

Generating final output files...
Elapsed time for the creation of final output (seconds):	48.804
Ortholog groups creation elapsed time (seconds):	837.028

Ortholog groups:	35517
Single-copy ortholog groups:	17218

The ortholog groups and related statistics are stored in the directory:
/home/salvocos/tmp/sonicparanoid_runs/qfo2020-runs/sonic136-qfo20-ismb-all/sonic136-dmnd-qfo20-complete-fast/runs/sonic136-dmnd-qfo20-complete-ismb21-ml5-fast/ortholog_groups

Creating file with homolog pairs...
Total orthologous relations	11252529

Total elapsed time (seconds):	1657.090

@@@@ sonic136-dmnd-qfo20-complete-default @@@@

Run START:	Sat Jun 12 19:25:24 2021
SonicParanoid 1.3.6 will be executed with the following parameters:
Run ID:	sonic136-dmnd-qfo20-complete-ismb21-ml5-default
Run directory: /home/salvocos/tmp/sonicparanoid_runs/qfo2020-runs/sonic136-qfo20-ismb-all/sonic136-dmnd-qfo20-complete-default/runs/sonic136-dmnd-qfo20-complete-ismb21-ml5-default
Input directory: /home/salvocos/tmp/sonicparanoid_runs/qfo2020-runs/qfo2020processed_fixed_xtropicalis/
Input proteomes:	78
Output directory: /home/salvocos/tmp/sonicparanoid_runs/qfo2020-runs/sonic136-qfo20-ismb-all/sonic136-dmnd-qfo20-complete-default
Run mode:	default (Diamond [--sensitive])
Python version: 3.8.5 (default, May 27 2021, 13:30:53) 
[GCC 9.3.0]
Python executables: /home/salvocos/work_repos/sonic-dev/bin/python3
SonicParanoid installation directory: /home/salvocos/work_repos/sonic-dev/lib/python3.8/site-packages/sonicparanoid
GCC version: 9
GCC distribution: 9
Alignments directory: /home/salvocos/tmp/sonicparanoid_runs/qfo2020-runs/sonic136-qfo20-ismb-all/sonic136-dmnd-qfo20-complete-default/alignments/
Pairwise tables directory: /home/salvocos/tmp/sonicparanoid_runs/qfo2020-runs/sonic136-qfo20-ismb-all/sonic136-dmnd-qfo20-complete-default/runs/sonic136-dmnd-qfo20-complete-ismb21-ml5-default/pairwise_orthologs/
Directory with ortholog groups: /home/salvocos/tmp/sonicparanoid_runs/qfo2020-runs/sonic136-qfo20-ismb-all/sonic136-dmnd-qfo20-complete-default/runs/sonic136-dmnd-qfo20-complete-ismb21-ml5-default/ortholog_groups/
Pairwise tables database directory: /home/salvocos/tmp/sonicparanoid_runs/qfo2020-runs/sonic136-qfo20-ismb-all/sonic136-dmnd-qfo20-complete-default/orthologs_db/
Update run:	False
Create pre-filter indexes:	False
Complete overwrite:	False
Re-create ortholog tables:	True
Threads:	128
Memory per thread (Gigabytes):	15.66
Minimum memory per thread (Gigabytes):	1.75
Compress alignments:	True
Compression level:	5
MCL inflation:	1.50

For the 78 input species 3003 combinations are possible.

6084 Diamond alignments will be performed...
Creating 78 Diamond databases...

Diamond databases creation elapsed time (seconds):	0.55

Performing 3081 alignment jobs using Diamond...
Elapsed time for all-vs-all alignments using Diamond (seconds):	1395.291

Predicting 3003 ortholog tables...
Ortholog tables creation elapsed time (seconds):	18.698

Creating ortholog groups using MCL clustering...
Creating orthology matrixes...
Ortholog matrixes creation elapsed time (seconds):	6.602

Merging inparalog matrixes...
Inparalogs merging elapsed time (seconds):	13.266

Creating input matrix for MCL...
MCL graph creation elapsed time (seconds):	20.85

Running MCL...
MCL execution elapsed time (seconds):	724.206

Generating final output files...
Elapsed time for the creation of final output (seconds):	47.211
Ortholog groups creation elapsed time (seconds):	812.173

Ortholog groups:	34915
Single-copy ortholog groups:	16698

The ortholog groups and related statistics are stored in the directory:
/home/salvocos/tmp/sonicparanoid_runs/qfo2020-runs/sonic136-qfo20-ismb-all/sonic136-dmnd-qfo20-complete-default/runs/sonic136-dmnd-qfo20-complete-ismb21-ml5-default/ortholog_groups

Creating file with homolog pairs...
Total orthologous relations	11659893

Total elapsed time (seconds):	2266.429

@@@@ sonic136-dmnd-qfo20-complete-sensitive @@@@

Run START:	Sat Jun 12 20:03:12 2021
SonicParanoid 1.3.6 will be executed with the following parameters:
Run ID:	sonic136-dmnd-qfo20-complete-ismb21-ml5-sensitive
Run directory: /home/salvocos/tmp/sonicparanoid_runs/qfo2020-runs/sonic136-qfo20-ismb-all/sonic136-dmnd-qfo20-complete-sensitive/runs/sonic136-dmnd-qfo20-complete-ismb21-ml5-sensitive
Input directory: /home/salvocos/tmp/sonicparanoid_runs/qfo2020-runs/qfo2020processed_fixed_xtropicalis/
Input proteomes:	78
Output directory: /home/salvocos/tmp/sonicparanoid_runs/qfo2020-runs/sonic136-qfo20-ismb-all/sonic136-dmnd-qfo20-complete-sensitive
Run mode:	sensitive (Diamond [--very-sensitive])
Python version: 3.8.5 (default, May 27 2021, 13:30:53) 
[GCC 9.3.0]
Python executables: /home/salvocos/work_repos/sonic-dev/bin/python3
SonicParanoid installation directory: /home/salvocos/work_repos/sonic-dev/lib/python3.8/site-packages/sonicparanoid
GCC version: 9
GCC distribution: 9
Alignments directory: /home/salvocos/tmp/sonicparanoid_runs/qfo2020-runs/sonic136-qfo20-ismb-all/sonic136-dmnd-qfo20-complete-sensitive/alignments/
Pairwise tables directory: /home/salvocos/tmp/sonicparanoid_runs/qfo2020-runs/sonic136-qfo20-ismb-all/sonic136-dmnd-qfo20-complete-sensitive/runs/sonic136-dmnd-qfo20-complete-ismb21-ml5-sensitive/pairwise_orthologs/
Directory with ortholog groups: /home/salvocos/tmp/sonicparanoid_runs/qfo2020-runs/sonic136-qfo20-ismb-all/sonic136-dmnd-qfo20-complete-sensitive/runs/sonic136-dmnd-qfo20-complete-ismb21-ml5-sensitive/ortholog_groups/
Pairwise tables database directory: /home/salvocos/tmp/sonicparanoid_runs/qfo2020-runs/sonic136-qfo20-ismb-all/sonic136-dmnd-qfo20-complete-sensitive/orthologs_db/
Update run:	False
Create pre-filter indexes:	False
Complete overwrite:	False
Re-create ortholog tables:	True
Threads:	128
Memory per thread (Gigabytes):	15.66
Minimum memory per thread (Gigabytes):	1.75
Compress alignments:	True
Compression level:	5
MCL inflation:	1.50

For the 78 input species 3003 combinations are possible.

6084 Diamond alignments will be performed...
Creating 78 Diamond databases...

Diamond databases creation elapsed time (seconds):	0.537

Performing 3081 alignment jobs using Diamond...
Elapsed time for all-vs-all alignments using Diamond (seconds):	1741.218

Predicting 3003 ortholog tables...
Ortholog tables creation elapsed time (seconds):	17.569

Creating ortholog groups using MCL clustering...
Creating orthology matrixes...
Ortholog matrixes creation elapsed time (seconds):	6.678

Merging inparalog matrixes...
Inparalogs merging elapsed time (seconds):	13.545

Creating input matrix for MCL...
MCL graph creation elapsed time (seconds):	20.952

Running MCL...
MCL execution elapsed time (seconds):	705.959

Generating final output files...
Elapsed time for the creation of final output (seconds):	47.564
Ortholog groups creation elapsed time (seconds):	794.731

Ortholog groups:	34682
Single-copy ortholog groups:	16484

The ortholog groups and related statistics are stored in the directory:
/home/salvocos/tmp/sonicparanoid_runs/qfo2020-runs/sonic136-qfo20-ismb-all/sonic136-dmnd-qfo20-complete-sensitive/runs/sonic136-dmnd-qfo20-complete-ismb21-ml5-sensitive/ortholog_groups

Creating file with homolog pairs...
Total orthologous relations	11901686

Total elapsed time (seconds):	2594.752

@@@@ sonic136-dmnd-qfo20-complete-most-sensitive @@@@

Run START:	Sat Jun 12 20:46:27 2021
SonicParanoid 1.3.6 will be executed with the following parameters:
Run ID:	sonic136-dmnd-qfo20-complete-ismb21-ml5-most-sensitive
Run directory: /home/salvocos/tmp/sonicparanoid_runs/qfo2020-runs/sonic136-qfo20-ismb-all/sonic136-dmnd-qfo20-complete-most-sensitive/runs/sonic136-dmnd-qfo20-complete-ismb21-ml5-most-sensitive
Input directory: /home/salvocos/tmp/sonicparanoid_runs/qfo2020-runs/qfo2020processed_fixed_xtropicalis/
Input proteomes:	78
Output directory: /home/salvocos/tmp/sonicparanoid_runs/qfo2020-runs/sonic136-qfo20-ismb-all/sonic136-dmnd-qfo20-complete-most-sensitive
Run mode:	most-sensitive (Diamond [--ultra-sensitive])
Python version: 3.8.5 (default, May 27 2021, 13:30:53) 
[GCC 9.3.0]
Python executables: /home/salvocos/work_repos/sonic-dev/bin/python3
SonicParanoid installation directory: /home/salvocos/work_repos/sonic-dev/lib/python3.8/site-packages/sonicparanoid
GCC version: 9
GCC distribution: 9
Alignments directory: /home/salvocos/tmp/sonicparanoid_runs/qfo2020-runs/sonic136-qfo20-ismb-all/sonic136-dmnd-qfo20-complete-most-sensitive/alignments/
Pairwise tables directory: /home/salvocos/tmp/sonicparanoid_runs/qfo2020-runs/sonic136-qfo20-ismb-all/sonic136-dmnd-qfo20-complete-most-sensitive/runs/sonic136-dmnd-qfo20-complete-ismb21-ml5-most-sensitive/pairwise_orthologs/
Directory with ortholog groups: /home/salvocos/tmp/sonicparanoid_runs/qfo2020-runs/sonic136-qfo20-ismb-all/sonic136-dmnd-qfo20-complete-most-sensitive/runs/sonic136-dmnd-qfo20-complete-ismb21-ml5-most-sensitive/ortholog_groups/
Pairwise tables database directory: /home/salvocos/tmp/sonicparanoid_runs/qfo2020-runs/sonic136-qfo20-ismb-all/sonic136-dmnd-qfo20-complete-most-sensitive/orthologs_db/
Update run:	False
Create pre-filter indexes:	False
Complete overwrite:	False
Re-create ortholog tables:	True
Threads:	128
Memory per thread (Gigabytes):	15.66
Minimum memory per thread (Gigabytes):	1.75
Compress alignments:	True
Compression level:	5
MCL inflation:	1.50

For the 78 input species 3003 combinations are possible.

6084 Diamond alignments will be performed...
Creating 78 Diamond databases...

Diamond databases creation elapsed time (seconds):	0.559

Performing 3081 alignment jobs using Diamond...
Elapsed time for all-vs-all alignments using Diamond (seconds):	5898.998

Predicting 3003 ortholog tables...
Ortholog tables creation elapsed time (seconds):	18.79

Creating ortholog groups using MCL clustering...
Creating orthology matrixes...
Ortholog matrixes creation elapsed time (seconds):	6.733

Merging inparalog matrixes...
Inparalogs merging elapsed time (seconds):	13.423

Creating input matrix for MCL...
MCL graph creation elapsed time (seconds):	21.059

Running MCL...
MCL execution elapsed time (seconds):	705.931

Generating final output files...
Elapsed time for the creation of final output (seconds):	46.663
Ortholog groups creation elapsed time (seconds):	793.849

Ortholog groups:	34540
Single-copy ortholog groups:	16409

The ortholog groups and related statistics are stored in the directory:
/home/salvocos/tmp/sonicparanoid_runs/qfo2020-runs/sonic136-qfo20-ismb-all/sonic136-dmnd-qfo20-complete-most-sensitive/runs/sonic136-dmnd-qfo20-complete-ismb21-ml5-most-sensitive/ortholog_groups

Creating file with homolog pairs...
Total orthologous relations	11947664

Total elapsed time (seconds):	6752.768
2021年  6月 12日 土曜日 22:39:00 JST
