<?xml version="1.0" encoding="utf-8" standalone="no"?>
<!DOCTYPE svg PUBLIC "-//W3C//DTD SVG 1.1//EN"
  "http://www.w3.org/Graphics/SVG/1.1/DTD/svg11.dtd">
<svg height="345.6pt" version="1.1" viewBox="0 0 460.8 345.6" width="460.8pt" xmlns="http://www.w3.org/2000/svg" xmlns:xlink="http://www.w3.org/1999/xlink">
 <metadata>
  <rdf:RDF xmlns:cc="http://creativecommons.org/ns#" xmlns:dc="http://purl.org/dc/elements/1.1/" xmlns:rdf="http://www.w3.org/1999/02/22-rdf-syntax-ns#">
   <cc:Work>
    <dc:type rdf:resource="http://purl.org/dc/dcmitype/StillImage"/>
    <dc:date>2021-09-11T09:15:56.354341</dc:date>
    <dc:format>image/svg+xml</dc:format>
    <dc:creator>
     <cc:Agent>
      <dc:title>Matplotlib v3.4.3, https://matplotlib.org/</dc:title>
     </cc:Agent>
    </dc:creator>
   </cc:Work>
  </rdf:RDF>
 </metadata>
 <defs>
  <style type="text/css">*{stroke-linecap:butt;stroke-linejoin:round;}</style>
 </defs>
 <g id="figure_1">
  <g id="patch_1">
   <path d="M 0 345.6 
L 460.8 345.6 
L 460.8 0 
L 0 0 
z
" style="fill:#ffffff;"/>
  </g>
  <g id="axes_1">
   <g id="patch_2">
    <path d="M 57.6 307.584 
L 414.72 307.584 
L 414.72 41.472 
L 57.6 41.472 
z
" style="fill:#ffffff;"/>
   </g>
   <g id="matplotlib.axis_1">
    <g id="xtick_1">
     <g id="text_1">
      <!-- eukaryota -->
      <g style="fill:#262626;" transform="translate(89.382812 325.442281)scale(0.11 -0.11)">
       <defs>
        <path d="M 3597 1894 
L 3597 1613 
L 953 1613 
Q 991 1019 1311 708 
Q 1631 397 2203 397 
Q 2534 397 2845 478 
Q 3156 559 3463 722 
L 3463 178 
Q 3153 47 2828 -22 
Q 2503 -91 2169 -91 
Q 1331 -91 842 396 
Q 353 884 353 1716 
Q 353 2575 817 3079 
Q 1281 3584 2069 3584 
Q 2775 3584 3186 3129 
Q 3597 2675 3597 1894 
z
M 3022 2063 
Q 3016 2534 2758 2815 
Q 2500 3097 2075 3097 
Q 1594 3097 1305 2825 
Q 1016 2553 972 2059 
L 3022 2063 
z
" id="DejaVuSans-65" transform="scale(0.015625)"/>
        <path d="M 544 1381 
L 544 3500 
L 1119 3500 
L 1119 1403 
Q 1119 906 1312 657 
Q 1506 409 1894 409 
Q 2359 409 2629 706 
Q 2900 1003 2900 1516 
L 2900 3500 
L 3475 3500 
L 3475 0 
L 2900 0 
L 2900 538 
Q 2691 219 2414 64 
Q 2138 -91 1772 -91 
Q 1169 -91 856 284 
Q 544 659 544 1381 
z
M 1991 3584 
L 1991 3584 
z
" id="DejaVuSans-75" transform="scale(0.015625)"/>
        <path d="M 581 4863 
L 1159 4863 
L 1159 1991 
L 2875 3500 
L 3609 3500 
L 1753 1863 
L 3688 0 
L 2938 0 
L 1159 1709 
L 1159 0 
L 581 0 
L 581 4863 
z
" id="DejaVuSans-6b" transform="scale(0.015625)"/>
        <path d="M 2194 1759 
Q 1497 1759 1228 1600 
Q 959 1441 959 1056 
Q 959 750 1161 570 
Q 1363 391 1709 391 
Q 2188 391 2477 730 
Q 2766 1069 2766 1631 
L 2766 1759 
L 2194 1759 
z
M 3341 1997 
L 3341 0 
L 2766 0 
L 2766 531 
Q 2569 213 2275 61 
Q 1981 -91 1556 -91 
Q 1019 -91 701 211 
Q 384 513 384 1019 
Q 384 1609 779 1909 
Q 1175 2209 1959 2209 
L 2766 2209 
L 2766 2266 
Q 2766 2663 2505 2880 
Q 2244 3097 1772 3097 
Q 1472 3097 1187 3025 
Q 903 2953 641 2809 
L 641 3341 
Q 956 3463 1253 3523 
Q 1550 3584 1831 3584 
Q 2591 3584 2966 3190 
Q 3341 2797 3341 1997 
z
" id="DejaVuSans-61" transform="scale(0.015625)"/>
        <path d="M 2631 2963 
Q 2534 3019 2420 3045 
Q 2306 3072 2169 3072 
Q 1681 3072 1420 2755 
Q 1159 2438 1159 1844 
L 1159 0 
L 581 0 
L 581 3500 
L 1159 3500 
L 1159 2956 
Q 1341 3275 1631 3429 
Q 1922 3584 2338 3584 
Q 2397 3584 2469 3576 
Q 2541 3569 2628 3553 
L 2631 2963 
z
" id="DejaVuSans-72" transform="scale(0.015625)"/>
        <path d="M 2059 -325 
Q 1816 -950 1584 -1140 
Q 1353 -1331 966 -1331 
L 506 -1331 
L 506 -850 
L 844 -850 
Q 1081 -850 1212 -737 
Q 1344 -625 1503 -206 
L 1606 56 
L 191 3500 
L 800 3500 
L 1894 763 
L 2988 3500 
L 3597 3500 
L 2059 -325 
z
" id="DejaVuSans-79" transform="scale(0.015625)"/>
        <path d="M 1959 3097 
Q 1497 3097 1228 2736 
Q 959 2375 959 1747 
Q 959 1119 1226 758 
Q 1494 397 1959 397 
Q 2419 397 2687 759 
Q 2956 1122 2956 1747 
Q 2956 2369 2687 2733 
Q 2419 3097 1959 3097 
z
M 1959 3584 
Q 2709 3584 3137 3096 
Q 3566 2609 3566 1747 
Q 3566 888 3137 398 
Q 2709 -91 1959 -91 
Q 1206 -91 779 398 
Q 353 888 353 1747 
Q 353 2609 779 3096 
Q 1206 3584 1959 3584 
z
" id="DejaVuSans-6f" transform="scale(0.015625)"/>
        <path d="M 1172 4494 
L 1172 3500 
L 2356 3500 
L 2356 3053 
L 1172 3053 
L 1172 1153 
Q 1172 725 1289 603 
Q 1406 481 1766 481 
L 2356 481 
L 2356 0 
L 1766 0 
Q 1100 0 847 248 
Q 594 497 594 1153 
L 594 3053 
L 172 3053 
L 172 3500 
L 594 3500 
L 594 4494 
L 1172 4494 
z
" id="DejaVuSans-74" transform="scale(0.015625)"/>
       </defs>
       <use xlink:href="#DejaVuSans-65"/>
       <use x="61.523438" xlink:href="#DejaVuSans-75"/>
       <use x="124.902344" xlink:href="#DejaVuSans-6b"/>
       <use x="181.0625" xlink:href="#DejaVuSans-61"/>
       <use x="242.341797" xlink:href="#DejaVuSans-72"/>
       <use x="283.455078" xlink:href="#DejaVuSans-79"/>
       <use x="342.634766" xlink:href="#DejaVuSans-6f"/>
       <use x="403.816406" xlink:href="#DejaVuSans-74"/>
       <use x="443.025391" xlink:href="#DejaVuSans-61"/>
      </g>
     </g>
    </g>
    <g id="xtick_2">
     <g id="text_2">
      <!-- bacteria -->
      <g style="fill:#262626;" transform="translate(213.573906 325.442281)scale(0.11 -0.11)">
       <defs>
        <path d="M 3116 1747 
Q 3116 2381 2855 2742 
Q 2594 3103 2138 3103 
Q 1681 3103 1420 2742 
Q 1159 2381 1159 1747 
Q 1159 1113 1420 752 
Q 1681 391 2138 391 
Q 2594 391 2855 752 
Q 3116 1113 3116 1747 
z
M 1159 2969 
Q 1341 3281 1617 3432 
Q 1894 3584 2278 3584 
Q 2916 3584 3314 3078 
Q 3713 2572 3713 1747 
Q 3713 922 3314 415 
Q 2916 -91 2278 -91 
Q 1894 -91 1617 61 
Q 1341 213 1159 525 
L 1159 0 
L 581 0 
L 581 4863 
L 1159 4863 
L 1159 2969 
z
" id="DejaVuSans-62" transform="scale(0.015625)"/>
        <path d="M 3122 3366 
L 3122 2828 
Q 2878 2963 2633 3030 
Q 2388 3097 2138 3097 
Q 1578 3097 1268 2742 
Q 959 2388 959 1747 
Q 959 1106 1268 751 
Q 1578 397 2138 397 
Q 2388 397 2633 464 
Q 2878 531 3122 666 
L 3122 134 
Q 2881 22 2623 -34 
Q 2366 -91 2075 -91 
Q 1284 -91 818 406 
Q 353 903 353 1747 
Q 353 2603 823 3093 
Q 1294 3584 2113 3584 
Q 2378 3584 2631 3529 
Q 2884 3475 3122 3366 
z
" id="DejaVuSans-63" transform="scale(0.015625)"/>
        <path d="M 603 3500 
L 1178 3500 
L 1178 0 
L 603 0 
L 603 3500 
z
M 603 4863 
L 1178 4863 
L 1178 4134 
L 603 4134 
L 603 4863 
z
" id="DejaVuSans-69" transform="scale(0.015625)"/>
       </defs>
       <use xlink:href="#DejaVuSans-62"/>
       <use x="63.476562" xlink:href="#DejaVuSans-61"/>
       <use x="124.755859" xlink:href="#DejaVuSans-63"/>
       <use x="179.736328" xlink:href="#DejaVuSans-74"/>
       <use x="218.945312" xlink:href="#DejaVuSans-65"/>
       <use x="280.46875" xlink:href="#DejaVuSans-72"/>
       <use x="321.582031" xlink:href="#DejaVuSans-69"/>
       <use x="349.365234" xlink:href="#DejaVuSans-61"/>
      </g>
     </g>
    </g>
    <g id="xtick_3">
     <g id="text_3">
      <!-- archaea -->
      <g style="fill:#262626;" transform="translate(333.057344 325.442281)scale(0.11 -0.11)">
       <defs>
        <path d="M 3513 2113 
L 3513 0 
L 2938 0 
L 2938 2094 
Q 2938 2591 2744 2837 
Q 2550 3084 2163 3084 
Q 1697 3084 1428 2787 
Q 1159 2491 1159 1978 
L 1159 0 
L 581 0 
L 581 4863 
L 1159 4863 
L 1159 2956 
Q 1366 3272 1645 3428 
Q 1925 3584 2291 3584 
Q 2894 3584 3203 3211 
Q 3513 2838 3513 2113 
z
" id="DejaVuSans-68" transform="scale(0.015625)"/>
       </defs>
       <use xlink:href="#DejaVuSans-61"/>
       <use x="61.279297" xlink:href="#DejaVuSans-72"/>
       <use x="100.142578" xlink:href="#DejaVuSans-63"/>
       <use x="155.123047" xlink:href="#DejaVuSans-68"/>
       <use x="218.501953" xlink:href="#DejaVuSans-61"/>
       <use x="279.78125" xlink:href="#DejaVuSans-65"/>
       <use x="341.304688" xlink:href="#DejaVuSans-61"/>
      </g>
     </g>
    </g>
    <g id="text_4">
     <!-- Domain -->
     <g style="fill:#262626;" transform="translate(212.878125 340.848062)scale(0.12 -0.12)">
      <defs>
       <path d="M 1259 4147 
L 1259 519 
L 2022 519 
Q 2988 519 3436 956 
Q 3884 1394 3884 2338 
Q 3884 3275 3436 3711 
Q 2988 4147 2022 4147 
L 1259 4147 
z
M 628 4666 
L 1925 4666 
Q 3281 4666 3915 4102 
Q 4550 3538 4550 2338 
Q 4550 1131 3912 565 
Q 3275 0 1925 0 
L 628 0 
L 628 4666 
z
" id="DejaVuSans-44" transform="scale(0.015625)"/>
       <path d="M 3328 2828 
Q 3544 3216 3844 3400 
Q 4144 3584 4550 3584 
Q 5097 3584 5394 3201 
Q 5691 2819 5691 2113 
L 5691 0 
L 5113 0 
L 5113 2094 
Q 5113 2597 4934 2840 
Q 4756 3084 4391 3084 
Q 3944 3084 3684 2787 
Q 3425 2491 3425 1978 
L 3425 0 
L 2847 0 
L 2847 2094 
Q 2847 2600 2669 2842 
Q 2491 3084 2119 3084 
Q 1678 3084 1418 2786 
Q 1159 2488 1159 1978 
L 1159 0 
L 581 0 
L 581 3500 
L 1159 3500 
L 1159 2956 
Q 1356 3278 1631 3431 
Q 1906 3584 2284 3584 
Q 2666 3584 2933 3390 
Q 3200 3197 3328 2828 
z
" id="DejaVuSans-6d" transform="scale(0.015625)"/>
       <path d="M 3513 2113 
L 3513 0 
L 2938 0 
L 2938 2094 
Q 2938 2591 2744 2837 
Q 2550 3084 2163 3084 
Q 1697 3084 1428 2787 
Q 1159 2491 1159 1978 
L 1159 0 
L 581 0 
L 581 3500 
L 1159 3500 
L 1159 2956 
Q 1366 3272 1645 3428 
Q 1925 3584 2291 3584 
Q 2894 3584 3203 3211 
Q 3513 2838 3513 2113 
z
" id="DejaVuSans-6e" transform="scale(0.015625)"/>
      </defs>
      <use xlink:href="#DejaVuSans-44"/>
      <use x="77.001953" xlink:href="#DejaVuSans-6f"/>
      <use x="138.183594" xlink:href="#DejaVuSans-6d"/>
      <use x="235.595703" xlink:href="#DejaVuSans-61"/>
      <use x="296.875" xlink:href="#DejaVuSans-69"/>
      <use x="324.658203" xlink:href="#DejaVuSans-6e"/>
     </g>
    </g>
   </g>
   <g id="matplotlib.axis_2">
    <g id="ytick_1">
     <g id="line2d_1">
      <path clip-path="url(#p02dd77803e)" d="M 57.6 297.185975 
L 414.72 297.185975 
" style="fill:none;stroke:#cccccc;stroke-linecap:round;"/>
     </g>
     <g id="text_5">
      <!-- 0 -->
      <g style="fill:#262626;" transform="translate(41.10125 301.365116)scale(0.11 -0.11)">
       <defs>
        <path d="M 2034 4250 
Q 1547 4250 1301 3770 
Q 1056 3291 1056 2328 
Q 1056 1369 1301 889 
Q 1547 409 2034 409 
Q 2525 409 2770 889 
Q 3016 1369 3016 2328 
Q 3016 3291 2770 3770 
Q 2525 4250 2034 4250 
z
M 2034 4750 
Q 2819 4750 3233 4129 
Q 3647 3509 3647 2328 
Q 3647 1150 3233 529 
Q 2819 -91 2034 -91 
Q 1250 -91 836 529 
Q 422 1150 422 2328 
Q 422 3509 836 4129 
Q 1250 4750 2034 4750 
z
" id="DejaVuSans-30" transform="scale(0.015625)"/>
       </defs>
       <use xlink:href="#DejaVuSans-30"/>
      </g>
     </g>
    </g>
    <g id="ytick_2">
     <g id="line2d_2">
      <path clip-path="url(#p02dd77803e)" d="M 57.6 241.130164 
L 414.72 241.130164 
" style="fill:none;stroke:#cccccc;stroke-linecap:round;"/>
     </g>
     <g id="text_6">
      <!-- 5 -->
      <g style="fill:#262626;" transform="translate(41.10125 245.309304)scale(0.11 -0.11)">
       <defs>
        <path d="M 691 4666 
L 3169 4666 
L 3169 4134 
L 1269 4134 
L 1269 2991 
Q 1406 3038 1543 3061 
Q 1681 3084 1819 3084 
Q 2600 3084 3056 2656 
Q 3513 2228 3513 1497 
Q 3513 744 3044 326 
Q 2575 -91 1722 -91 
Q 1428 -91 1123 -41 
Q 819 9 494 109 
L 494 744 
Q 775 591 1075 516 
Q 1375 441 1709 441 
Q 2250 441 2565 725 
Q 2881 1009 2881 1497 
Q 2881 1984 2565 2268 
Q 2250 2553 1709 2553 
Q 1456 2553 1204 2497 
Q 953 2441 691 2322 
L 691 4666 
z
" id="DejaVuSans-35" transform="scale(0.015625)"/>
       </defs>
       <use xlink:href="#DejaVuSans-35"/>
      </g>
     </g>
    </g>
    <g id="ytick_3">
     <g id="line2d_3">
      <path clip-path="url(#p02dd77803e)" d="M 57.6 185.074352 
L 414.72 185.074352 
" style="fill:none;stroke:#cccccc;stroke-linecap:round;"/>
     </g>
     <g id="text_7">
      <!-- 10 -->
      <g style="fill:#262626;" transform="translate(34.1025 189.253492)scale(0.11 -0.11)">
       <defs>
        <path d="M 794 531 
L 1825 531 
L 1825 4091 
L 703 3866 
L 703 4441 
L 1819 4666 
L 2450 4666 
L 2450 531 
L 3481 531 
L 3481 0 
L 794 0 
L 794 531 
z
" id="DejaVuSans-31" transform="scale(0.015625)"/>
       </defs>
       <use xlink:href="#DejaVuSans-31"/>
       <use x="63.623047" xlink:href="#DejaVuSans-30"/>
      </g>
     </g>
    </g>
    <g id="ytick_4">
     <g id="line2d_4">
      <path clip-path="url(#p02dd77803e)" d="M 57.6 129.01854 
L 414.72 129.01854 
" style="fill:none;stroke:#cccccc;stroke-linecap:round;"/>
     </g>
     <g id="text_8">
      <!-- 15 -->
      <g style="fill:#262626;" transform="translate(34.1025 133.19768)scale(0.11 -0.11)">
       <use xlink:href="#DejaVuSans-31"/>
       <use x="63.623047" xlink:href="#DejaVuSans-35"/>
      </g>
     </g>
    </g>
    <g id="ytick_5">
     <g id="line2d_5">
      <path clip-path="url(#p02dd77803e)" d="M 57.6 72.962728 
L 414.72 72.962728 
" style="fill:none;stroke:#cccccc;stroke-linecap:round;"/>
     </g>
     <g id="text_9">
      <!-- 20 -->
      <g style="fill:#262626;" transform="translate(34.1025 77.141869)scale(0.11 -0.11)">
       <defs>
        <path d="M 1228 531 
L 3431 531 
L 3431 0 
L 469 0 
L 469 531 
Q 828 903 1448 1529 
Q 2069 2156 2228 2338 
Q 2531 2678 2651 2914 
Q 2772 3150 2772 3378 
Q 2772 3750 2511 3984 
Q 2250 4219 1831 4219 
Q 1534 4219 1204 4116 
Q 875 4013 500 3803 
L 500 4441 
Q 881 4594 1212 4672 
Q 1544 4750 1819 4750 
Q 2544 4750 2975 4387 
Q 3406 4025 3406 3419 
Q 3406 3131 3298 2873 
Q 3191 2616 2906 2266 
Q 2828 2175 2409 1742 
Q 1991 1309 1228 531 
z
" id="DejaVuSans-32" transform="scale(0.015625)"/>
       </defs>
       <use xlink:href="#DejaVuSans-32"/>
       <use x="63.623047" xlink:href="#DejaVuSans-30"/>
      </g>
     </g>
    </g>
    <g id="text_10">
     <!-- Proteome size -->
     <g style="fill:#262626;" transform="translate(27.606875 216.8355)rotate(-90)scale(0.12 -0.12)">
      <defs>
       <path d="M 1259 4147 
L 1259 2394 
L 2053 2394 
Q 2494 2394 2734 2622 
Q 2975 2850 2975 3272 
Q 2975 3691 2734 3919 
Q 2494 4147 2053 4147 
L 1259 4147 
z
M 628 4666 
L 2053 4666 
Q 2838 4666 3239 4311 
Q 3641 3956 3641 3272 
Q 3641 2581 3239 2228 
Q 2838 1875 2053 1875 
L 1259 1875 
L 1259 0 
L 628 0 
L 628 4666 
z
" id="DejaVuSans-50" transform="scale(0.015625)"/>
       <path id="DejaVuSans-20" transform="scale(0.015625)"/>
       <path d="M 2834 3397 
L 2834 2853 
Q 2591 2978 2328 3040 
Q 2066 3103 1784 3103 
Q 1356 3103 1142 2972 
Q 928 2841 928 2578 
Q 928 2378 1081 2264 
Q 1234 2150 1697 2047 
L 1894 2003 
Q 2506 1872 2764 1633 
Q 3022 1394 3022 966 
Q 3022 478 2636 193 
Q 2250 -91 1575 -91 
Q 1294 -91 989 -36 
Q 684 19 347 128 
L 347 722 
Q 666 556 975 473 
Q 1284 391 1588 391 
Q 1994 391 2212 530 
Q 2431 669 2431 922 
Q 2431 1156 2273 1281 
Q 2116 1406 1581 1522 
L 1381 1569 
Q 847 1681 609 1914 
Q 372 2147 372 2553 
Q 372 3047 722 3315 
Q 1072 3584 1716 3584 
Q 2034 3584 2315 3537 
Q 2597 3491 2834 3397 
z
" id="DejaVuSans-73" transform="scale(0.015625)"/>
       <path d="M 353 3500 
L 3084 3500 
L 3084 2975 
L 922 459 
L 3084 459 
L 3084 0 
L 275 0 
L 275 525 
L 2438 3041 
L 353 3041 
L 353 3500 
z
" id="DejaVuSans-7a" transform="scale(0.015625)"/>
      </defs>
      <use xlink:href="#DejaVuSans-50"/>
      <use x="58.552734" xlink:href="#DejaVuSans-72"/>
      <use x="97.416016" xlink:href="#DejaVuSans-6f"/>
      <use x="158.597656" xlink:href="#DejaVuSans-74"/>
      <use x="197.806641" xlink:href="#DejaVuSans-65"/>
      <use x="259.330078" xlink:href="#DejaVuSans-6f"/>
      <use x="320.511719" xlink:href="#DejaVuSans-6d"/>
      <use x="417.923828" xlink:href="#DejaVuSans-65"/>
      <use x="479.447266" xlink:href="#DejaVuSans-20"/>
      <use x="511.234375" xlink:href="#DejaVuSans-73"/>
      <use x="563.333984" xlink:href="#DejaVuSans-69"/>
      <use x="591.117188" xlink:href="#DejaVuSans-7a"/>
      <use x="643.607422" xlink:href="#DejaVuSans-65"/>
     </g>
    </g>
   </g>
   <g id="patch_3">
    <path clip-path="url(#p02dd77803e)" d="M 69.504 253.577696 
L 164.736 253.577696 
L 164.736 187.144218 
L 69.504 187.144218 
L 69.504 253.577696 
z
" style="fill:#5875a4;stroke:#4c4c4c;stroke-linejoin:miter;stroke-width:1.5;"/>
   </g>
   <g id="patch_4">
    <path clip-path="url(#p02dd77803e)" d="M 188.544 289.139178 
L 283.776 289.139178 
L 283.776 281.968829 
L 188.544 281.968829 
L 188.544 289.139178 
z
" style="fill:#cc8963;stroke:#4c4c4c;stroke-linejoin:miter;stroke-width:1.5;"/>
   </g>
   <g id="patch_5">
    <path clip-path="url(#p02dd77803e)" d="M 307.584 291.654494 
L 402.816 291.654494 
L 402.816 286.148376 
L 307.584 286.148376 
L 307.584 291.654494 
z
" style="fill:#5f9e6e;stroke:#4c4c4c;stroke-linejoin:miter;stroke-width:1.5;"/>
   </g>
   <g id="line2d_6">
    <path clip-path="url(#p02dd77803e)" d="M 117.12 253.577696 
L 117.12 289.647848 
" style="fill:none;stroke:#4c4c4c;stroke-linecap:round;stroke-width:1.5;"/>
   </g>
   <g id="line2d_7">
    <path clip-path="url(#p02dd77803e)" d="M 117.12 187.144218 
L 117.12 95.279567 
" style="fill:none;stroke:#4c4c4c;stroke-linecap:round;stroke-width:1.5;"/>
   </g>
   <g id="line2d_8">
    <path clip-path="url(#p02dd77803e)" d="M 93.312 289.647848 
L 140.928 289.647848 
" style="fill:none;stroke:#4c4c4c;stroke-linecap:round;stroke-width:1.5;"/>
   </g>
   <g id="line2d_9">
    <path clip-path="url(#p02dd77803e)" d="M 93.312 95.279567 
L 140.928 95.279567 
" style="fill:none;stroke:#4c4c4c;stroke-linecap:round;stroke-width:1.5;"/>
   </g>
   <g id="line2d_10"/>
   <g id="line2d_11">
    <path clip-path="url(#p02dd77803e)" d="M 236.16 289.139178 
L 236.16 294.632476 
" style="fill:none;stroke:#4c4c4c;stroke-linecap:round;stroke-width:1.5;"/>
   </g>
   <g id="line2d_12">
    <path clip-path="url(#p02dd77803e)" d="M 236.16 281.968829 
L 236.16 273.839111 
" style="fill:none;stroke:#4c4c4c;stroke-linecap:round;stroke-width:1.5;"/>
   </g>
   <g id="line2d_13">
    <path clip-path="url(#p02dd77803e)" d="M 212.352 294.632476 
L 259.968 294.632476 
" style="fill:none;stroke:#4c4c4c;stroke-linecap:round;stroke-width:1.5;"/>
   </g>
   <g id="line2d_14">
    <path clip-path="url(#p02dd77803e)" d="M 212.352 273.839111 
L 259.968 273.839111 
" style="fill:none;stroke:#4c4c4c;stroke-linecap:round;stroke-width:1.5;"/>
   </g>
   <g id="line2d_15"/>
   <g id="line2d_16">
    <path clip-path="url(#p02dd77803e)" d="M 355.2 291.654494 
L 355.2 295.488 
" style="fill:none;stroke:#4c4c4c;stroke-linecap:round;stroke-width:1.5;"/>
   </g>
   <g id="line2d_17">
    <path clip-path="url(#p02dd77803e)" d="M 355.2 286.148376 
L 355.2 280.660991 
" style="fill:none;stroke:#4c4c4c;stroke-linecap:round;stroke-width:1.5;"/>
   </g>
   <g id="line2d_18">
    <path clip-path="url(#p02dd77803e)" d="M 331.392 295.488 
L 379.008 295.488 
" style="fill:none;stroke:#4c4c4c;stroke-linecap:round;stroke-width:1.5;"/>
   </g>
   <g id="line2d_19">
    <path clip-path="url(#p02dd77803e)" d="M 331.392 280.660991 
L 379.008 280.660991 
" style="fill:none;stroke:#4c4c4c;stroke-linecap:round;stroke-width:1.5;"/>
   </g>
   <g id="line2d_20"/>
   <g id="line2d_21">
    <path clip-path="url(#p02dd77803e)" d="M 69.504 231.476955 
L 164.736 231.476955 
" style="fill:none;stroke:#4c4c4c;stroke-linecap:round;stroke-width:1.5;"/>
   </g>
   <g id="line2d_22">
    <path clip-path="url(#p02dd77803e)" d="M 188.544 285.250365 
L 283.776 285.250365 
" style="fill:none;stroke:#4c4c4c;stroke-linecap:round;stroke-width:1.5;"/>
   </g>
   <g id="line2d_23">
    <path clip-path="url(#p02dd77803e)" d="M 307.584 290.559214 
L 402.816 290.559214 
" style="fill:none;stroke:#4c4c4c;stroke-linecap:round;stroke-width:1.5;"/>
   </g>
   <g id="patch_6">
    <path d="M 117.12 307.584 
L 355.2 307.584 
" style="fill:none;stroke:#cccccc;stroke-linecap:square;stroke-linejoin:miter;stroke-width:1.25;"/>
   </g>
   <g id="PathCollection_1">
    <defs>
     <path d="M 0 1.5 
C 0.397805 1.5 0.77937 1.341951 1.06066 1.06066 
C 1.341951 0.77937 1.5 0.397805 1.5 -0 
C 1.5 -0.397805 1.341951 -0.77937 1.06066 -1.06066 
C 0.77937 -1.341951 0.397805 -1.5 0 -1.5 
C -0.397805 -1.5 -0.77937 -1.341951 -1.06066 -1.06066 
C -1.341951 -0.77937 -1.5 -0.397805 -1.5 0 
C -1.5 0.397805 -1.341951 0.77937 -1.06066 1.06066 
C -0.77937 1.341951 -0.397805 1.5 0 1.5 
z
" id="C0_0_17f8969204"/>
    </defs>
    <g clip-path="url(#p02dd77803e)">
     <use style="fill:#333333;" x="117.12" xlink:href="#C0_0_17f8969204" y="289.647848"/>
    </g>
    <g clip-path="url(#p02dd77803e)">
     <use style="fill:#333333;" x="113.980648" xlink:href="#C0_0_17f8969204" y="289.401393"/>
    </g>
    <g clip-path="url(#p02dd77803e)">
     <use style="fill:#333333;" x="120.231165" xlink:href="#C0_0_17f8969204" y="289.178223"/>
    </g>
    <g clip-path="url(#p02dd77803e)">
     <use style="fill:#333333;" x="111.24317" xlink:href="#C0_0_17f8969204" y="287.917169"/>
    </g>
    <g clip-path="url(#p02dd77803e)">
     <use style="fill:#333333;" x="116.4194" xlink:href="#C0_0_17f8969204" y="286.72299"/>
    </g>
    <g clip-path="url(#p02dd77803e)">
     <use style="fill:#333333;" x="121.657042" xlink:href="#C0_0_17f8969204" y="286.503173"/>
    </g>
    <g clip-path="url(#p02dd77803e)">
     <use style="fill:#333333;" x="117.12" xlink:href="#C0_0_17f8969204" y="281.694167"/>
    </g>
    <g clip-path="url(#p02dd77803e)">
     <use style="fill:#333333;" x="114.182654" xlink:href="#C0_0_17f8969204" y="280.610586"/>
    </g>
    <g clip-path="url(#p02dd77803e)">
     <use style="fill:#333333;" x="119.226342" xlink:href="#C0_0_17f8969204" y="279.463516"/>
    </g>
    <g clip-path="url(#p02dd77803e)">
     <use style="fill:#333333;" x="117.12" xlink:href="#C0_0_17f8969204" y="277.001746"/>
    </g>
    <g clip-path="url(#p02dd77803e)">
     <use style="fill:#333333;" x="120.238193" xlink:href="#C0_0_17f8969204" y="276.576496"/>
    </g>
    <g clip-path="url(#p02dd77803e)">
     <use style="fill:#333333;" x="114.028822" xlink:href="#C0_0_17f8969204" y="276.424696"/>
    </g>
    <g clip-path="url(#p02dd77803e)">
     <use style="fill:#333333;" x="123.315773" xlink:href="#C0_0_17f8969204" y="275.93691"/>
    </g>
    <g clip-path="url(#p02dd77803e)">
     <use style="fill:#333333;" x="111.626748" xlink:href="#C0_0_17f8969204" y="274.483955"/>
    </g>
    <g clip-path="url(#p02dd77803e)">
     <use style="fill:#333333;" x="116.594183" xlink:href="#C0_0_17f8969204" y="274.043838"/>
    </g>
    <g clip-path="url(#p02dd77803e)">
     <use style="fill:#333333;" x="119.581504" xlink:href="#C0_0_17f8969204" y="273.642411"/>
    </g>
    <g clip-path="url(#p02dd77803e)">
     <use style="fill:#333333;" x="124.112981" xlink:href="#C0_0_17f8969204" y="273.034575"/>
    </g>
    <g clip-path="url(#p02dd77803e)">
     <use style="fill:#333333;" x="114.05378" xlink:href="#C0_0_17f8969204" y="272.270041"/>
    </g>
    <g clip-path="url(#p02dd77803e)">
     <use style="fill:#333333;" x="110.400551" xlink:href="#C0_0_17f8969204" y="271.720582"/>
    </g>
    <g clip-path="url(#p02dd77803e)">
     <use style="fill:#333333;" x="117.12" xlink:href="#C0_0_17f8969204" y="271.058922"/>
    </g>
    <g clip-path="url(#p02dd77803e)">
     <use style="fill:#333333;" x="120.118936" xlink:href="#C0_0_17f8969204" y="270.141031"/>
    </g>
    <g clip-path="url(#p02dd77803e)">
     <use style="fill:#333333;" x="123.268625" xlink:href="#C0_0_17f8969204" y="270.098877"/>
    </g>
    <g clip-path="url(#p02dd77803e)">
     <use style="fill:#333333;" x="112.63696" xlink:href="#C0_0_17f8969204" y="269.59063"/>
    </g>
    <g clip-path="url(#p02dd77803e)">
     <use style="fill:#333333;" x="108.357281" xlink:href="#C0_0_17f8969204" y="269.43734"/>
    </g>
    <g clip-path="url(#p02dd77803e)">
     <use style="fill:#333333;" x="126.261218" xlink:href="#C0_0_17f8969204" y="269.162397"/>
    </g>
    <g clip-path="url(#p02dd77803e)">
     <use style="fill:#333333;" x="105.221233" xlink:href="#C0_0_17f8969204" y="269.1553"/>
    </g>
    <g clip-path="url(#p02dd77803e)">
     <use style="fill:#333333;" x="117.12" xlink:href="#C0_0_17f8969204" y="267.932006"/>
    </g>
    <g clip-path="url(#p02dd77803e)">
     <use style="fill:#333333;" x="128.976496" xlink:href="#C0_0_17f8969204" y="267.641636"/>
    </g>
    <g clip-path="url(#p02dd77803e)">
     <use style="fill:#333333;" x="120.129512" xlink:href="#C0_0_17f8969204" y="267.046066"/>
    </g>
    <g clip-path="url(#p02dd77803e)">
     <use style="fill:#333333;" x="114.212432" xlink:href="#C0_0_17f8969204" y="266.992813"/>
    </g>
    <g clip-path="url(#p02dd77803e)">
     <use style="fill:#333333;" x="111.073129" xlink:href="#C0_0_17f8969204" y="266.745786"/>
    </g>
    <g clip-path="url(#p02dd77803e)">
     <use style="fill:#333333;" x="123.215513" xlink:href="#C0_0_17f8969204" y="266.444408"/>
    </g>
    <g clip-path="url(#p02dd77803e)">
     <use style="fill:#333333;" x="107.971205" xlink:href="#C0_0_17f8969204" y="266.223649"/>
    </g>
    <g clip-path="url(#p02dd77803e)">
     <use style="fill:#333333;" x="104.703052" xlink:href="#C0_0_17f8969204" y="266.19617"/>
    </g>
    <g clip-path="url(#p02dd77803e)">
     <use style="fill:#333333;" x="126.087088" xlink:href="#C0_0_17f8969204" y="265.211247"/>
    </g>
    <g clip-path="url(#p02dd77803e)">
     <use style="fill:#333333;" x="117.12" xlink:href="#C0_0_17f8969204" y="264.510381"/>
    </g>
    <g clip-path="url(#p02dd77803e)">
     <use style="fill:#333333;" x="121.112738" xlink:href="#C0_0_17f8969204" y="264.195953"/>
    </g>
    <g clip-path="url(#p02dd77803e)">
     <use style="fill:#333333;" x="114.172594" xlink:href="#C0_0_17f8969204" y="263.451868"/>
    </g>
    <g clip-path="url(#p02dd77803e)">
     <use style="fill:#333333;" x="117.12" xlink:href="#C0_0_17f8969204" y="260.726199"/>
    </g>
    <g clip-path="url(#p02dd77803e)">
     <use style="fill:#333333;" x="113.986967" xlink:href="#C0_0_17f8969204" y="260.415246"/>
    </g>
    <g clip-path="url(#p02dd77803e)">
     <use style="fill:#333333;" x="120.112473" xlink:href="#C0_0_17f8969204" y="259.789372"/>
    </g>
    <g clip-path="url(#p02dd77803e)">
     <use style="fill:#333333;" x="111.057214" xlink:href="#C0_0_17f8969204" y="259.313178"/>
    </g>
    <g clip-path="url(#p02dd77803e)">
     <use style="fill:#333333;" x="123.218597" xlink:href="#C0_0_17f8969204" y="259.290397"/>
    </g>
    <g clip-path="url(#p02dd77803e)">
     <use style="fill:#333333;" x="107.923728" xlink:href="#C0_0_17f8969204" y="259.006384"/>
    </g>
    <g clip-path="url(#p02dd77803e)">
     <use style="fill:#333333;" x="126.130795" xlink:href="#C0_0_17f8969204" y="258.146903"/>
    </g>
    <g clip-path="url(#p02dd77803e)">
     <use style="fill:#333333;" x="117.12" xlink:href="#C0_0_17f8969204" y="257.258172"/>
    </g>
    <g clip-path="url(#p02dd77803e)">
     <use style="fill:#333333;" x="119.755859" xlink:href="#C0_0_17f8969204" y="255.615557"/>
    </g>
    <g clip-path="url(#p02dd77803e)">
     <use style="fill:#333333;" x="114.623916" xlink:href="#C0_0_17f8969204" y="255.428196"/>
    </g>
    <g clip-path="url(#p02dd77803e)">
     <use style="fill:#333333;" x="111.48609" xlink:href="#C0_0_17f8969204" y="255.1647"/>
    </g>
    <g clip-path="url(#p02dd77803e)">
     <use style="fill:#333333;" x="117.12" xlink:href="#C0_0_17f8969204" y="253.597951"/>
    </g>
    <g clip-path="url(#p02dd77803e)">
     <use style="fill:#333333;" x="122.060975" xlink:href="#C0_0_17f8969204" y="253.570944"/>
    </g>
    <g clip-path="url(#p02dd77803e)">
     <use style="fill:#333333;" x="125.208781" xlink:href="#C0_0_17f8969204" y="253.458989"/>
    </g>
    <g clip-path="url(#p02dd77803e)">
     <use style="fill:#333333;" x="114.55517" xlink:href="#C0_0_17f8969204" y="251.856331"/>
    </g>
    <g clip-path="url(#p02dd77803e)">
     <use style="fill:#333333;" x="119.071315" xlink:href="#C0_0_17f8969204" y="251.242879"/>
    </g>
    <g clip-path="url(#p02dd77803e)">
     <use style="fill:#333333;" x="111.527642" xlink:href="#C0_0_17f8969204" y="251.027938"/>
    </g>
    <g clip-path="url(#p02dd77803e)">
     <use style="fill:#333333;" x="122.588043" xlink:href="#C0_0_17f8969204" y="250.613237"/>
    </g>
    <g clip-path="url(#p02dd77803e)">
     <use style="fill:#333333;" x="108.410469" xlink:href="#C0_0_17f8969204" y="250.595961"/>
    </g>
    <g clip-path="url(#p02dd77803e)">
     <use style="fill:#333333;" x="125.735953" xlink:href="#C0_0_17f8969204" y="250.503973"/>
    </g>
    <g clip-path="url(#p02dd77803e)">
     <use style="fill:#333333;" x="128.869758" xlink:href="#C0_0_17f8969204" y="250.200162"/>
    </g>
    <g clip-path="url(#p02dd77803e)">
     <use style="fill:#333333;" x="105.307928" xlink:href="#C0_0_17f8969204" y="250.077164"/>
    </g>
    <g clip-path="url(#p02dd77803e)">
     <use style="fill:#333333;" x="131.983629" xlink:href="#C0_0_17f8969204" y="249.747097"/>
    </g>
    <g clip-path="url(#p02dd77803e)">
     <use style="fill:#333333;" x="116.541076" xlink:href="#C0_0_17f8969204" y="249.455954"/>
    </g>
    <g clip-path="url(#p02dd77803e)">
     <use style="fill:#333333;" x="102.371413" xlink:href="#C0_0_17f8969204" y="248.991543"/>
    </g>
    <g clip-path="url(#p02dd77803e)">
     <use style="fill:#333333;" x="99.221655" xlink:href="#C0_0_17f8969204" y="248.95431"/>
    </g>
    <g clip-path="url(#p02dd77803e)">
     <use style="fill:#333333;" x="113.517322" xlink:href="#C0_0_17f8969204" y="248.61515"/>
    </g>
    <g clip-path="url(#p02dd77803e)">
     <use style="fill:#333333;" x="119.780732" xlink:href="#C0_0_17f8969204" y="248.319949"/>
    </g>
    <g clip-path="url(#p02dd77803e)">
     <use style="fill:#333333;" x="123.422478" xlink:href="#C0_0_17f8969204" y="247.72041"/>
    </g>
    <g clip-path="url(#p02dd77803e)">
     <use style="fill:#333333;" x="110.774951" xlink:href="#C0_0_17f8969204" y="247.139145"/>
    </g>
    <g clip-path="url(#p02dd77803e)">
     <use style="fill:#333333;" x="126.418841" xlink:href="#C0_0_17f8969204" y="246.794928"/>
    </g>
    <g clip-path="url(#p02dd77803e)">
     <use style="fill:#333333;" x="117.12" xlink:href="#C0_0_17f8969204" y="246.381091"/>
    </g>
    <g clip-path="url(#p02dd77803e)">
     <use style="fill:#333333;" x="114.107191" xlink:href="#C0_0_17f8969204" y="245.505376"/>
    </g>
    <g clip-path="url(#p02dd77803e)">
     <use style="fill:#333333;" x="119.922496" xlink:href="#C0_0_17f8969204" y="245.011345"/>
    </g>
    <g clip-path="url(#p02dd77803e)">
     <use style="fill:#333333;" x="116.836955" xlink:href="#C0_0_17f8969204" y="243.393226"/>
    </g>
    <g clip-path="url(#p02dd77803e)">
     <use style="fill:#333333;" x="112.313028" xlink:href="#C0_0_17f8969204" y="243.039559"/>
    </g>
    <g clip-path="url(#p02dd77803e)">
     <use style="fill:#333333;" x="122.100303" xlink:href="#C0_0_17f8969204" y="242.843835"/>
    </g>
    <g clip-path="url(#p02dd77803e)">
     <use style="fill:#333333;" x="109.202302" xlink:href="#C0_0_17f8969204" y="242.5673"/>
    </g>
    <g clip-path="url(#p02dd77803e)">
     <use style="fill:#333333;" x="125.229286" xlink:href="#C0_0_17f8969204" y="242.497858"/>
    </g>
    <g clip-path="url(#p02dd77803e)">
     <use style="fill:#333333;" x="119.191215" xlink:href="#C0_0_17f8969204" y="241.40005"/>
    </g>
    <g clip-path="url(#p02dd77803e)">
     <use style="fill:#333333;" x="106.338442" xlink:href="#C0_0_17f8969204" y="241.317973"/>
    </g>
    <g clip-path="url(#p02dd77803e)">
     <use style="fill:#333333;" x="114.824979" xlink:href="#C0_0_17f8969204" y="241.084915"/>
    </g>
    <g clip-path="url(#p02dd77803e)">
     <use style="fill:#333333;" x="127.949675" xlink:href="#C0_0_17f8969204" y="240.985405"/>
    </g>
    <g clip-path="url(#p02dd77803e)">
     <use style="fill:#333333;" x="103.29063" xlink:href="#C0_0_17f8969204" y="240.560042"/>
    </g>
    <g clip-path="url(#p02dd77803e)">
     <use style="fill:#333333;" x="111.126582" xlink:href="#C0_0_17f8969204" y="240.260491"/>
    </g>
    <g clip-path="url(#p02dd77803e)">
     <use style="fill:#333333;" x="123.336474" xlink:href="#C0_0_17f8969204" y="240.099869"/>
    </g>
    <g clip-path="url(#p02dd77803e)">
     <use style="fill:#333333;" x="130.854317" xlink:href="#C0_0_17f8969204" y="239.824612"/>
    </g>
    <g clip-path="url(#p02dd77803e)">
     <use style="fill:#333333;" x="100.323297" xlink:href="#C0_0_17f8969204" y="239.553291"/>
    </g>
    <g clip-path="url(#p02dd77803e)">
     <use style="fill:#333333;" x="133.93524" xlink:href="#C0_0_17f8969204" y="239.199792"/>
    </g>
    <g clip-path="url(#p02dd77803e)">
     <use style="fill:#333333;" x="117.12" xlink:href="#C0_0_17f8969204" y="238.640445"/>
    </g>
    <g clip-path="url(#p02dd77803e)">
     <use style="fill:#333333;" x="114.053308" xlink:href="#C0_0_17f8969204" y="237.955061"/>
    </g>
    <g clip-path="url(#p02dd77803e)">
     <use style="fill:#333333;" x="120.043795" xlink:href="#C0_0_17f8969204" y="237.524116"/>
    </g>
    <g clip-path="url(#p02dd77803e)">
     <use style="fill:#333333;" x="111.309939" xlink:href="#C0_0_17f8969204" y="236.480738"/>
    </g>
    <g clip-path="url(#p02dd77803e)">
     <use style="fill:#333333;" x="122.868829" xlink:href="#C0_0_17f8969204" y="236.197028"/>
    </g>
    <g clip-path="url(#p02dd77803e)">
     <use style="fill:#333333;" x="125.99365" xlink:href="#C0_0_17f8969204" y="235.818472"/>
    </g>
    <g clip-path="url(#p02dd77803e)">
     <use style="fill:#333333;" x="117.12" xlink:href="#C0_0_17f8969204" y="235.016122"/>
    </g>
    <g clip-path="url(#p02dd77803e)">
     <use style="fill:#333333;" x="120.225783" xlink:href="#C0_0_17f8969204" y="234.51523"/>
    </g>
    <g clip-path="url(#p02dd77803e)">
     <use style="fill:#333333;" x="114.209553" xlink:href="#C0_0_17f8969204" y="233.868593"/>
    </g>
    <g clip-path="url(#p02dd77803e)">
     <use style="fill:#333333;" x="122.960339" xlink:href="#C0_0_17f8969204" y="233.02613"/>
    </g>
    <g clip-path="url(#p02dd77803e)">
     <use style="fill:#333333;" x="111.457002" xlink:href="#C0_0_17f8969204" y="232.409875"/>
    </g>
    <g clip-path="url(#p02dd77803e)">
     <use style="fill:#333333;" x="117.12" xlink:href="#C0_0_17f8969204" y="231.774034"/>
    </g>
    <g clip-path="url(#p02dd77803e)">
     <use style="fill:#333333;" x="125.788633" xlink:href="#C0_0_17f8969204" y="231.705354"/>
    </g>
    <g clip-path="url(#p02dd77803e)">
     <use style="fill:#333333;" x="120.221301" xlink:href="#C0_0_17f8969204" y="231.248555"/>
    </g>
    <g clip-path="url(#p02dd77803e)">
     <use style="fill:#333333;" x="108.749948" xlink:href="#C0_0_17f8969204" y="230.875874"/>
    </g>
    <g clip-path="url(#p02dd77803e)">
     <use style="fill:#333333;" x="114.206117" xlink:href="#C0_0_17f8969204" y="230.634441"/>
    </g>
    <g clip-path="url(#p02dd77803e)">
     <use style="fill:#333333;" x="105.61516" xlink:href="#C0_0_17f8969204" y="230.581401"/>
    </g>
    <g clip-path="url(#p02dd77803e)">
     <use style="fill:#333333;" x="128.638137" xlink:href="#C0_0_17f8969204" y="230.426598"/>
    </g>
    <g clip-path="url(#p02dd77803e)">
     <use style="fill:#333333;" x="102.477865" xlink:href="#C0_0_17f8969204" y="230.312221"/>
    </g>
    <g clip-path="url(#p02dd77803e)">
     <use style="fill:#333333;" x="131.769903" xlink:href="#C0_0_17f8969204" y="230.104277"/>
    </g>
    <g clip-path="url(#p02dd77803e)">
     <use style="fill:#333333;" x="122.871971" xlink:href="#C0_0_17f8969204" y="229.627702"/>
    </g>
    <g clip-path="url(#p02dd77803e)">
     <use style="fill:#333333;" x="99.440501" xlink:href="#C0_0_17f8969204" y="229.517159"/>
    </g>
    <g clip-path="url(#p02dd77803e)">
     <use style="fill:#333333;" x="134.846902" xlink:href="#C0_0_17f8969204" y="229.462157"/>
    </g>
    <g clip-path="url(#p02dd77803e)">
     <use style="fill:#333333;" x="111.45423" xlink:href="#C0_0_17f8969204" y="229.337445"/>
    </g>
    <g clip-path="url(#p02dd77803e)">
     <use style="fill:#333333;" x="118.139838" xlink:href="#C0_0_17f8969204" y="228.935614"/>
    </g>
    <g clip-path="url(#p02dd77803e)">
     <use style="fill:#333333;" x="125.851737" xlink:href="#C0_0_17f8969204" y="228.65483"/>
    </g>
    <g clip-path="url(#p02dd77803e)">
     <use style="fill:#333333;" x="107.507005" xlink:href="#C0_0_17f8969204" y="228.119296"/>
    </g>
    <g clip-path="url(#p02dd77803e)">
     <use style="fill:#333333;" x="115.305232" xlink:href="#C0_0_17f8969204" y="227.62717"/>
    </g>
    <g clip-path="url(#p02dd77803e)">
     <use style="fill:#333333;" x="120.61528" xlink:href="#C0_0_17f8969204" y="227.08038"/>
    </g>
    <g clip-path="url(#p02dd77803e)">
     <use style="fill:#333333;" x="117.649894" xlink:href="#C0_0_17f8969204" y="225.623758"/>
    </g>
    <g clip-path="url(#p02dd77803e)">
     <use style="fill:#333333;" x="112.978755" xlink:href="#C0_0_17f8969204" y="225.604621"/>
    </g>
    <g clip-path="url(#p02dd77803e)">
     <use style="fill:#333333;" x="123.277412" xlink:href="#C0_0_17f8969204" y="225.476657"/>
    </g>
    <g clip-path="url(#p02dd77803e)">
     <use style="fill:#333333;" x="109.846511" xlink:href="#C0_0_17f8969204" y="225.286538"/>
    </g>
    <g clip-path="url(#p02dd77803e)">
     <use style="fill:#333333;" x="115.517151" xlink:href="#C0_0_17f8969204" y="223.415978"/>
    </g>
    <g clip-path="url(#p02dd77803e)">
     <use style="fill:#333333;" x="118.572544" xlink:href="#C0_0_17f8969204" y="222.686254"/>
    </g>
    <g clip-path="url(#p02dd77803e)">
     <use style="fill:#333333;" x="113.046167" xlink:href="#C0_0_17f8969204" y="221.555362"/>
    </g>
    <g clip-path="url(#p02dd77803e)">
     <use style="fill:#333333;" x="116.383249" xlink:href="#C0_0_17f8969204" y="220.531603"/>
    </g>
    <g clip-path="url(#p02dd77803e)">
     <use style="fill:#333333;" x="119.294616" xlink:href="#C0_0_17f8969204" y="219.386193"/>
    </g>
    <g clip-path="url(#p02dd77803e)">
     <use style="fill:#333333;" x="117.12" xlink:href="#C0_0_17f8969204" y="216.569175"/>
    </g>
    <g clip-path="url(#p02dd77803e)">
     <use style="fill:#333333;" x="113.981428" xlink:href="#C0_0_17f8969204" y="216.313863"/>
    </g>
    <g clip-path="url(#p02dd77803e)">
     <use style="fill:#333333;" x="119.410435" xlink:href="#C0_0_17f8969204" y="214.509651"/>
    </g>
    <g clip-path="url(#p02dd77803e)">
     <use style="fill:#333333;" x="122.558775" xlink:href="#C0_0_17f8969204" y="214.412282"/>
    </g>
    <g clip-path="url(#p02dd77803e)">
     <use style="fill:#333333;" x="111.604327" xlink:href="#C0_0_17f8969204" y="214.34543"/>
    </g>
    <g clip-path="url(#p02dd77803e)">
     <use style="fill:#333333;" x="125.679744" xlink:href="#C0_0_17f8969204" y="214.005922"/>
    </g>
    <g clip-path="url(#p02dd77803e)">
     <use style="fill:#333333;" x="115.987553" xlink:href="#C0_0_17f8969204" y="213.769748"/>
    </g>
    <g clip-path="url(#p02dd77803e)">
     <use style="fill:#333333;" x="108.733277" xlink:href="#C0_0_17f8969204" y="213.111159"/>
    </g>
    <g clip-path="url(#p02dd77803e)">
     <use style="fill:#333333;" x="128.625415" xlink:href="#C0_0_17f8969204" y="212.943037"/>
    </g>
    <g clip-path="url(#p02dd77803e)">
     <use style="fill:#333333;" x="105.589137" xlink:href="#C0_0_17f8969204" y="212.92826"/>
    </g>
    <g clip-path="url(#p02dd77803e)">
     <use style="fill:#333333;" x="131.76493" xlink:href="#C0_0_17f8969204" y="212.698465"/>
    </g>
    <g clip-path="url(#p02dd77803e)">
     <use style="fill:#333333;" x="117.12" xlink:href="#C0_0_17f8969204" y="210.5858"/>
    </g>
    <g clip-path="url(#p02dd77803e)">
     <use style="fill:#333333;" x="114.339504" xlink:href="#C0_0_17f8969204" y="209.175974"/>
    </g>
    <g clip-path="url(#p02dd77803e)">
     <use style="fill:#333333;" x="119.602419" xlink:href="#C0_0_17f8969204" y="208.739041"/>
    </g>
    <g clip-path="url(#p02dd77803e)">
     <use style="fill:#333333;" x="122.441293" xlink:href="#C0_0_17f8969204" y="207.439017"/>
    </g>
    <g clip-path="url(#p02dd77803e)">
     <use style="fill:#333333;" x="117.12" xlink:href="#C0_0_17f8969204" y="206.671042"/>
    </g>
    <g clip-path="url(#p02dd77803e)">
     <use style="fill:#333333;" x="119.960964" xlink:href="#C0_0_17f8969204" y="205.375166"/>
    </g>
    <g clip-path="url(#p02dd77803e)">
     <use style="fill:#333333;" x="117.12" xlink:href="#C0_0_17f8969204" y="202.921625"/>
    </g>
    <g clip-path="url(#p02dd77803e)">
     <use style="fill:#333333;" x="113.981021" xlink:href="#C0_0_17f8969204" y="202.670888"/>
    </g>
    <g clip-path="url(#p02dd77803e)">
     <use style="fill:#333333;" x="120.181805" xlink:href="#C0_0_17f8969204" y="202.216701"/>
    </g>
    <g clip-path="url(#p02dd77803e)">
     <use style="fill:#333333;" x="123.330533" xlink:href="#C0_0_17f8969204" y="202.131463"/>
    </g>
    <g clip-path="url(#p02dd77803e)">
     <use style="fill:#333333;" x="116.039028" xlink:href="#C0_0_17f8969204" y="200.1038"/>
    </g>
    <g clip-path="url(#p02dd77803e)">
     <use style="fill:#333333;" x="118.750468" xlink:href="#C0_0_17f8969204" y="198.57684"/>
    </g>
    <g clip-path="url(#p02dd77803e)">
     <use style="fill:#333333;" x="117.12" xlink:href="#C0_0_17f8969204" y="187.342078"/>
    </g>
    <g clip-path="url(#p02dd77803e)">
     <use style="fill:#333333;" x="113.971073" xlink:href="#C0_0_17f8969204" y="187.263791"/>
    </g>
    <g clip-path="url(#p02dd77803e)">
     <use style="fill:#333333;" x="120.215314" xlink:href="#C0_0_17f8969204" y="186.7855"/>
    </g>
    <g clip-path="url(#p02dd77803e)">
     <use style="fill:#333333;" x="123.36519" xlink:href="#C0_0_17f8969204" y="186.758918"/>
    </g>
    <g clip-path="url(#p02dd77803e)">
     <use style="fill:#333333;" x="110.875019" xlink:href="#C0_0_17f8969204" y="186.710957"/>
    </g>
    <g clip-path="url(#p02dd77803e)">
     <use style="fill:#333333;" x="126.505616" xlink:href="#C0_0_17f8969204" y="186.525188"/>
    </g>
    <g clip-path="url(#p02dd77803e)">
     <use style="fill:#333333;" x="107.763263" xlink:href="#C0_0_17f8969204" y="186.244898"/>
    </g>
    <g clip-path="url(#p02dd77803e)">
     <use style="fill:#333333;" x="129.566601" xlink:href="#C0_0_17f8969204" y="185.817046"/>
    </g>
    <g clip-path="url(#p02dd77803e)">
     <use style="fill:#333333;" x="104.676025" xlink:href="#C0_0_17f8969204" y="185.649025"/>
    </g>
    <g clip-path="url(#p02dd77803e)">
     <use style="fill:#333333;" x="132.685301" xlink:href="#C0_0_17f8969204" y="185.395181"/>
    </g>
    <g clip-path="url(#p02dd77803e)">
     <use style="fill:#333333;" x="101.601139" xlink:href="#C0_0_17f8969204" y="184.997791"/>
    </g>
    <g clip-path="url(#p02dd77803e)">
     <use style="fill:#333333;" x="117.12" xlink:href="#C0_0_17f8969204" y="183.758285"/>
    </g>
    <g clip-path="url(#p02dd77803e)">
     <use style="fill:#333333;" x="114.054556" xlink:href="#C0_0_17f8969204" y="183.067856"/>
    </g>
    <g clip-path="url(#p02dd77803e)">
     <use style="fill:#333333;" x="119.781686" xlink:href="#C0_0_17f8969204" y="182.153889"/>
    </g>
    <g clip-path="url(#p02dd77803e)">
     <use style="fill:#333333;" x="122.929182" xlink:href="#C0_0_17f8969204" y="182.03431"/>
    </g>
    <g clip-path="url(#p02dd77803e)">
     <use style="fill:#333333;" x="117.12" xlink:href="#C0_0_17f8969204" y="180.231948"/>
    </g>
    <g clip-path="url(#p02dd77803e)">
     <use style="fill:#333333;" x="113.995851" xlink:href="#C0_0_17f8969204" y="179.848392"/>
    </g>
    <g clip-path="url(#p02dd77803e)">
     <use style="fill:#333333;" x="120.290102" xlink:href="#C0_0_17f8969204" y="179.193223"/>
    </g>
    <g clip-path="url(#p02dd77803e)">
     <use style="fill:#333333;" x="111.54228" xlink:href="#C0_0_17f8969204" y="177.96699"/>
    </g>
    <g clip-path="url(#p02dd77803e)">
     <use style="fill:#333333;" x="116.876841" xlink:href="#C0_0_17f8969204" y="177.240899"/>
    </g>
    <g clip-path="url(#p02dd77803e)">
     <use style="fill:#333333;" x="122.595087" xlink:href="#C0_0_17f8969204" y="177.148475"/>
    </g>
    <g clip-path="url(#p02dd77803e)">
     <use style="fill:#333333;" x="108.814529" xlink:href="#C0_0_17f8969204" y="176.466612"/>
    </g>
    <g clip-path="url(#p02dd77803e)">
     <use style="fill:#333333;" x="119.467147" xlink:href="#C0_0_17f8969204" y="175.533821"/>
    </g>
    <g clip-path="url(#p02dd77803e)">
     <use style="fill:#333333;" x="115.706593" xlink:href="#C0_0_17f8969204" y="174.45561"/>
    </g>
    <g clip-path="url(#p02dd77803e)">
     <use style="fill:#333333;" x="117.814412" xlink:href="#C0_0_17f8969204" y="172.226225"/>
    </g>
    <g clip-path="url(#p02dd77803e)">
     <use style="fill:#333333;" x="116.33201" xlink:href="#C0_0_17f8969204" y="169.579191"/>
    </g>
    <g clip-path="url(#p02dd77803e)">
     <use style="fill:#333333;" x="119.412722" xlink:href="#C0_0_17f8969204" y="168.953429"/>
    </g>
    <g clip-path="url(#p02dd77803e)">
     <use style="fill:#333333;" x="114.332106" xlink:href="#C0_0_17f8969204" y="167.261384"/>
    </g>
    <g clip-path="url(#p02dd77803e)">
     <use style="fill:#333333;" x="117.386341" xlink:href="#C0_0_17f8969204" y="166.527277"/>
    </g>
    <g clip-path="url(#p02dd77803e)">
     <use style="fill:#333333;" x="120.463463" xlink:href="#C0_0_17f8969204" y="165.885696"/>
    </g>
    <g clip-path="url(#p02dd77803e)">
     <use style="fill:#333333;" x="112.044019" xlink:href="#C0_0_17f8969204" y="165.199494"/>
    </g>
    <g clip-path="url(#p02dd77803e)">
     <use style="fill:#333333;" x="117.12" xlink:href="#C0_0_17f8969204" y="163.462089"/>
    </g>
    <g clip-path="url(#p02dd77803e)">
     <use style="fill:#333333;" x="121.915178" xlink:href="#C0_0_17f8969204" y="163.22328"/>
    </g>
    <g clip-path="url(#p02dd77803e)">
     <use style="fill:#333333;" x="114.053601" xlink:href="#C0_0_17f8969204" y="162.775518"/>
    </g>
    <g clip-path="url(#p02dd77803e)">
     <use style="fill:#333333;" x="111.172253" xlink:href="#C0_0_17f8969204" y="161.56321"/>
    </g>
    <g clip-path="url(#p02dd77803e)">
     <use style="fill:#333333;" x="117.12" xlink:href="#C0_0_17f8969204" y="159.741026"/>
    </g>
    <g clip-path="url(#p02dd77803e)">
     <use style="fill:#333333;" x="117.12" xlink:href="#C0_0_17f8969204" y="156.544791"/>
    </g>
    <g clip-path="url(#p02dd77803e)">
     <use style="fill:#333333;" x="114.699708" xlink:href="#C0_0_17f8969204" y="154.624689"/>
    </g>
    <g clip-path="url(#p02dd77803e)">
     <use style="fill:#333333;" x="117.12" xlink:href="#C0_0_17f8969204" y="152.597251"/>
    </g>
    <g clip-path="url(#p02dd77803e)">
     <use style="fill:#333333;" x="120.235313" xlink:href="#C0_0_17f8969204" y="152.153267"/>
    </g>
    <g clip-path="url(#p02dd77803e)">
     <use style="fill:#333333;" x="115.156574" xlink:href="#C0_0_17f8969204" y="150.251327"/>
    </g>
    <g clip-path="url(#p02dd77803e)">
     <use style="fill:#333333;" x="118.228775" xlink:href="#C0_0_17f8969204" y="149.588702"/>
    </g>
    <g clip-path="url(#p02dd77803e)">
     <use style="fill:#333333;" x="120.815301" xlink:href="#C0_0_17f8969204" y="147.876432"/>
    </g>
    <g clip-path="url(#p02dd77803e)">
     <use style="fill:#333333;" x="117.12" xlink:href="#C0_0_17f8969204" y="141.470161"/>
    </g>
    <g clip-path="url(#p02dd77803e)">
     <use style="fill:#333333;" x="117.12" xlink:href="#C0_0_17f8969204" y="132.195402"/>
    </g>
    <g clip-path="url(#p02dd77803e)">
     <use style="fill:#333333;" x="117.12" xlink:href="#C0_0_17f8969204" y="123.482098"/>
    </g>
    <g clip-path="url(#p02dd77803e)">
     <use style="fill:#333333;" x="115.295108" xlink:href="#C0_0_17f8969204" y="121.03682"/>
    </g>
    <g clip-path="url(#p02dd77803e)">
     <use style="fill:#333333;" x="118.412948" xlink:href="#C0_0_17f8969204" y="120.609226"/>
    </g>
    <g clip-path="url(#p02dd77803e)">
     <use style="fill:#333333;" x="116.506635" xlink:href="#C0_0_17f8969204" y="118.267584"/>
    </g>
    <g clip-path="url(#p02dd77803e)">
     <use style="fill:#333333;" x="117.12" xlink:href="#C0_0_17f8969204" y="107.572606"/>
    </g>
    <g clip-path="url(#p02dd77803e)">
     <use style="fill:#333333;" x="117.12" xlink:href="#C0_0_17f8969204" y="95.279567"/>
    </g>
    <g clip-path="url(#p02dd77803e)">
     <use style="fill:#333333;" x="117.12" xlink:href="#C0_0_17f8969204" y="53.568"/>
    </g>
   </g>
   <g id="PathCollection_2">
    <defs>
     <path d="M 0 1.5 
C 0.397805 1.5 0.77937 1.341951 1.06066 1.06066 
C 1.341951 0.77937 1.5 0.397805 1.5 -0 
C 1.5 -0.397805 1.341951 -0.77937 1.06066 -1.06066 
C 0.77937 -1.341951 0.397805 -1.5 0 -1.5 
C -0.397805 -1.5 -0.77937 -1.341951 -1.06066 -1.06066 
C -1.341951 -0.77937 -1.5 -0.397805 -1.5 0 
C -1.5 0.397805 -1.341951 0.77937 -1.06066 1.06066 
C -0.77937 1.341951 -0.397805 1.5 0 1.5 
z
" id="C1_0_90ec87a927"/>
    </defs>
    <g clip-path="url(#p02dd77803e)">
     <use style="fill:#333333;" x="236.16" xlink:href="#C1_0_90ec87a927" y="294.632476"/>
    </g>
    <g clip-path="url(#p02dd77803e)">
     <use style="fill:#333333;" x="233.264663" xlink:href="#C1_0_90ec87a927" y="293.450786"/>
    </g>
    <g clip-path="url(#p02dd77803e)">
     <use style="fill:#333333;" x="236.16" xlink:href="#C1_0_90ec87a927" y="291.495077"/>
    </g>
    <g clip-path="url(#p02dd77803e)">
     <use style="fill:#333333;" x="239.309715" xlink:href="#C1_0_90ec87a927" y="291.454751"/>
    </g>
    <g clip-path="url(#p02dd77803e)">
     <use style="fill:#333333;" x="231.286602" xlink:href="#C1_0_90ec87a927" y="291.116039"/>
    </g>
    <g clip-path="url(#p02dd77803e)">
     <use style="fill:#333333;" x="242.414052" xlink:href="#C1_0_90ec87a927" y="290.945786"/>
    </g>
    <g clip-path="url(#p02dd77803e)">
     <use style="fill:#333333;" x="228.156578" xlink:href="#C1_0_90ec87a927" y="290.778718"/>
    </g>
    <g clip-path="url(#p02dd77803e)">
     <use style="fill:#333333;" x="245.487784" xlink:href="#C1_0_90ec87a927" y="290.289631"/>
    </g>
    <g clip-path="url(#p02dd77803e)">
     <use style="fill:#333333;" x="225.177725" xlink:href="#C1_0_90ec87a927" y="289.803313"/>
    </g>
    <g clip-path="url(#p02dd77803e)">
     <use style="fill:#333333;" x="234.547767" xlink:href="#C1_0_90ec87a927" y="288.917799"/>
    </g>
    <g clip-path="url(#p02dd77803e)">
     <use style="fill:#333333;" x="237.64302" xlink:href="#C1_0_90ec87a927" y="288.848357"/>
    </g>
    <g clip-path="url(#p02dd77803e)">
     <use style="fill:#333333;" x="248.190073" xlink:href="#C1_0_90ec87a927" y="288.748029"/>
    </g>
    <g clip-path="url(#p02dd77803e)">
     <use style="fill:#333333;" x="240.740774" xlink:href="#C1_0_90ec87a927" y="288.304235"/>
    </g>
    <g clip-path="url(#p02dd77803e)">
     <use style="fill:#333333;" x="231.834569" xlink:href="#C1_0_90ec87a927" y="287.393675"/>
    </g>
    <g clip-path="url(#p02dd77803e)">
     <use style="fill:#333333;" x="243.23713" xlink:href="#C1_0_90ec87a927" y="286.474595"/>
    </g>
    <g clip-path="url(#p02dd77803e)">
     <use style="fill:#333333;" x="228.847209" xlink:href="#C1_0_90ec87a927" y="286.442162"/>
    </g>
    <g clip-path="url(#p02dd77803e)">
     <use style="fill:#333333;" x="236.16" xlink:href="#C1_0_90ec87a927" y="285.693413"/>
    </g>
    <g clip-path="url(#p02dd77803e)">
     <use style="fill:#333333;" x="239.276179" xlink:href="#C1_0_90ec87a927" y="285.254978"/>
    </g>
    <g clip-path="url(#p02dd77803e)">
     <use style="fill:#333333;" x="246.110745" xlink:href="#C1_0_90ec87a927" y="285.245751"/>
    </g>
    <g clip-path="url(#p02dd77803e)">
     <use style="fill:#333333;" x="225.982771" xlink:href="#C1_0_90ec87a927" y="285.194034"/>
    </g>
    <g clip-path="url(#p02dd77803e)">
     <use style="fill:#333333;" x="233.224107" xlink:href="#C1_0_90ec87a927" y="284.606266"/>
    </g>
    <g clip-path="url(#p02dd77803e)">
     <use style="fill:#333333;" x="249.082799" xlink:href="#C1_0_90ec87a927" y="284.251713"/>
    </g>
    <g clip-path="url(#p02dd77803e)">
     <use style="fill:#333333;" x="241.637271" xlink:href="#C1_0_90ec87a927" y="283.269145"/>
    </g>
    <g clip-path="url(#p02dd77803e)">
     <use style="fill:#333333;" x="230.423305" xlink:href="#C1_0_90ec87a927" y="283.233381"/>
    </g>
    <g clip-path="url(#p02dd77803e)">
     <use style="fill:#333333;" x="237.310432" xlink:href="#C1_0_90ec87a927" y="282.900645"/>
    </g>
    <g clip-path="url(#p02dd77803e)">
     <use style="fill:#333333;" x="224.182643" xlink:href="#C1_0_90ec87a927" y="282.732164"/>
    </g>
    <g clip-path="url(#p02dd77803e)">
     <use style="fill:#333333;" x="244.5619" xlink:href="#C1_0_90ec87a927" y="282.1548"/>
    </g>
    <g clip-path="url(#p02dd77803e)">
     <use style="fill:#333333;" x="234.576253" xlink:href="#C1_0_90ec87a927" y="281.410917"/>
    </g>
    <g clip-path="url(#p02dd77803e)">
     <use style="fill:#333333;" x="228.25346" xlink:href="#C1_0_90ec87a927" y="281.05864"/>
    </g>
    <g clip-path="url(#p02dd77803e)">
     <use style="fill:#333333;" x="239.669286" xlink:href="#C1_0_90ec87a927" y="280.912401"/>
    </g>
    <g clip-path="url(#p02dd77803e)">
     <use style="fill:#333333;" x="231.797986" xlink:href="#C1_0_90ec87a927" y="279.997111"/>
    </g>
    <g clip-path="url(#p02dd77803e)">
     <use style="fill:#333333;" x="246.689397" xlink:href="#C1_0_90ec87a927" y="279.942434"/>
    </g>
    <g clip-path="url(#p02dd77803e)">
     <use style="fill:#333333;" x="236.16" xlink:href="#C1_0_90ec87a927" y="278.361369"/>
    </g>
    <g clip-path="url(#p02dd77803e)">
     <use style="fill:#333333;" x="236.16" xlink:href="#C1_0_90ec87a927" y="273.839111"/>
    </g>
    <g clip-path="url(#p02dd77803e)">
     <use style="fill:#333333;" x="236.16" xlink:href="#C1_0_90ec87a927" y="269.869496"/>
    </g>
    <g clip-path="url(#p02dd77803e)">
     <use style="fill:#333333;" x="233.105745" xlink:href="#C1_0_90ec87a927" y="269.135468"/>
    </g>
   </g>
   <g id="PathCollection_3">
    <defs>
     <path d="M 0 1.5 
C 0.397805 1.5 0.77937 1.341951 1.06066 1.06066 
C 1.341951 0.77937 1.5 0.397805 1.5 -0 
C 1.5 -0.397805 1.341951 -0.77937 1.06066 -1.06066 
C 0.77937 -1.341951 0.397805 -1.5 0 -1.5 
C -0.397805 -1.5 -0.77937 -1.341951 -1.06066 -1.06066 
C -1.341951 -0.77937 -1.5 -0.397805 -1.5 0 
C -1.5 0.397805 -1.341951 0.77937 -1.06066 1.06066 
C -0.77937 1.341951 -0.397805 1.5 0 1.5 
z
" id="C2_0_dc8e8adbba"/>
    </defs>
    <g clip-path="url(#p02dd77803e)">
     <use style="fill:#333333;" x="355.2" xlink:href="#C2_0_dc8e8adbba" y="295.488"/>
    </g>
    <g clip-path="url(#p02dd77803e)">
     <use style="fill:#333333;" x="354.379312" xlink:href="#C2_0_dc8e8adbba" y="292.591607"/>
    </g>
    <g clip-path="url(#p02dd77803e)">
     <use style="fill:#333333;" x="357.493872" xlink:href="#C2_0_dc8e8adbba" y="292.142858"/>
    </g>
    <g clip-path="url(#p02dd77803e)">
     <use style="fill:#333333;" x="351.376332" xlink:href="#C2_0_dc8e8adbba" y="291.68579"/>
    </g>
    <g clip-path="url(#p02dd77803e)">
     <use style="fill:#333333;" x="360.583975" xlink:href="#C2_0_dc8e8adbba" y="291.560606"/>
    </g>
    <g clip-path="url(#p02dd77803e)">
     <use style="fill:#333333;" x="348.318037" xlink:href="#C2_0_dc8e8adbba" y="290.967177"/>
    </g>
    <g clip-path="url(#p02dd77803e)">
     <use style="fill:#333333;" x="363.662719" xlink:href="#C2_0_dc8e8adbba" y="290.926122"/>
    </g>
    <g clip-path="url(#p02dd77803e)">
     <use style="fill:#333333;" x="345.274925" xlink:href="#C2_0_dc8e8adbba" y="290.192307"/>
    </g>
    <g clip-path="url(#p02dd77803e)">
     <use style="fill:#333333;" x="355.470922" xlink:href="#C2_0_dc8e8adbba" y="289.777505"/>
    </g>
    <g clip-path="url(#p02dd77803e)">
     <use style="fill:#333333;" x="358.450806" xlink:href="#C2_0_dc8e8adbba" y="289.28464"/>
    </g>
    <g clip-path="url(#p02dd77803e)">
     <use style="fill:#333333;" x="355.2" xlink:href="#C2_0_dc8e8adbba" y="285.102955"/>
    </g>
    <g clip-path="url(#p02dd77803e)">
     <use style="fill:#333333;" x="352.050002" xlink:href="#C2_0_dc8e8adbba" y="285.100017"/>
    </g>
    <g clip-path="url(#p02dd77803e)">
     <use style="fill:#333333;" x="358.289369" xlink:href="#C2_0_dc8e8adbba" y="284.517183"/>
    </g>
    <g clip-path="url(#p02dd77803e)">
     <use style="fill:#333333;" x="355.2" xlink:href="#C2_0_dc8e8adbba" y="280.660991"/>
    </g>
   </g>
  </g>
 </g>
 <defs>
  <clipPath id="p02dd77803e">
   <rect height="266.112" width="357.12" x="57.6" y="41.472"/>
  </clipPath>
 </defs>
</svg>
