<?xml version="1.0" encoding="utf-8" standalone="no"?>
<!DOCTYPE svg PUBLIC "-//W3C//DTD SVG 1.1//EN"
  "http://www.w3.org/Graphics/SVG/1.1/DTD/svg11.dtd">
<svg height="345.6pt" version="1.1" viewBox="0 0 460.8 345.6" width="460.8pt" xmlns="http://www.w3.org/2000/svg" xmlns:xlink="http://www.w3.org/1999/xlink">
 <metadata>
  <rdf:RDF xmlns:cc="http://creativecommons.org/ns#" xmlns:dc="http://purl.org/dc/elements/1.1/" xmlns:rdf="http://www.w3.org/1999/02/22-rdf-syntax-ns#">
   <cc:Work>
    <dc:type rdf:resource="http://purl.org/dc/dcmitype/StillImage"/>
    <dc:date>2021-09-11T09:15:54.692243</dc:date>
    <dc:format>image/svg+xml</dc:format>
    <dc:creator>
     <cc:Agent>
      <dc:title>Matplotlib v3.4.3, https://matplotlib.org/</dc:title>
     </cc:Agent>
    </dc:creator>
   </cc:Work>
  </rdf:RDF>
 </metadata>
 <defs>
  <style type="text/css">*{stroke-linecap:butt;stroke-linejoin:round;}</style>
 </defs>
 <g id="figure_1">
  <g id="patch_1">
   <path d="M 0 345.6 
L 460.8 345.6 
L 460.8 0 
L 0 0 
z
" style="fill:#ffffff;"/>
  </g>
  <g id="axes_1">
   <g id="patch_2">
    <path d="M 57.6 307.584 
L 414.72 307.584 
L 414.72 41.472 
L 57.6 41.472 
z
" style="fill:#ffffff;"/>
   </g>
   <g id="matplotlib.axis_1">
    <g id="xtick_1">
     <g id="text_1">
      <!-- eukaryota -->
      <g style="fill:#262626;" transform="translate(89.382812 325.442281)scale(0.11 -0.11)">
       <defs>
        <path d="M 3597 1894 
L 3597 1613 
L 953 1613 
Q 991 1019 1311 708 
Q 1631 397 2203 397 
Q 2534 397 2845 478 
Q 3156 559 3463 722 
L 3463 178 
Q 3153 47 2828 -22 
Q 2503 -91 2169 -91 
Q 1331 -91 842 396 
Q 353 884 353 1716 
Q 353 2575 817 3079 
Q 1281 3584 2069 3584 
Q 2775 3584 3186 3129 
Q 3597 2675 3597 1894 
z
M 3022 2063 
Q 3016 2534 2758 2815 
Q 2500 3097 2075 3097 
Q 1594 3097 1305 2825 
Q 1016 2553 972 2059 
L 3022 2063 
z
" id="DejaVuSans-65" transform="scale(0.015625)"/>
        <path d="M 544 1381 
L 544 3500 
L 1119 3500 
L 1119 1403 
Q 1119 906 1312 657 
Q 1506 409 1894 409 
Q 2359 409 2629 706 
Q 2900 1003 2900 1516 
L 2900 3500 
L 3475 3500 
L 3475 0 
L 2900 0 
L 2900 538 
Q 2691 219 2414 64 
Q 2138 -91 1772 -91 
Q 1169 -91 856 284 
Q 544 659 544 1381 
z
M 1991 3584 
L 1991 3584 
z
" id="DejaVuSans-75" transform="scale(0.015625)"/>
        <path d="M 581 4863 
L 1159 4863 
L 1159 1991 
L 2875 3500 
L 3609 3500 
L 1753 1863 
L 3688 0 
L 2938 0 
L 1159 1709 
L 1159 0 
L 581 0 
L 581 4863 
z
" id="DejaVuSans-6b" transform="scale(0.015625)"/>
        <path d="M 2194 1759 
Q 1497 1759 1228 1600 
Q 959 1441 959 1056 
Q 959 750 1161 570 
Q 1363 391 1709 391 
Q 2188 391 2477 730 
Q 2766 1069 2766 1631 
L 2766 1759 
L 2194 1759 
z
M 3341 1997 
L 3341 0 
L 2766 0 
L 2766 531 
Q 2569 213 2275 61 
Q 1981 -91 1556 -91 
Q 1019 -91 701 211 
Q 384 513 384 1019 
Q 384 1609 779 1909 
Q 1175 2209 1959 2209 
L 2766 2209 
L 2766 2266 
Q 2766 2663 2505 2880 
Q 2244 3097 1772 3097 
Q 1472 3097 1187 3025 
Q 903 2953 641 2809 
L 641 3341 
Q 956 3463 1253 3523 
Q 1550 3584 1831 3584 
Q 2591 3584 2966 3190 
Q 3341 2797 3341 1997 
z
" id="DejaVuSans-61" transform="scale(0.015625)"/>
        <path d="M 2631 2963 
Q 2534 3019 2420 3045 
Q 2306 3072 2169 3072 
Q 1681 3072 1420 2755 
Q 1159 2438 1159 1844 
L 1159 0 
L 581 0 
L 581 3500 
L 1159 3500 
L 1159 2956 
Q 1341 3275 1631 3429 
Q 1922 3584 2338 3584 
Q 2397 3584 2469 3576 
Q 2541 3569 2628 3553 
L 2631 2963 
z
" id="DejaVuSans-72" transform="scale(0.015625)"/>
        <path d="M 2059 -325 
Q 1816 -950 1584 -1140 
Q 1353 -1331 966 -1331 
L 506 -1331 
L 506 -850 
L 844 -850 
Q 1081 -850 1212 -737 
Q 1344 -625 1503 -206 
L 1606 56 
L 191 3500 
L 800 3500 
L 1894 763 
L 2988 3500 
L 3597 3500 
L 2059 -325 
z
" id="DejaVuSans-79" transform="scale(0.015625)"/>
        <path d="M 1959 3097 
Q 1497 3097 1228 2736 
Q 959 2375 959 1747 
Q 959 1119 1226 758 
Q 1494 397 1959 397 
Q 2419 397 2687 759 
Q 2956 1122 2956 1747 
Q 2956 2369 2687 2733 
Q 2419 3097 1959 3097 
z
M 1959 3584 
Q 2709 3584 3137 3096 
Q 3566 2609 3566 1747 
Q 3566 888 3137 398 
Q 2709 -91 1959 -91 
Q 1206 -91 779 398 
Q 353 888 353 1747 
Q 353 2609 779 3096 
Q 1206 3584 1959 3584 
z
" id="DejaVuSans-6f" transform="scale(0.015625)"/>
        <path d="M 1172 4494 
L 1172 3500 
L 2356 3500 
L 2356 3053 
L 1172 3053 
L 1172 1153 
Q 1172 725 1289 603 
Q 1406 481 1766 481 
L 2356 481 
L 2356 0 
L 1766 0 
Q 1100 0 847 248 
Q 594 497 594 1153 
L 594 3053 
L 172 3053 
L 172 3500 
L 594 3500 
L 594 4494 
L 1172 4494 
z
" id="DejaVuSans-74" transform="scale(0.015625)"/>
       </defs>
       <use xlink:href="#DejaVuSans-65"/>
       <use x="61.523438" xlink:href="#DejaVuSans-75"/>
       <use x="124.902344" xlink:href="#DejaVuSans-6b"/>
       <use x="181.0625" xlink:href="#DejaVuSans-61"/>
       <use x="242.341797" xlink:href="#DejaVuSans-72"/>
       <use x="283.455078" xlink:href="#DejaVuSans-79"/>
       <use x="342.634766" xlink:href="#DejaVuSans-6f"/>
       <use x="403.816406" xlink:href="#DejaVuSans-74"/>
       <use x="443.025391" xlink:href="#DejaVuSans-61"/>
      </g>
     </g>
    </g>
    <g id="xtick_2">
     <g id="text_2">
      <!-- bacteria -->
      <g style="fill:#262626;" transform="translate(213.573906 325.442281)scale(0.11 -0.11)">
       <defs>
        <path d="M 3116 1747 
Q 3116 2381 2855 2742 
Q 2594 3103 2138 3103 
Q 1681 3103 1420 2742 
Q 1159 2381 1159 1747 
Q 1159 1113 1420 752 
Q 1681 391 2138 391 
Q 2594 391 2855 752 
Q 3116 1113 3116 1747 
z
M 1159 2969 
Q 1341 3281 1617 3432 
Q 1894 3584 2278 3584 
Q 2916 3584 3314 3078 
Q 3713 2572 3713 1747 
Q 3713 922 3314 415 
Q 2916 -91 2278 -91 
Q 1894 -91 1617 61 
Q 1341 213 1159 525 
L 1159 0 
L 581 0 
L 581 4863 
L 1159 4863 
L 1159 2969 
z
" id="DejaVuSans-62" transform="scale(0.015625)"/>
        <path d="M 3122 3366 
L 3122 2828 
Q 2878 2963 2633 3030 
Q 2388 3097 2138 3097 
Q 1578 3097 1268 2742 
Q 959 2388 959 1747 
Q 959 1106 1268 751 
Q 1578 397 2138 397 
Q 2388 397 2633 464 
Q 2878 531 3122 666 
L 3122 134 
Q 2881 22 2623 -34 
Q 2366 -91 2075 -91 
Q 1284 -91 818 406 
Q 353 903 353 1747 
Q 353 2603 823 3093 
Q 1294 3584 2113 3584 
Q 2378 3584 2631 3529 
Q 2884 3475 3122 3366 
z
" id="DejaVuSans-63" transform="scale(0.015625)"/>
        <path d="M 603 3500 
L 1178 3500 
L 1178 0 
L 603 0 
L 603 3500 
z
M 603 4863 
L 1178 4863 
L 1178 4134 
L 603 4134 
L 603 4863 
z
" id="DejaVuSans-69" transform="scale(0.015625)"/>
       </defs>
       <use xlink:href="#DejaVuSans-62"/>
       <use x="63.476562" xlink:href="#DejaVuSans-61"/>
       <use x="124.755859" xlink:href="#DejaVuSans-63"/>
       <use x="179.736328" xlink:href="#DejaVuSans-74"/>
       <use x="218.945312" xlink:href="#DejaVuSans-65"/>
       <use x="280.46875" xlink:href="#DejaVuSans-72"/>
       <use x="321.582031" xlink:href="#DejaVuSans-69"/>
       <use x="349.365234" xlink:href="#DejaVuSans-61"/>
      </g>
     </g>
    </g>
    <g id="xtick_3">
     <g id="text_3">
      <!-- archaea -->
      <g style="fill:#262626;" transform="translate(333.057344 325.442281)scale(0.11 -0.11)">
       <defs>
        <path d="M 3513 2113 
L 3513 0 
L 2938 0 
L 2938 2094 
Q 2938 2591 2744 2837 
Q 2550 3084 2163 3084 
Q 1697 3084 1428 2787 
Q 1159 2491 1159 1978 
L 1159 0 
L 581 0 
L 581 4863 
L 1159 4863 
L 1159 2956 
Q 1366 3272 1645 3428 
Q 1925 3584 2291 3584 
Q 2894 3584 3203 3211 
Q 3513 2838 3513 2113 
z
" id="DejaVuSans-68" transform="scale(0.015625)"/>
       </defs>
       <use xlink:href="#DejaVuSans-61"/>
       <use x="61.279297" xlink:href="#DejaVuSans-72"/>
       <use x="100.142578" xlink:href="#DejaVuSans-63"/>
       <use x="155.123047" xlink:href="#DejaVuSans-68"/>
       <use x="218.501953" xlink:href="#DejaVuSans-61"/>
       <use x="279.78125" xlink:href="#DejaVuSans-65"/>
       <use x="341.304688" xlink:href="#DejaVuSans-61"/>
      </g>
     </g>
    </g>
    <g id="text_4">
     <!-- Domain -->
     <g style="fill:#262626;" transform="translate(212.878125 340.848062)scale(0.12 -0.12)">
      <defs>
       <path d="M 1259 4147 
L 1259 519 
L 2022 519 
Q 2988 519 3436 956 
Q 3884 1394 3884 2338 
Q 3884 3275 3436 3711 
Q 2988 4147 2022 4147 
L 1259 4147 
z
M 628 4666 
L 1925 4666 
Q 3281 4666 3915 4102 
Q 4550 3538 4550 2338 
Q 4550 1131 3912 565 
Q 3275 0 1925 0 
L 628 0 
L 628 4666 
z
" id="DejaVuSans-44" transform="scale(0.015625)"/>
       <path d="M 3328 2828 
Q 3544 3216 3844 3400 
Q 4144 3584 4550 3584 
Q 5097 3584 5394 3201 
Q 5691 2819 5691 2113 
L 5691 0 
L 5113 0 
L 5113 2094 
Q 5113 2597 4934 2840 
Q 4756 3084 4391 3084 
Q 3944 3084 3684 2787 
Q 3425 2491 3425 1978 
L 3425 0 
L 2847 0 
L 2847 2094 
Q 2847 2600 2669 2842 
Q 2491 3084 2119 3084 
Q 1678 3084 1418 2786 
Q 1159 2488 1159 1978 
L 1159 0 
L 581 0 
L 581 3500 
L 1159 3500 
L 1159 2956 
Q 1356 3278 1631 3431 
Q 1906 3584 2284 3584 
Q 2666 3584 2933 3390 
Q 3200 3197 3328 2828 
z
" id="DejaVuSans-6d" transform="scale(0.015625)"/>
       <path d="M 3513 2113 
L 3513 0 
L 2938 0 
L 2938 2094 
Q 2938 2591 2744 2837 
Q 2550 3084 2163 3084 
Q 1697 3084 1428 2787 
Q 1159 2491 1159 1978 
L 1159 0 
L 581 0 
L 581 3500 
L 1159 3500 
L 1159 2956 
Q 1366 3272 1645 3428 
Q 1925 3584 2291 3584 
Q 2894 3584 3203 3211 
Q 3513 2838 3513 2113 
z
" id="DejaVuSans-6e" transform="scale(0.015625)"/>
      </defs>
      <use xlink:href="#DejaVuSans-44"/>
      <use x="77.001953" xlink:href="#DejaVuSans-6f"/>
      <use x="138.183594" xlink:href="#DejaVuSans-6d"/>
      <use x="235.595703" xlink:href="#DejaVuSans-61"/>
      <use x="296.875" xlink:href="#DejaVuSans-69"/>
      <use x="324.658203" xlink:href="#DejaVuSans-6e"/>
     </g>
    </g>
   </g>
   <g id="matplotlib.axis_2">
    <g id="ytick_1">
     <g id="line2d_1">
      <path clip-path="url(#p13ec8d8ab0)" d="M 57.6 297.832025 
L 414.72 297.832025 
" style="fill:none;stroke:#cccccc;stroke-linecap:round;"/>
     </g>
     <g id="text_5">
      <!-- 0 -->
      <g style="fill:#262626;" transform="translate(41.10125 302.011166)scale(0.11 -0.11)">
       <defs>
        <path d="M 2034 4250 
Q 1547 4250 1301 3770 
Q 1056 3291 1056 2328 
Q 1056 1369 1301 889 
Q 1547 409 2034 409 
Q 2525 409 2770 889 
Q 3016 1369 3016 2328 
Q 3016 3291 2770 3770 
Q 2525 4250 2034 4250 
z
M 2034 4750 
Q 2819 4750 3233 4129 
Q 3647 3509 3647 2328 
Q 3647 1150 3233 529 
Q 2819 -91 2034 -91 
Q 1250 -91 836 529 
Q 422 1150 422 2328 
Q 422 3509 836 4129 
Q 1250 4750 2034 4750 
z
" id="DejaVuSans-30" transform="scale(0.015625)"/>
       </defs>
       <use xlink:href="#DejaVuSans-30"/>
      </g>
     </g>
    </g>
    <g id="ytick_2">
     <g id="line2d_2">
      <path clip-path="url(#p13ec8d8ab0)" d="M 57.6 254.100215 
L 414.72 254.100215 
" style="fill:none;stroke:#cccccc;stroke-linecap:round;"/>
     </g>
     <g id="text_6">
      <!-- 10000 -->
      <g style="fill:#262626;" transform="translate(13.10625 258.279356)scale(0.11 -0.11)">
       <defs>
        <path d="M 794 531 
L 1825 531 
L 1825 4091 
L 703 3866 
L 703 4441 
L 1819 4666 
L 2450 4666 
L 2450 531 
L 3481 531 
L 3481 0 
L 794 0 
L 794 531 
z
" id="DejaVuSans-31" transform="scale(0.015625)"/>
       </defs>
       <use xlink:href="#DejaVuSans-31"/>
       <use x="63.623047" xlink:href="#DejaVuSans-30"/>
       <use x="127.246094" xlink:href="#DejaVuSans-30"/>
       <use x="190.869141" xlink:href="#DejaVuSans-30"/>
       <use x="254.492188" xlink:href="#DejaVuSans-30"/>
      </g>
     </g>
    </g>
    <g id="ytick_3">
     <g id="line2d_3">
      <path clip-path="url(#p13ec8d8ab0)" d="M 57.6 210.368405 
L 414.72 210.368405 
" style="fill:none;stroke:#cccccc;stroke-linecap:round;"/>
     </g>
     <g id="text_7">
      <!-- 20000 -->
      <g style="fill:#262626;" transform="translate(13.10625 214.547546)scale(0.11 -0.11)">
       <defs>
        <path d="M 1228 531 
L 3431 531 
L 3431 0 
L 469 0 
L 469 531 
Q 828 903 1448 1529 
Q 2069 2156 2228 2338 
Q 2531 2678 2651 2914 
Q 2772 3150 2772 3378 
Q 2772 3750 2511 3984 
Q 2250 4219 1831 4219 
Q 1534 4219 1204 4116 
Q 875 4013 500 3803 
L 500 4441 
Q 881 4594 1212 4672 
Q 1544 4750 1819 4750 
Q 2544 4750 2975 4387 
Q 3406 4025 3406 3419 
Q 3406 3131 3298 2873 
Q 3191 2616 2906 2266 
Q 2828 2175 2409 1742 
Q 1991 1309 1228 531 
z
" id="DejaVuSans-32" transform="scale(0.015625)"/>
       </defs>
       <use xlink:href="#DejaVuSans-32"/>
       <use x="63.623047" xlink:href="#DejaVuSans-30"/>
       <use x="127.246094" xlink:href="#DejaVuSans-30"/>
       <use x="190.869141" xlink:href="#DejaVuSans-30"/>
       <use x="254.492188" xlink:href="#DejaVuSans-30"/>
      </g>
     </g>
    </g>
    <g id="ytick_4">
     <g id="line2d_4">
      <path clip-path="url(#p13ec8d8ab0)" d="M 57.6 166.636595 
L 414.72 166.636595 
" style="fill:none;stroke:#cccccc;stroke-linecap:round;"/>
     </g>
     <g id="text_8">
      <!-- 30000 -->
      <g style="fill:#262626;" transform="translate(13.10625 170.815736)scale(0.11 -0.11)">
       <defs>
        <path d="M 2597 2516 
Q 3050 2419 3304 2112 
Q 3559 1806 3559 1356 
Q 3559 666 3084 287 
Q 2609 -91 1734 -91 
Q 1441 -91 1130 -33 
Q 819 25 488 141 
L 488 750 
Q 750 597 1062 519 
Q 1375 441 1716 441 
Q 2309 441 2620 675 
Q 2931 909 2931 1356 
Q 2931 1769 2642 2001 
Q 2353 2234 1838 2234 
L 1294 2234 
L 1294 2753 
L 1863 2753 
Q 2328 2753 2575 2939 
Q 2822 3125 2822 3475 
Q 2822 3834 2567 4026 
Q 2313 4219 1838 4219 
Q 1578 4219 1281 4162 
Q 984 4106 628 3988 
L 628 4550 
Q 988 4650 1302 4700 
Q 1616 4750 1894 4750 
Q 2613 4750 3031 4423 
Q 3450 4097 3450 3541 
Q 3450 3153 3228 2886 
Q 3006 2619 2597 2516 
z
" id="DejaVuSans-33" transform="scale(0.015625)"/>
       </defs>
       <use xlink:href="#DejaVuSans-33"/>
       <use x="63.623047" xlink:href="#DejaVuSans-30"/>
       <use x="127.246094" xlink:href="#DejaVuSans-30"/>
       <use x="190.869141" xlink:href="#DejaVuSans-30"/>
       <use x="254.492188" xlink:href="#DejaVuSans-30"/>
      </g>
     </g>
    </g>
    <g id="ytick_5">
     <g id="line2d_5">
      <path clip-path="url(#p13ec8d8ab0)" d="M 57.6 122.904785 
L 414.72 122.904785 
" style="fill:none;stroke:#cccccc;stroke-linecap:round;"/>
     </g>
     <g id="text_9">
      <!-- 40000 -->
      <g style="fill:#262626;" transform="translate(13.10625 127.083925)scale(0.11 -0.11)">
       <defs>
        <path d="M 2419 4116 
L 825 1625 
L 2419 1625 
L 2419 4116 
z
M 2253 4666 
L 3047 4666 
L 3047 1625 
L 3713 1625 
L 3713 1100 
L 3047 1100 
L 3047 0 
L 2419 0 
L 2419 1100 
L 313 1100 
L 313 1709 
L 2253 4666 
z
" id="DejaVuSans-34" transform="scale(0.015625)"/>
       </defs>
       <use xlink:href="#DejaVuSans-34"/>
       <use x="63.623047" xlink:href="#DejaVuSans-30"/>
       <use x="127.246094" xlink:href="#DejaVuSans-30"/>
       <use x="190.869141" xlink:href="#DejaVuSans-30"/>
       <use x="254.492188" xlink:href="#DejaVuSans-30"/>
      </g>
     </g>
    </g>
    <g id="ytick_6">
     <g id="line2d_6">
      <path clip-path="url(#p13ec8d8ab0)" d="M 57.6 79.172975 
L 414.72 79.172975 
" style="fill:none;stroke:#cccccc;stroke-linecap:round;"/>
     </g>
     <g id="text_10">
      <!-- 50000 -->
      <g style="fill:#262626;" transform="translate(13.10625 83.352115)scale(0.11 -0.11)">
       <defs>
        <path d="M 691 4666 
L 3169 4666 
L 3169 4134 
L 1269 4134 
L 1269 2991 
Q 1406 3038 1543 3061 
Q 1681 3084 1819 3084 
Q 2600 3084 3056 2656 
Q 3513 2228 3513 1497 
Q 3513 744 3044 326 
Q 2575 -91 1722 -91 
Q 1428 -91 1123 -41 
Q 819 9 494 109 
L 494 744 
Q 775 591 1075 516 
Q 1375 441 1709 441 
Q 2250 441 2565 725 
Q 2881 1009 2881 1497 
Q 2881 1984 2565 2268 
Q 2250 2553 1709 2553 
Q 1456 2553 1204 2497 
Q 953 2441 691 2322 
L 691 4666 
z
" id="DejaVuSans-35" transform="scale(0.015625)"/>
       </defs>
       <use xlink:href="#DejaVuSans-35"/>
       <use x="63.623047" xlink:href="#DejaVuSans-30"/>
       <use x="127.246094" xlink:href="#DejaVuSans-30"/>
       <use x="190.869141" xlink:href="#DejaVuSans-30"/>
       <use x="254.492188" xlink:href="#DejaVuSans-30"/>
      </g>
     </g>
    </g>
    <g id="text_11">
     <!-- Proteins -->
     <g style="fill:#262626;" transform="translate(6.610625 198.682687)rotate(-90)scale(0.12 -0.12)">
      <defs>
       <path d="M 1259 4147 
L 1259 2394 
L 2053 2394 
Q 2494 2394 2734 2622 
Q 2975 2850 2975 3272 
Q 2975 3691 2734 3919 
Q 2494 4147 2053 4147 
L 1259 4147 
z
M 628 4666 
L 2053 4666 
Q 2838 4666 3239 4311 
Q 3641 3956 3641 3272 
Q 3641 2581 3239 2228 
Q 2838 1875 2053 1875 
L 1259 1875 
L 1259 0 
L 628 0 
L 628 4666 
z
" id="DejaVuSans-50" transform="scale(0.015625)"/>
       <path d="M 2834 3397 
L 2834 2853 
Q 2591 2978 2328 3040 
Q 2066 3103 1784 3103 
Q 1356 3103 1142 2972 
Q 928 2841 928 2578 
Q 928 2378 1081 2264 
Q 1234 2150 1697 2047 
L 1894 2003 
Q 2506 1872 2764 1633 
Q 3022 1394 3022 966 
Q 3022 478 2636 193 
Q 2250 -91 1575 -91 
Q 1294 -91 989 -36 
Q 684 19 347 128 
L 347 722 
Q 666 556 975 473 
Q 1284 391 1588 391 
Q 1994 391 2212 530 
Q 2431 669 2431 922 
Q 2431 1156 2273 1281 
Q 2116 1406 1581 1522 
L 1381 1569 
Q 847 1681 609 1914 
Q 372 2147 372 2553 
Q 372 3047 722 3315 
Q 1072 3584 1716 3584 
Q 2034 3584 2315 3537 
Q 2597 3491 2834 3397 
z
" id="DejaVuSans-73" transform="scale(0.015625)"/>
      </defs>
      <use xlink:href="#DejaVuSans-50"/>
      <use x="58.552734" xlink:href="#DejaVuSans-72"/>
      <use x="97.416016" xlink:href="#DejaVuSans-6f"/>
      <use x="158.597656" xlink:href="#DejaVuSans-74"/>
      <use x="197.806641" xlink:href="#DejaVuSans-65"/>
      <use x="259.330078" xlink:href="#DejaVuSans-69"/>
      <use x="287.113281" xlink:href="#DejaVuSans-6e"/>
      <use x="350.492188" xlink:href="#DejaVuSans-73"/>
     </g>
    </g>
   </g>
   <g id="patch_3">
    <path clip-path="url(#p13ec8d8ab0)" d="M 69.504 262.636664 
L 164.736 262.636664 
L 164.736 214.174166 
L 69.504 214.174166 
L 69.504 262.636664 
z
" style="fill:#5875a4;stroke:#4c4c4c;stroke-linejoin:miter;stroke-width:1.5;"/>
   </g>
   <g id="patch_4">
    <path clip-path="url(#p13ec8d8ab0)" d="M 188.544 288.254759 
L 283.776 288.254759 
L 283.776 279.575088 
L 188.544 279.575088 
L 188.544 288.254759 
z
" style="fill:#cc8963;stroke:#4c4c4c;stroke-linejoin:miter;stroke-width:1.5;"/>
   </g>
   <g id="patch_5">
    <path clip-path="url(#p13ec8d8ab0)" d="M 307.584 290.494921 
L 402.816 290.494921 
L 402.816 283.279172 
L 307.584 283.279172 
L 307.584 290.494921 
z
" style="fill:#5f9e6e;stroke:#4c4c4c;stroke-linejoin:miter;stroke-width:1.5;"/>
   </g>
   <g id="line2d_7">
    <path clip-path="url(#p13ec8d8ab0)" d="M 117.12 262.636664 
L 117.12 288.906363 
" style="fill:none;stroke:#4c4c4c;stroke-linecap:round;stroke-width:1.5;"/>
   </g>
   <g id="line2d_8">
    <path clip-path="url(#p13ec8d8ab0)" d="M 117.12 214.174166 
L 117.12 141.70509 
" style="fill:none;stroke:#4c4c4c;stroke-linecap:round;stroke-width:1.5;"/>
   </g>
   <g id="line2d_9">
    <path clip-path="url(#p13ec8d8ab0)" d="M 93.312 288.906363 
L 140.928 288.906363 
" style="fill:none;stroke:#4c4c4c;stroke-linecap:round;stroke-width:1.5;"/>
   </g>
   <g id="line2d_10">
    <path clip-path="url(#p13ec8d8ab0)" d="M 93.312 141.70509 
L 140.928 141.70509 
" style="fill:none;stroke:#4c4c4c;stroke-linecap:round;stroke-width:1.5;"/>
   </g>
   <g id="line2d_11"/>
   <g id="line2d_12">
    <path clip-path="url(#p13ec8d8ab0)" d="M 236.16 288.254759 
L 236.16 295.160011 
" style="fill:none;stroke:#4c4c4c;stroke-linecap:round;stroke-width:1.5;"/>
   </g>
   <g id="line2d_13">
    <path clip-path="url(#p13ec8d8ab0)" d="M 236.16 279.575088 
L 236.16 268.960284 
" style="fill:none;stroke:#4c4c4c;stroke-linecap:round;stroke-width:1.5;"/>
   </g>
   <g id="line2d_14">
    <path clip-path="url(#p13ec8d8ab0)" d="M 212.352 295.160011 
L 259.968 295.160011 
" style="fill:none;stroke:#4c4c4c;stroke-linecap:round;stroke-width:1.5;"/>
   </g>
   <g id="line2d_15">
    <path clip-path="url(#p13ec8d8ab0)" d="M 212.352 268.960284 
L 259.968 268.960284 
" style="fill:none;stroke:#4c4c4c;stroke-linecap:round;stroke-width:1.5;"/>
   </g>
   <g id="line2d_16"/>
   <g id="line2d_17">
    <path clip-path="url(#p13ec8d8ab0)" d="M 355.2 290.494921 
L 355.2 295.488 
" style="fill:none;stroke:#4c4c4c;stroke-linecap:round;stroke-width:1.5;"/>
   </g>
   <g id="line2d_18">
    <path clip-path="url(#p13ec8d8ab0)" d="M 355.2 283.279172 
L 355.2 275.471951 
" style="fill:none;stroke:#4c4c4c;stroke-linecap:round;stroke-width:1.5;"/>
   </g>
   <g id="line2d_19">
    <path clip-path="url(#p13ec8d8ab0)" d="M 331.392 295.488 
L 379.008 295.488 
" style="fill:none;stroke:#4c4c4c;stroke-linecap:round;stroke-width:1.5;"/>
   </g>
   <g id="line2d_20">
    <path clip-path="url(#p13ec8d8ab0)" d="M 331.392 275.471951 
L 379.008 275.471951 
" style="fill:none;stroke:#4c4c4c;stroke-linecap:round;stroke-width:1.5;"/>
   </g>
   <g id="line2d_21"/>
   <g id="line2d_22">
    <path clip-path="url(#p13ec8d8ab0)" d="M 69.504 243.001082 
L 164.736 243.001082 
" style="fill:none;stroke:#4c4c4c;stroke-linecap:round;stroke-width:1.5;"/>
   </g>
   <g id="line2d_23">
    <path clip-path="url(#p13ec8d8ab0)" d="M 188.544 283.603881 
L 283.776 283.603881 
" style="fill:none;stroke:#4c4c4c;stroke-linecap:round;stroke-width:1.5;"/>
   </g>
   <g id="line2d_24">
    <path clip-path="url(#p13ec8d8ab0)" d="M 307.584 288.867004 
L 402.816 288.867004 
" style="fill:none;stroke:#4c4c4c;stroke-linecap:round;stroke-width:1.5;"/>
   </g>
   <g id="patch_6">
    <path d="M 117.12 307.584 
L 355.2 307.584 
" style="fill:none;stroke:#cccccc;stroke-linecap:square;stroke-linejoin:miter;stroke-width:1.25;"/>
   </g>
   <g id="PathCollection_1">
    <defs>
     <path d="M 0 1.5 
C 0.397805 1.5 0.77937 1.341951 1.06066 1.06066 
C 1.341951 0.77937 1.5 0.397805 1.5 -0 
C 1.5 -0.397805 1.341951 -0.77937 1.06066 -1.06066 
C 0.77937 -1.341951 0.397805 -1.5 0 -1.5 
C -0.397805 -1.5 -0.77937 -1.341951 -1.06066 -1.06066 
C -1.341951 -0.77937 -1.5 -0.397805 -1.5 0 
C -1.5 0.397805 -1.341951 0.77937 -1.06066 1.06066 
C -0.77937 1.341951 -0.397805 1.5 0 1.5 
z
" id="C0_0_3e75046241"/>
    </defs>
    <g clip-path="url(#p13ec8d8ab0)">
     <use style="fill:#333333;" x="117.12" xlink:href="#C0_0_3e75046241" y="288.906363"/>
    </g>
    <g clip-path="url(#p13ec8d8ab0)">
     <use style="fill:#333333;" x="113.971208" xlink:href="#C0_0_3e75046241" y="288.823272"/>
    </g>
    <g clip-path="url(#p13ec8d8ab0)">
     <use style="fill:#333333;" x="120.140057" xlink:href="#C0_0_3e75046241" y="288.053592"/>
    </g>
    <g clip-path="url(#p13ec8d8ab0)">
     <use style="fill:#333333;" x="117.12" xlink:href="#C0_0_3e75046241" y="285.72706"/>
    </g>
    <g clip-path="url(#p13ec8d8ab0)">
     <use style="fill:#333333;" x="113.977721" xlink:href="#C0_0_3e75046241" y="285.517147"/>
    </g>
    <g clip-path="url(#p13ec8d8ab0)">
     <use style="fill:#333333;" x="119.521226" xlink:href="#C0_0_3e75046241" y="283.785368"/>
    </g>
    <g clip-path="url(#p13ec8d8ab0)">
     <use style="fill:#333333;" x="111.796861" xlink:href="#C0_0_3e75046241" y="283.352423"/>
    </g>
    <g clip-path="url(#p13ec8d8ab0)">
     <use style="fill:#333333;" x="116.126693" xlink:href="#C0_0_3e75046241" y="282.880119"/>
    </g>
    <g clip-path="url(#p13ec8d8ab0)">
     <use style="fill:#333333;" x="122.13457" xlink:href="#C0_0_3e75046241" y="282.110439"/>
    </g>
    <g clip-path="url(#p13ec8d8ab0)">
     <use style="fill:#333333;" x="109.17125" xlink:href="#C0_0_3e75046241" y="281.694987"/>
    </g>
    <g clip-path="url(#p13ec8d8ab0)">
     <use style="fill:#333333;" x="125.154627" xlink:href="#C0_0_3e75046241" y="281.257669"/>
    </g>
    <g clip-path="url(#p13ec8d8ab0)">
     <use style="fill:#333333;" x="106.065828" xlink:href="#C0_0_3e75046241" y="281.192071"/>
    </g>
    <g clip-path="url(#p13ec8d8ab0)">
     <use style="fill:#333333;" x="117.12" xlink:href="#C0_0_3e75046241" y="280.028805"/>
    </g>
    <g clip-path="url(#p13ec8d8ab0)">
     <use style="fill:#333333;" x="114.016951" xlink:href="#C0_0_3e75046241" y="279.51277"/>
    </g>
    <g clip-path="url(#p13ec8d8ab0)">
     <use style="fill:#333333;" x="120.13034" xlink:href="#C0_0_3e75046241" y="279.145423"/>
    </g>
    <g clip-path="url(#p13ec8d8ab0)">
     <use style="fill:#333333;" x="111.066018" xlink:href="#C0_0_3e75046241" y="278.463206"/>
    </g>
    <g clip-path="url(#p13ec8d8ab0)">
     <use style="fill:#333333;" x="117.12" xlink:href="#C0_0_3e75046241" y="277.02443"/>
    </g>
    <g clip-path="url(#p13ec8d8ab0)">
     <use style="fill:#333333;" x="114.067085" xlink:href="#C0_0_3e75046241" y="276.285362"/>
    </g>
    <g clip-path="url(#p13ec8d8ab0)">
     <use style="fill:#333333;" x="120.121713" xlink:href="#C0_0_3e75046241" y="276.114808"/>
    </g>
    <g clip-path="url(#p13ec8d8ab0)">
     <use style="fill:#333333;" x="123.270236" xlink:href="#C0_0_3e75046241" y="276.022971"/>
    </g>
    <g clip-path="url(#p13ec8d8ab0)">
     <use style="fill:#333333;" x="109.956053" xlink:href="#C0_0_3e75046241" y="275.655624"/>
    </g>
    <g clip-path="url(#p13ec8d8ab0)">
     <use style="fill:#333333;" x="126.395385" xlink:href="#C0_0_3e75046241" y="275.646878"/>
    </g>
    <g clip-path="url(#p13ec8d8ab0)">
     <use style="fill:#333333;" x="106.807673" xlink:href="#C0_0_3e75046241" y="275.559414"/>
    </g>
    <g clip-path="url(#p13ec8d8ab0)">
     <use style="fill:#333333;" x="129.490934" xlink:href="#C0_0_3e75046241" y="275.091484"/>
    </g>
    <g clip-path="url(#p13ec8d8ab0)">
     <use style="fill:#333333;" x="103.752438" xlink:href="#C0_0_3e75046241" y="274.829093"/>
    </g>
    <g clip-path="url(#p13ec8d8ab0)">
     <use style="fill:#333333;" x="132.613707" xlink:href="#C0_0_3e75046241" y="274.697898"/>
    </g>
    <g clip-path="url(#p13ec8d8ab0)">
     <use style="fill:#333333;" x="100.612212" xlink:href="#C0_0_3e75046241" y="274.592941"/>
    </g>
    <g clip-path="url(#p13ec8d8ab0)">
     <use style="fill:#333333;" x="135.755661" xlink:href="#C0_0_3e75046241" y="274.483612"/>
    </g>
    <g clip-path="url(#p13ec8d8ab0)">
     <use style="fill:#333333;" x="97.467572" xlink:href="#C0_0_3e75046241" y="274.418014"/>
    </g>
    <g clip-path="url(#p13ec8d8ab0)">
     <use style="fill:#333333;" x="138.898571" xlink:href="#C0_0_3e75046241" y="274.282445"/>
    </g>
    <g clip-path="url(#p13ec8d8ab0)">
     <use style="fill:#333333;" x="94.321674" xlink:href="#C0_0_3e75046241" y="274.264953"/>
    </g>
    <g clip-path="url(#p13ec8d8ab0)">
     <use style="fill:#333333;" x="117.12" xlink:href="#C0_0_3e75046241" y="273.495273"/>
    </g>
    <g clip-path="url(#p13ec8d8ab0)">
     <use style="fill:#333333;" x="114.127193" xlink:href="#C0_0_3e75046241" y="272.559412"/>
    </g>
    <g clip-path="url(#p13ec8d8ab0)">
     <use style="fill:#333333;" x="120.084392" xlink:href="#C0_0_3e75046241" y="272.480695"/>
    </g>
    <g clip-path="url(#p13ec8d8ab0)">
     <use style="fill:#333333;" x="123.232621" xlink:href="#C0_0_3e75046241" y="272.380112"/>
    </g>
    <g clip-path="url(#p13ec8d8ab0)">
     <use style="fill:#333333;" x="111.043489" xlink:href="#C0_0_3e75046241" y="271.947167"/>
    </g>
    <g clip-path="url(#p13ec8d8ab0)">
     <use style="fill:#333333;" x="126.340355" xlink:href="#C0_0_3e75046241" y="271.890315"/>
    </g>
    <g clip-path="url(#p13ec8d8ab0)">
     <use style="fill:#333333;" x="107.903263" xlink:href="#C0_0_3e75046241" y="271.711015"/>
    </g>
    <g clip-path="url(#p13ec8d8ab0)">
     <use style="fill:#333333;" x="117.12" xlink:href="#C0_0_3e75046241" y="270.350956"/>
    </g>
    <g clip-path="url(#p13ec8d8ab0)">
     <use style="fill:#333333;" x="114.608304" xlink:href="#C0_0_3e75046241" y="268.540459"/>
    </g>
    <g clip-path="url(#p13ec8d8ab0)">
     <use style="fill:#333333;" x="119.532855" xlink:href="#C0_0_3e75046241" y="268.422383"/>
    </g>
    <g clip-path="url(#p13ec8d8ab0)">
     <use style="fill:#333333;" x="122.538916" xlink:href="#C0_0_3e75046241" y="267.525881"/>
    </g>
    <g clip-path="url(#p13ec8d8ab0)">
     <use style="fill:#333333;" x="117.12" xlink:href="#C0_0_3e75046241" y="265.059407"/>
    </g>
    <g clip-path="url(#p13ec8d8ab0)">
     <use style="fill:#333333;" x="114.181271" xlink:href="#C0_0_3e75046241" y="263.979231"/>
    </g>
    <g clip-path="url(#p13ec8d8ab0)">
     <use style="fill:#333333;" x="120.055168" xlink:href="#C0_0_3e75046241" y="263.970484"/>
    </g>
    <g clip-path="url(#p13ec8d8ab0)">
     <use style="fill:#333333;" x="123.2042" xlink:href="#C0_0_3e75046241" y="263.89614"/>
    </g>
    <g clip-path="url(#p13ec8d8ab0)">
     <use style="fill:#333333;" x="111.102442" xlink:href="#C0_0_3e75046241" y="263.34512"/>
    </g>
    <g clip-path="url(#p13ec8d8ab0)">
     <use style="fill:#333333;" x="126.260584" xlink:href="#C0_0_3e75046241" y="263.170192"/>
    </g>
    <g clip-path="url(#p13ec8d8ab0)">
     <use style="fill:#333333;" x="107.970328" xlink:href="#C0_0_3e75046241" y="263.025877"/>
    </g>
    <g clip-path="url(#p13ec8d8ab0)">
     <use style="fill:#333333;" x="129.362828" xlink:href="#C0_0_3e75046241" y="262.649784"/>
    </g>
    <g clip-path="url(#p13ec8d8ab0)">
     <use style="fill:#333333;" x="104.847555" xlink:href="#C0_0_3e75046241" y="262.632291"/>
    </g>
    <g clip-path="url(#p13ec8d8ab0)">
     <use style="fill:#333333;" x="132.507733" xlink:href="#C0_0_3e75046241" y="262.47923"/>
    </g>
    <g clip-path="url(#p13ec8d8ab0)">
     <use style="fill:#333333;" x="117.12" xlink:href="#C0_0_3e75046241" y="261.486518"/>
    </g>
    <g clip-path="url(#p13ec8d8ab0)">
     <use style="fill:#333333;" x="114.112505" xlink:href="#C0_0_3e75046241" y="260.594389"/>
    </g>
    <g clip-path="url(#p13ec8d8ab0)">
     <use style="fill:#333333;" x="120.053375" xlink:href="#C0_0_3e75046241" y="260.393222"/>
    </g>
    <g clip-path="url(#p13ec8d8ab0)">
     <use style="fill:#333333;" x="123.195329" xlink:href="#C0_0_3e75046241" y="260.178937"/>
    </g>
    <g clip-path="url(#p13ec8d8ab0)">
     <use style="fill:#333333;" x="110.99752" xlink:href="#C0_0_3e75046241" y="260.148324"/>
    </g>
    <g clip-path="url(#p13ec8d8ab0)">
     <use style="fill:#333333;" x="126.290009" xlink:href="#C0_0_3e75046241" y="259.619169"/>
    </g>
    <g clip-path="url(#p13ec8d8ab0)">
     <use style="fill:#333333;" x="107.995807" xlink:href="#C0_0_3e75046241" y="259.238703"/>
    </g>
    <g clip-path="url(#p13ec8d8ab0)">
     <use style="fill:#333333;" x="104.84807" xlink:href="#C0_0_3e75046241" y="259.125"/>
    </g>
    <g clip-path="url(#p13ec8d8ab0)">
     <use style="fill:#333333;" x="129.325859" xlink:href="#C0_0_3e75046241" y="258.818877"/>
    </g>
    <g clip-path="url(#p13ec8d8ab0)">
     <use style="fill:#333333;" x="116.48687" xlink:href="#C0_0_3e75046241" y="258.54774"/>
    </g>
    <g clip-path="url(#p13ec8d8ab0)">
     <use style="fill:#333333;" x="101.867576" xlink:href="#C0_0_3e75046241" y="258.154154"/>
    </g>
    <g clip-path="url(#p13ec8d8ab0)">
     <use style="fill:#333333;" x="132.39117" xlink:href="#C0_0_3e75046241" y="258.127915"/>
    </g>
    <g clip-path="url(#p13ec8d8ab0)">
     <use style="fill:#333333;" x="98.720201" xlink:href="#C0_0_3e75046241" y="258.031705"/>
    </g>
    <g clip-path="url(#p13ec8d8ab0)">
     <use style="fill:#333333;" x="113.520832" xlink:href="#C0_0_3e75046241" y="257.537535"/>
    </g>
    <g clip-path="url(#p13ec8d8ab0)">
     <use style="fill:#333333;" x="119.386541" xlink:href="#C0_0_3e75046241" y="257.375728"/>
    </g>
    <g clip-path="url(#p13ec8d8ab0)">
     <use style="fill:#333333;" x="122.53267" xlink:href="#C0_0_3e75046241" y="257.227039"/>
    </g>
    <g clip-path="url(#p13ec8d8ab0)">
     <use style="fill:#333333;" x="110.877166" xlink:href="#C0_0_3e75046241" y="255.906339"/>
    </g>
    <g clip-path="url(#p13ec8d8ab0)">
     <use style="fill:#333333;" x="125.196884" xlink:href="#C0_0_3e75046241" y="255.626455"/>
    </g>
    <g clip-path="url(#p13ec8d8ab0)">
     <use style="fill:#333333;" x="117.12" xlink:href="#C0_0_3e75046241" y="255.040449"/>
    </g>
    <g clip-path="url(#p13ec8d8ab0)">
     <use style="fill:#333333;" x="107.931415" xlink:href="#C0_0_3e75046241" y="254.843656"/>
    </g>
    <g clip-path="url(#p13ec8d8ab0)">
     <use style="fill:#333333;" x="128.236513" xlink:href="#C0_0_3e75046241" y="254.839283"/>
    </g>
    <g clip-path="url(#p13ec8d8ab0)">
     <use style="fill:#333333;" x="114.056708" xlink:href="#C0_0_3e75046241" y="254.581265"/>
    </g>
    <g clip-path="url(#p13ec8d8ab0)">
     <use style="fill:#333333;" x="120.152003" xlink:href="#C0_0_3e75046241" y="254.227037"/>
    </g>
    <g clip-path="url(#p13ec8d8ab0)">
     <use style="fill:#333333;" x="104.928245" xlink:href="#C0_0_3e75046241" y="253.938407"/>
    </g>
    <g clip-path="url(#p13ec8d8ab0)">
     <use style="fill:#333333;" x="131.17701" xlink:href="#C0_0_3e75046241" y="253.76348"/>
    </g>
    <g clip-path="url(#p13ec8d8ab0)">
     <use style="fill:#333333;" x="111.775223" xlink:href="#C0_0_3e75046241" y="252.51275"/>
    </g>
    <g clip-path="url(#p13ec8d8ab0)">
     <use style="fill:#333333;" x="116.29409" xlink:href="#C0_0_3e75046241" y="252.145403"/>
    </g>
    <g clip-path="url(#p13ec8d8ab0)">
     <use style="fill:#333333;" x="122.402451" xlink:href="#C0_0_3e75046241" y="252.12791"/>
    </g>
    <g clip-path="url(#p13ec8d8ab0)">
     <use style="fill:#333333;" x="125.549022" xlink:href="#C0_0_3e75046241" y="251.987969"/>
    </g>
    <g clip-path="url(#p13ec8d8ab0)">
     <use style="fill:#333333;" x="108.719988" xlink:href="#C0_0_3e75046241" y="251.782429"/>
    </g>
    <g clip-path="url(#p13ec8d8ab0)">
     <use style="fill:#333333;" x="128.68014" xlink:href="#C0_0_3e75046241" y="251.65998"/>
    </g>
    <g clip-path="url(#p13ec8d8ab0)">
     <use style="fill:#333333;" x="119.045515" xlink:href="#C0_0_3e75046241" y="250.684761"/>
    </g>
    <g clip-path="url(#p13ec8d8ab0)">
     <use style="fill:#333333;" x="114.266543" xlink:href="#C0_0_3e75046241" y="249.849483"/>
    </g>
    <g clip-path="url(#p13ec8d8ab0)">
     <use style="fill:#333333;" x="111.132985" xlink:href="#C0_0_3e75046241" y="249.54336"/>
    </g>
    <g clip-path="url(#p13ec8d8ab0)">
     <use style="fill:#333333;" x="121.525391" xlink:href="#C0_0_3e75046241" y="248.834905"/>
    </g>
    <g clip-path="url(#p13ec8d8ab0)">
     <use style="fill:#333333;" x="117.12" xlink:href="#C0_0_3e75046241" y="247.636653"/>
    </g>
    <g clip-path="url(#p13ec8d8ab0)">
     <use style="fill:#333333;" x="124.392771" xlink:href="#C0_0_3e75046241" y="247.592922"/>
    </g>
    <g clip-path="url(#p13ec8d8ab0)">
     <use style="fill:#333333;" x="108.791983" xlink:href="#C0_0_3e75046241" y="247.53607"/>
    </g>
    <g clip-path="url(#p13ec8d8ab0)">
     <use style="fill:#333333;" x="127.539758" xlink:href="#C0_0_3e75046241" y="247.461726"/>
    </g>
    <g clip-path="url(#p13ec8d8ab0)">
     <use style="fill:#333333;" x="105.669821" xlink:href="#C0_0_3e75046241" y="247.138111"/>
    </g>
    <g clip-path="url(#p13ec8d8ab0)">
     <use style="fill:#333333;" x="113.156577" xlink:href="#C0_0_3e75046241" y="247.041901"/>
    </g>
    <g clip-path="url(#p13ec8d8ab0)">
     <use style="fill:#333333;" x="130.478486" xlink:href="#C0_0_3e75046241" y="246.38155"/>
    </g>
    <g clip-path="url(#p13ec8d8ab0)">
     <use style="fill:#333333;" x="119.814542" xlink:href="#C0_0_3e75046241" y="246.315953"/>
    </g>
    <g clip-path="url(#p13ec8d8ab0)">
     <use style="fill:#333333;" x="115.542087" xlink:href="#C0_0_3e75046241" y="245.082716"/>
    </g>
    <g clip-path="url(#p13ec8d8ab0)">
     <use style="fill:#333333;" x="112.676799" xlink:href="#C0_0_3e75046241" y="243.836359"/>
    </g>
    <g clip-path="url(#p13ec8d8ab0)">
     <use style="fill:#333333;" x="121.560373" xlink:href="#C0_0_3e75046241" y="243.818866"/>
    </g>
    <g clip-path="url(#p13ec8d8ab0)">
     <use style="fill:#333333;" x="118.312608" xlink:href="#C0_0_3e75046241" y="243.678925"/>
    </g>
    <g clip-path="url(#p13ec8d8ab0)">
     <use style="fill:#333333;" x="109.576187" xlink:href="#C0_0_3e75046241" y="243.307204"/>
    </g>
    <g clip-path="url(#p13ec8d8ab0)">
     <use style="fill:#333333;" x="124.480965" xlink:href="#C0_0_3e75046241" y="242.694959"/>
    </g>
    <g clip-path="url(#p13ec8d8ab0)">
     <use style="fill:#333333;" x="127.615451" xlink:href="#C0_0_3e75046241" y="242.397583"/>
    </g>
    <g clip-path="url(#p13ec8d8ab0)">
     <use style="fill:#333333;" x="116.935773" xlink:href="#C0_0_3e75046241" y="240.980672"/>
    </g>
    <g clip-path="url(#p13ec8d8ab0)">
     <use style="fill:#333333;" x="120.033885" xlink:href="#C0_0_3e75046241" y="240.438398"/>
    </g>
    <g clip-path="url(#p13ec8d8ab0)">
     <use style="fill:#333333;" x="113.859955" xlink:href="#C0_0_3e75046241" y="240.333441"/>
    </g>
    <g clip-path="url(#p13ec8d8ab0)">
     <use style="fill:#333333;" x="123.114686" xlink:href="#C0_0_3e75046241" y="239.813033"/>
    </g>
    <g clip-path="url(#p13ec8d8ab0)">
     <use style="fill:#333333;" x="110.827952" xlink:href="#C0_0_3e75046241" y="239.52003"/>
    </g>
    <g clip-path="url(#p13ec8d8ab0)">
     <use style="fill:#333333;" x="126.228276" xlink:href="#C0_0_3e75046241" y="239.358222"/>
    </g>
    <g clip-path="url(#p13ec8d8ab0)">
     <use style="fill:#333333;" x="107.687015" xlink:href="#C0_0_3e75046241" y="239.292624"/>
    </g>
    <g clip-path="url(#p13ec8d8ab0)">
     <use style="fill:#333333;" x="129.238616" xlink:href="#C0_0_3e75046241" y="238.474839"/>
    </g>
    <g clip-path="url(#p13ec8d8ab0)">
     <use style="fill:#333333;" x="117.956302" xlink:href="#C0_0_3e75046241" y="238.142477"/>
    </g>
    <g clip-path="url(#p13ec8d8ab0)">
     <use style="fill:#333333;" x="104.959036" xlink:href="#C0_0_3e75046241" y="237.792623"/>
    </g>
    <g clip-path="url(#p13ec8d8ab0)">
     <use style="fill:#333333;" x="114.886701" xlink:href="#C0_0_3e75046241" y="237.469008"/>
    </g>
    <g clip-path="url(#p13ec8d8ab0)">
     <use style="fill:#333333;" x="120.985703" xlink:href="#C0_0_3e75046241" y="237.320319"/>
    </g>
    <g clip-path="url(#p13ec8d8ab0)">
     <use style="fill:#333333;" x="132.084665" xlink:href="#C0_0_3e75046241" y="237.189124"/>
    </g>
    <g clip-path="url(#p13ec8d8ab0)">
     <use style="fill:#333333;" x="124.082967" xlink:href="#C0_0_3e75046241" y="236.773672"/>
    </g>
    <g clip-path="url(#p13ec8d8ab0)">
     <use style="fill:#333333;" x="112.036314" xlink:href="#C0_0_3e75046241" y="236.192039"/>
    </g>
    <g clip-path="url(#p13ec8d8ab0)">
     <use style="fill:#333333;" x="108.901373" xlink:href="#C0_0_3e75046241" y="235.899036"/>
    </g>
    <g clip-path="url(#p13ec8d8ab0)">
     <use style="fill:#333333;" x="127.093308" xlink:href="#C0_0_3e75046241" y="235.890289"/>
    </g>
    <g clip-path="url(#p13ec8d8ab0)">
     <use style="fill:#333333;" x="102.817119" xlink:href="#C0_0_3e75046241" y="235.592913"/>
    </g>
    <g clip-path="url(#p13ec8d8ab0)">
     <use style="fill:#333333;" x="99.669382" xlink:href="#C0_0_3e75046241" y="235.47921"/>
    </g>
    <g clip-path="url(#p13ec8d8ab0)">
     <use style="fill:#333333;" x="117.12" xlink:href="#C0_0_3e75046241" y="235.151222"/>
    </g>
    <g clip-path="url(#p13ec8d8ab0)">
     <use style="fill:#333333;" x="106.055324" xlink:href="#C0_0_3e75046241" y="234.61332"/>
    </g>
    <g clip-path="url(#p13ec8d8ab0)">
     <use style="fill:#333333;" x="120.169381" xlink:href="#C0_0_3e75046241" y="234.399035"/>
    </g>
    <g clip-path="url(#p13ec8d8ab0)">
     <use style="fill:#333333;" x="114.23144" xlink:href="#C0_0_3e75046241" y="234.040434"/>
    </g>
    <g clip-path="url(#p13ec8d8ab0)">
     <use style="fill:#333333;" x="123.122024" xlink:href="#C0_0_3e75046241" y="233.353844"/>
    </g>
    <g clip-path="url(#p13ec8d8ab0)">
     <use style="fill:#333333;" x="111.199437" xlink:href="#C0_0_3e75046241" y="233.227022"/>
    </g>
    <g clip-path="url(#p13ec8d8ab0)">
     <use style="fill:#333333;" x="128.411944" xlink:href="#C0_0_3e75046241" y="233.165798"/>
    </g>
    <g clip-path="url(#p13ec8d8ab0)">
     <use style="fill:#333333;" x="117.12" xlink:href="#C0_0_3e75046241" y="232.107488"/>
    </g>
    <g clip-path="url(#p13ec8d8ab0)">
     <use style="fill:#333333;" x="125.660518" xlink:href="#C0_0_3e75046241" y="231.705155"/>
    </g>
    <g clip-path="url(#p13ec8d8ab0)">
     <use style="fill:#333333;" x="108.538125" xlink:href="#C0_0_3e75046241" y="231.622065"/>
    </g>
    <g clip-path="url(#p13ec8d8ab0)">
     <use style="fill:#333333;" x="120.095747" xlink:href="#C0_0_3e75046241" y="231.123522"/>
    </g>
    <g clip-path="url(#p13ec8d8ab0)">
     <use style="fill:#333333;" x="115.635121" xlink:href="#C0_0_3e75046241" y="229.461713"/>
    </g>
    <g clip-path="url(#p13ec8d8ab0)">
     <use style="fill:#333333;" x="112.504004" xlink:href="#C0_0_3e75046241" y="229.133725"/>
    </g>
    <g clip-path="url(#p13ec8d8ab0)">
     <use style="fill:#333333;" x="117.12" xlink:href="#C0_0_3e75046241" y="226.824685"/>
    </g>
    <g clip-path="url(#p13ec8d8ab0)">
     <use style="fill:#333333;" x="120.238351" xlink:href="#C0_0_3e75046241" y="226.400486"/>
    </g>
    <g clip-path="url(#p13ec8d8ab0)">
     <use style="fill:#333333;" x="114.004328" xlink:href="#C0_0_3e75046241" y="226.382994"/>
    </g>
    <g clip-path="url(#p13ec8d8ab0)">
     <use style="fill:#333333;" x="123.30689" xlink:href="#C0_0_3e75046241" y="225.722643"/>
    </g>
    <g clip-path="url(#p13ec8d8ab0)">
     <use style="fill:#333333;" x="111.036652" xlink:href="#C0_0_3e75046241" y="225.377162"/>
    </g>
    <g clip-path="url(#p13ec8d8ab0)">
     <use style="fill:#333333;" x="117.12" xlink:href="#C0_0_3e75046241" y="223.61477"/>
    </g>
    <g clip-path="url(#p13ec8d8ab0)">
     <use style="fill:#333333;" x="113.990957" xlink:href="#C0_0_3e75046241" y="223.269289"/>
    </g>
    <g clip-path="url(#p13ec8d8ab0)">
     <use style="fill:#333333;" x="120.117295" xlink:href="#C0_0_3e75046241" y="222.692029"/>
    </g>
    <g clip-path="url(#p13ec8d8ab0)">
     <use style="fill:#333333;" x="111.255071" xlink:href="#C0_0_3e75046241" y="221.782407"/>
    </g>
    <g clip-path="url(#p13ec8d8ab0)">
     <use style="fill:#333333;" x="115.974114" xlink:href="#C0_0_3e75046241" y="220.820308"/>
    </g>
    <g clip-path="url(#p13ec8d8ab0)">
     <use style="fill:#333333;" x="118.839402" xlink:href="#C0_0_3e75046241" y="219.573951"/>
    </g>
    <g clip-path="url(#p13ec8d8ab0)">
     <use style="fill:#333333;" x="114.804985" xlink:href="#C0_0_3e75046241" y="218.034591"/>
    </g>
    <g clip-path="url(#p13ec8d8ab0)">
     <use style="fill:#333333;" x="120.715854" xlink:href="#C0_0_3e75046241" y="217.164328"/>
    </g>
    <g clip-path="url(#p13ec8d8ab0)">
     <use style="fill:#333333;" x="117.588439" xlink:href="#C0_0_3e75046241" y="216.805727"/>
    </g>
    <g clip-path="url(#p13ec8d8ab0)">
     <use style="fill:#333333;" x="112.152446" xlink:href="#C0_0_3e75046241" y="216.416514"/>
    </g>
    <g clip-path="url(#p13ec8d8ab0)">
     <use style="fill:#333333;" x="115.965945" xlink:href="#C0_0_3e75046241" y="214.234297"/>
    </g>
    <g clip-path="url(#p13ec8d8ab0)">
     <use style="fill:#333333;" x="119.105804" xlink:href="#C0_0_3e75046241" y="213.993772"/>
    </g>
    <g clip-path="url(#p13ec8d8ab0)">
     <use style="fill:#333333;" x="112.980774" xlink:href="#C0_0_3e75046241" y="213.27657"/>
    </g>
    <g clip-path="url(#p13ec8d8ab0)">
     <use style="fill:#333333;" x="121.991622" xlink:href="#C0_0_3e75046241" y="212.791147"/>
    </g>
    <g clip-path="url(#p13ec8d8ab0)">
     <use style="fill:#333333;" x="109.948771" xlink:href="#C0_0_3e75046241" y="212.463159"/>
    </g>
    <g clip-path="url(#p13ec8d8ab0)">
     <use style="fill:#333333;" x="125.091408" xlink:href="#C0_0_3e75046241" y="212.257619"/>
    </g>
    <g clip-path="url(#p13ec8d8ab0)">
     <use style="fill:#333333;" x="106.806817" xlink:href="#C0_0_3e75046241" y="212.248873"/>
    </g>
    <g clip-path="url(#p13ec8d8ab0)">
     <use style="fill:#333333;" x="128.215973" xlink:href="#C0_0_3e75046241" y="211.877152"/>
    </g>
    <g clip-path="url(#p13ec8d8ab0)">
     <use style="fill:#333333;" x="117.12" xlink:href="#C0_0_3e75046241" y="210.792603"/>
    </g>
    <g clip-path="url(#p13ec8d8ab0)">
     <use style="fill:#333333;" x="114.0138" xlink:href="#C0_0_3e75046241" y="210.294061"/>
    </g>
    <g clip-path="url(#p13ec8d8ab0)">
     <use style="fill:#333333;" x="119.55947" xlink:href="#C0_0_3e75046241" y="208.894643"/>
    </g>
    <g clip-path="url(#p13ec8d8ab0)">
     <use style="fill:#333333;" x="116.792867" xlink:href="#C0_0_3e75046241" y="207.46024"/>
    </g>
    <g clip-path="url(#p13ec8d8ab0)">
     <use style="fill:#333333;" x="113.674516" xlink:href="#C0_0_3e75046241" y="207.036041"/>
    </g>
    <g clip-path="url(#p13ec8d8ab0)">
     <use style="fill:#333333;" x="121.777982" xlink:href="#C0_0_3e75046241" y="206.764904"/>
    </g>
    <g clip-path="url(#p13ec8d8ab0)">
     <use style="fill:#333333;" x="110.560926" xlink:href="#C0_0_3e75046241" y="206.58123"/>
    </g>
    <g clip-path="url(#p13ec8d8ab0)">
     <use style="fill:#333333;" x="118.792798" xlink:href="#C0_0_3e75046241" y="205.142454"/>
    </g>
    <g clip-path="url(#p13ec8d8ab0)">
     <use style="fill:#333333;" x="124.224925" xlink:href="#C0_0_3e75046241" y="204.87569"/>
    </g>
    <g clip-path="url(#p13ec8d8ab0)">
     <use style="fill:#333333;" x="115.861225" xlink:href="#C0_0_3e75046241" y="204.044785"/>
    </g>
    <g clip-path="url(#p13ec8d8ab0)">
     <use style="fill:#333333;" x="120.781502" xlink:href="#C0_0_3e75046241" y="202.815921"/>
    </g>
    <g clip-path="url(#p13ec8d8ab0)">
     <use style="fill:#333333;" x="113.471763" xlink:href="#C0_0_3e75046241" y="202.089973"/>
    </g>
    <g clip-path="url(#p13ec8d8ab0)">
     <use style="fill:#333333;" x="117.768245" xlink:href="#C0_0_3e75046241" y="201.657028"/>
    </g>
    <g clip-path="url(#p13ec8d8ab0)">
     <use style="fill:#333333;" x="123.202034" xlink:href="#C0_0_3e75046241" y="200.896095"/>
    </g>
    <g clip-path="url(#p13ec8d8ab0)">
     <use style="fill:#333333;" x="116.249502" xlink:href="#C0_0_3e75046241" y="199.028747"/>
    </g>
    <g clip-path="url(#p13ec8d8ab0)">
     <use style="fill:#333333;" x="118.916608" xlink:href="#C0_0_3e75046241" y="197.432536"/>
    </g>
    <g clip-path="url(#p13ec8d8ab0)">
     <use style="fill:#333333;" x="117.12" xlink:href="#C0_0_3e75046241" y="194.314457"/>
    </g>
    <g clip-path="url(#p13ec8d8ab0)">
     <use style="fill:#333333;" x="114.127193" xlink:href="#C0_0_3e75046241" y="193.378597"/>
    </g>
    <g clip-path="url(#p13ec8d8ab0)">
     <use style="fill:#333333;" x="117.12" xlink:href="#C0_0_3e75046241" y="187.605998"/>
    </g>
    <g clip-path="url(#p13ec8d8ab0)">
     <use style="fill:#333333;" x="115.044309" xlink:href="#C0_0_3e75046241" y="185.349436"/>
    </g>
    <g clip-path="url(#p13ec8d8ab0)">
     <use style="fill:#333333;" x="117.926091" xlink:href="#C0_0_3e75046241" y="184.138065"/>
    </g>
    <g clip-path="url(#p13ec8d8ab0)">
     <use style="fill:#333333;" x="115.666685" xlink:href="#C0_0_3e75046241" y="182.047685"/>
    </g>
    <g clip-path="url(#p13ec8d8ab0)">
     <use style="fill:#333333;" x="117.847545" xlink:href="#C0_0_3e75046241" y="179.88296"/>
    </g>
    <g clip-path="url(#p13ec8d8ab0)">
     <use style="fill:#333333;" x="117.12" xlink:href="#C0_0_3e75046241" y="175.216776"/>
    </g>
    <g clip-path="url(#p13ec8d8ab0)">
     <use style="fill:#333333;" x="117.12" xlink:href="#C0_0_3e75046241" y="171.014149"/>
    </g>
    <g clip-path="url(#p13ec8d8ab0)">
     <use style="fill:#333333;" x="117.12" xlink:href="#C0_0_3e75046241" y="167.187616"/>
    </g>
    <g clip-path="url(#p13ec8d8ab0)">
     <use style="fill:#333333;" x="114.007117" xlink:href="#C0_0_3e75046241" y="166.728432"/>
    </g>
    <g clip-path="url(#p13ec8d8ab0)">
     <use style="fill:#333333;" x="120.064008" xlink:href="#C0_0_3e75046241" y="166.12056"/>
    </g>
    <g clip-path="url(#p13ec8d8ab0)">
     <use style="fill:#333333;" x="117.12" xlink:href="#C0_0_3e75046241" y="161.305687"/>
    </g>
    <g clip-path="url(#p13ec8d8ab0)">
     <use style="fill:#333333;" x="113.971928" xlink:href="#C0_0_3e75046241" y="161.200731"/>
    </g>
    <g clip-path="url(#p13ec8d8ab0)">
     <use style="fill:#333333;" x="117.12" xlink:href="#C0_0_3e75046241" y="152.996643"/>
    </g>
    <g clip-path="url(#p13ec8d8ab0)">
     <use style="fill:#333333;" x="117.12" xlink:href="#C0_0_3e75046241" y="149.139498"/>
    </g>
    <g clip-path="url(#p13ec8d8ab0)">
     <use style="fill:#333333;" x="114.150693" xlink:href="#C0_0_3e75046241" y="148.138039"/>
    </g>
    <g clip-path="url(#p13ec8d8ab0)">
     <use style="fill:#333333;" x="118.113307" xlink:href="#C0_0_3e75046241" y="146.292557"/>
    </g>
    <g clip-path="url(#p13ec8d8ab0)">
     <use style="fill:#333333;" x="117.12" xlink:href="#C0_0_3e75046241" y="141.70509"/>
    </g>
    <g clip-path="url(#p13ec8d8ab0)">
     <use style="fill:#333333;" x="114.014577" xlink:href="#C0_0_3e75046241" y="141.202174"/>
    </g>
    <g clip-path="url(#p13ec8d8ab0)">
     <use style="fill:#333333;" x="120.027397" xlink:href="#C0_0_3e75046241" y="140.55057"/>
    </g>
    <g clip-path="url(#p13ec8d8ab0)">
     <use style="fill:#333333;" x="117.12" xlink:href="#C0_0_3e75046241" y="126.69196"/>
    </g>
    <g clip-path="url(#p13ec8d8ab0)">
     <use style="fill:#333333;" x="114.350902" xlink:href="#C0_0_3e75046241" y="125.261929"/>
    </g>
    <g clip-path="url(#p13ec8d8ab0)">
     <use style="fill:#333333;" x="117.12" xlink:href="#C0_0_3e75046241" y="119.401867"/>
    </g>
    <g clip-path="url(#p13ec8d8ab0)">
     <use style="fill:#333333;" x="117.12" xlink:href="#C0_0_3e75046241" y="111.831891"/>
    </g>
    <g clip-path="url(#p13ec8d8ab0)">
     <use style="fill:#333333;" x="117.12" xlink:href="#C0_0_3e75046241" y="107.874162"/>
    </g>
    <g clip-path="url(#p13ec8d8ab0)">
     <use style="fill:#333333;" x="117.12" xlink:href="#C0_0_3e75046241" y="53.568"/>
    </g>
   </g>
   <g id="PathCollection_2">
    <defs>
     <path d="M 0 1.5 
C 0.397805 1.5 0.77937 1.341951 1.06066 1.06066 
C 1.341951 0.77937 1.5 0.397805 1.5 -0 
C 1.5 -0.397805 1.341951 -0.77937 1.06066 -1.06066 
C 0.77937 -1.341951 0.397805 -1.5 0 -1.5 
C -0.397805 -1.5 -0.77937 -1.341951 -1.06066 -1.06066 
C -1.341951 -0.77937 -1.5 -0.397805 -1.5 0 
C -1.5 0.397805 -1.341951 0.77937 -1.06066 1.06066 
C -0.77937 1.341951 -0.397805 1.5 0 1.5 
z
" id="C1_0_04a798bf40"/>
    </defs>
    <g clip-path="url(#p13ec8d8ab0)">
     <use style="fill:#333333;" x="236.16" xlink:href="#C1_0_04a798bf40" y="295.160011"/>
    </g>
    <g clip-path="url(#p13ec8d8ab0)">
     <use style="fill:#333333;" x="233.584594" xlink:href="#C1_0_04a798bf40" y="293.432605"/>
    </g>
    <g clip-path="url(#p13ec8d8ab0)">
     <use style="fill:#333333;" x="236.16" xlink:href="#C1_0_04a798bf40" y="290.734352"/>
    </g>
    <g clip-path="url(#p13ec8d8ab0)">
     <use style="fill:#333333;" x="239.29494" xlink:href="#C1_0_04a798bf40" y="290.441349"/>
    </g>
    <g clip-path="url(#p13ec8d8ab0)">
     <use style="fill:#333333;" x="233.034274" xlink:href="#C1_0_04a798bf40" y="290.362632"/>
    </g>
    <g clip-path="url(#p13ec8d8ab0)">
     <use style="fill:#333333;" x="242.338282" xlink:href="#C1_0_04a798bf40" y="289.667296"/>
    </g>
    <g clip-path="url(#p13ec8d8ab0)">
     <use style="fill:#333333;" x="230.03698" xlink:href="#C1_0_04a798bf40" y="289.439891"/>
    </g>
    <g clip-path="url(#p13ec8d8ab0)">
     <use style="fill:#333333;" x="226.887251" xlink:href="#C1_0_04a798bf40" y="289.400532"/>
    </g>
    <g clip-path="url(#p13ec8d8ab0)">
     <use style="fill:#333333;" x="245.290925" xlink:href="#C1_0_04a798bf40" y="288.622106"/>
    </g>
    <g clip-path="url(#p13ec8d8ab0)">
     <use style="fill:#333333;" x="224.032561" xlink:href="#C1_0_04a798bf40" y="288.13231"/>
    </g>
    <g clip-path="url(#p13ec8d8ab0)">
     <use style="fill:#333333;" x="236.16" xlink:href="#C1_0_04a798bf40" y="287.165837"/>
    </g>
    <g clip-path="url(#p13ec8d8ab0)">
     <use style="fill:#333333;" x="238.650604" xlink:href="#C1_0_04a798bf40" y="285.329101"/>
    </g>
    <g clip-path="url(#p13ec8d8ab0)">
     <use style="fill:#333333;" x="233.754882" xlink:href="#C1_0_04a798bf40" y="285.228517"/>
    </g>
    <g clip-path="url(#p13ec8d8ab0)">
     <use style="fill:#333333;" x="230.643436" xlink:href="#C1_0_04a798bf40" y="284.760587"/>
    </g>
    <g clip-path="url(#p13ec8d8ab0)">
     <use style="fill:#333333;" x="241.727432" xlink:href="#C1_0_04a798bf40" y="284.686243"/>
    </g>
    <g clip-path="url(#p13ec8d8ab0)">
     <use style="fill:#333333;" x="227.529846" xlink:href="#C1_0_04a798bf40" y="284.305776"/>
    </g>
    <g clip-path="url(#p13ec8d8ab0)">
     <use style="fill:#333333;" x="244.841723" xlink:href="#C1_0_04a798bf40" y="284.235805"/>
    </g>
    <g clip-path="url(#p13ec8d8ab0)">
     <use style="fill:#333333;" x="224.443301" xlink:href="#C1_0_04a798bf40" y="283.70665"/>
    </g>
    <g clip-path="url(#p13ec8d8ab0)">
     <use style="fill:#333333;" x="247.895802" xlink:href="#C1_0_04a798bf40" y="283.501111"/>
    </g>
    <g clip-path="url(#p13ec8d8ab0)">
     <use style="fill:#333333;" x="236.16" xlink:href="#C1_0_04a798bf40" y="283.199361"/>
    </g>
    <g clip-path="url(#p13ec8d8ab0)">
     <use style="fill:#333333;" x="239.066294" xlink:href="#C1_0_04a798bf40" y="282.355337"/>
    </g>
    <g clip-path="url(#p13ec8d8ab0)">
     <use style="fill:#333333;" x="233.230236" xlink:href="#C1_0_04a798bf40" y="282.09732"/>
    </g>
    <g clip-path="url(#p13ec8d8ab0)">
     <use style="fill:#333333;" x="242.11686" xlink:href="#C1_0_04a798bf40" y="281.607523"/>
    </g>
    <g clip-path="url(#p13ec8d8ab0)">
     <use style="fill:#333333;" x="230.195661" xlink:href="#C1_0_04a798bf40" y="281.292654"/>
    </g>
    <g clip-path="url(#p13ec8d8ab0)">
     <use style="fill:#333333;" x="245.240835" xlink:href="#C1_0_04a798bf40" y="281.222684"/>
    </g>
    <g clip-path="url(#p13ec8d8ab0)">
     <use style="fill:#333333;" x="236.16" xlink:href="#C1_0_04a798bf40" y="280.068164"/>
    </g>
    <g clip-path="url(#p13ec8d8ab0)">
     <use style="fill:#333333;" x="227.528555" xlink:href="#C1_0_04a798bf40" y="279.696443"/>
    </g>
    <g clip-path="url(#p13ec8d8ab0)">
     <use style="fill:#333333;" x="239.178692" xlink:href="#C1_0_04a798bf40" y="279.21102"/>
    </g>
    <g clip-path="url(#p13ec8d8ab0)">
     <use style="fill:#333333;" x="233.388417" xlink:href="#C1_0_04a798bf40" y="278.642507"/>
    </g>
    <g clip-path="url(#p13ec8d8ab0)">
     <use style="fill:#333333;" x="242.186187" xlink:href="#C1_0_04a798bf40" y="278.318891"/>
    </g>
    <g clip-path="url(#p13ec8d8ab0)">
     <use style="fill:#333333;" x="236.16" xlink:href="#C1_0_04a798bf40" y="276.92822"/>
    </g>
    <g clip-path="url(#p13ec8d8ab0)">
     <use style="fill:#333333;" x="230.839279" xlink:href="#C1_0_04a798bf40" y="276.880115"/>
    </g>
    <g clip-path="url(#p13ec8d8ab0)">
     <use style="fill:#333333;" x="236.16" xlink:href="#C1_0_04a798bf40" y="273.823261"/>
    </g>
    <g clip-path="url(#p13ec8d8ab0)">
     <use style="fill:#333333;" x="236.16" xlink:href="#C1_0_04a798bf40" y="268.960284"/>
    </g>
    <g clip-path="url(#p13ec8d8ab0)">
     <use style="fill:#333333;" x="236.16" xlink:href="#C1_0_04a798bf40" y="265.811594"/>
    </g>
    <g clip-path="url(#p13ec8d8ab0)">
     <use style="fill:#333333;" x="236.16" xlink:href="#C1_0_04a798bf40" y="260.673106"/>
    </g>
   </g>
   <g id="PathCollection_3">
    <defs>
     <path d="M 0 1.5 
C 0.397805 1.5 0.77937 1.341951 1.06066 1.06066 
C 1.341951 0.77937 1.5 0.397805 1.5 -0 
C 1.5 -0.397805 1.341951 -0.77937 1.06066 -1.06066 
C 0.77937 -1.341951 0.397805 -1.5 0 -1.5 
C -0.397805 -1.5 -0.77937 -1.341951 -1.06066 -1.06066 
C -1.341951 -0.77937 -1.5 -0.397805 -1.5 0 
C -1.5 0.397805 -1.341951 0.77937 -1.06066 1.06066 
C -0.77937 1.341951 -0.397805 1.5 0 1.5 
z
" id="C2_0_5d4f8fd2a4"/>
    </defs>
    <g clip-path="url(#p13ec8d8ab0)">
     <use style="fill:#333333;" x="355.2" xlink:href="#C2_0_5d4f8fd2a4" y="295.488"/>
    </g>
    <g clip-path="url(#p13ec8d8ab0)">
     <use style="fill:#333333;" x="355.2" xlink:href="#C2_0_5d4f8fd2a4" y="291.648347"/>
    </g>
    <g clip-path="url(#p13ec8d8ab0)">
     <use style="fill:#333333;" x="352.170599" xlink:href="#C2_0_5d4f8fd2a4" y="290.826189"/>
    </g>
    <g clip-path="url(#p13ec8d8ab0)">
     <use style="fill:#333333;" x="358.135168" xlink:href="#C2_0_5d4f8fd2a4" y="290.559425"/>
    </g>
    <g clip-path="url(#p13ec8d8ab0)">
     <use style="fill:#333333;" x="361.273496" xlink:href="#C2_0_5d4f8fd2a4" y="290.301407"/>
    </g>
    <g clip-path="url(#p13ec8d8ab0)">
     <use style="fill:#333333;" x="349.679995" xlink:href="#C2_0_5d4f8fd2a4" y="288.989453"/>
    </g>
    <g clip-path="url(#p13ec8d8ab0)">
     <use style="fill:#333333;" x="346.530561" xlink:href="#C2_0_5d4f8fd2a4" y="288.932602"/>
    </g>
    <g clip-path="url(#p13ec8d8ab0)">
     <use style="fill:#333333;" x="364.001475" xlink:href="#C2_0_5d4f8fd2a4" y="288.801406"/>
    </g>
    <g clip-path="url(#p13ec8d8ab0)">
     <use style="fill:#333333;" x="355.2" xlink:href="#C2_0_5d4f8fd2a4" y="287.36263"/>
    </g>
    <g clip-path="url(#p13ec8d8ab0)">
     <use style="fill:#333333;" x="352.202058" xlink:href="#C2_0_5d4f8fd2a4" y="287.192076"/>
    </g>
    <g clip-path="url(#p13ec8d8ab0)">
     <use style="fill:#333333;" x="355.2" xlink:href="#C2_0_5d4f8fd2a4" y="281.974871"/>
    </g>
    <g clip-path="url(#p13ec8d8ab0)">
     <use style="fill:#333333;" x="352.089282" xlink:href="#C2_0_5d4f8fd2a4" y="281.502567"/>
    </g>
    <g clip-path="url(#p13ec8d8ab0)">
     <use style="fill:#333333;" x="358.099671" xlink:href="#C2_0_5d4f8fd2a4" y="280.802858"/>
    </g>
    <g clip-path="url(#p13ec8d8ab0)">
     <use style="fill:#333333;" x="355.2" xlink:href="#C2_0_5d4f8fd2a4" y="275.471951"/>
    </g>
   </g>
  </g>
 </g>
 <defs>
  <clipPath id="p13ec8d8ab0">
   <rect height="266.112" width="357.12" x="57.6" y="41.472"/>
  </clipPath>
 </defs>
</svg>
