<?xml version="1.0" encoding="utf-8" standalone="no"?>
<!DOCTYPE svg PUBLIC "-//W3C//DTD SVG 1.1//EN"
  "http://www.w3.org/Graphics/SVG/1.1/DTD/svg11.dtd">
<svg height="345.6pt" version="1.1" viewBox="0 0 460.8 345.6" width="460.8pt" xmlns="http://www.w3.org/2000/svg" xmlns:xlink="http://www.w3.org/1999/xlink">
 <metadata>
  <rdf:RDF xmlns:cc="http://creativecommons.org/ns#" xmlns:dc="http://purl.org/dc/elements/1.1/" xmlns:rdf="http://www.w3.org/1999/02/22-rdf-syntax-ns#">
   <cc:Work>
    <dc:type rdf:resource="http://purl.org/dc/dcmitype/StillImage"/>
    <dc:date>2021-09-11T09:15:53.179607</dc:date>
    <dc:format>image/svg+xml</dc:format>
    <dc:creator>
     <cc:Agent>
      <dc:title>Matplotlib v3.4.3, https://matplotlib.org/</dc:title>
     </cc:Agent>
    </dc:creator>
   </cc:Work>
  </rdf:RDF>
 </metadata>
 <defs>
  <style type="text/css">*{stroke-linecap:butt;stroke-linejoin:round;}</style>
 </defs>
 <g id="figure_1">
  <g id="patch_1">
   <path d="M 0 345.6 
L 460.8 345.6 
L 460.8 0 
L 0 0 
z
" style="fill:#ffffff;"/>
  </g>
  <g id="axes_1">
   <g id="patch_2">
    <path d="M 57.6 307.584 
L 414.72 307.584 
L 414.72 41.472 
L 57.6 41.472 
z
" style="fill:#ffffff;"/>
   </g>
   <g id="matplotlib.axis_1">
    <g id="xtick_1">
     <g id="text_1">
      <!-- eukaryota -->
      <g style="fill:#262626;" transform="translate(89.382812 325.442281)scale(0.11 -0.11)">
       <defs>
        <path d="M 3597 1894 
L 3597 1613 
L 953 1613 
Q 991 1019 1311 708 
Q 1631 397 2203 397 
Q 2534 397 2845 478 
Q 3156 559 3463 722 
L 3463 178 
Q 3153 47 2828 -22 
Q 2503 -91 2169 -91 
Q 1331 -91 842 396 
Q 353 884 353 1716 
Q 353 2575 817 3079 
Q 1281 3584 2069 3584 
Q 2775 3584 3186 3129 
Q 3597 2675 3597 1894 
z
M 3022 2063 
Q 3016 2534 2758 2815 
Q 2500 3097 2075 3097 
Q 1594 3097 1305 2825 
Q 1016 2553 972 2059 
L 3022 2063 
z
" id="DejaVuSans-65" transform="scale(0.015625)"/>
        <path d="M 544 1381 
L 544 3500 
L 1119 3500 
L 1119 1403 
Q 1119 906 1312 657 
Q 1506 409 1894 409 
Q 2359 409 2629 706 
Q 2900 1003 2900 1516 
L 2900 3500 
L 3475 3500 
L 3475 0 
L 2900 0 
L 2900 538 
Q 2691 219 2414 64 
Q 2138 -91 1772 -91 
Q 1169 -91 856 284 
Q 544 659 544 1381 
z
M 1991 3584 
L 1991 3584 
z
" id="DejaVuSans-75" transform="scale(0.015625)"/>
        <path d="M 581 4863 
L 1159 4863 
L 1159 1991 
L 2875 3500 
L 3609 3500 
L 1753 1863 
L 3688 0 
L 2938 0 
L 1159 1709 
L 1159 0 
L 581 0 
L 581 4863 
z
" id="DejaVuSans-6b" transform="scale(0.015625)"/>
        <path d="M 2194 1759 
Q 1497 1759 1228 1600 
Q 959 1441 959 1056 
Q 959 750 1161 570 
Q 1363 391 1709 391 
Q 2188 391 2477 730 
Q 2766 1069 2766 1631 
L 2766 1759 
L 2194 1759 
z
M 3341 1997 
L 3341 0 
L 2766 0 
L 2766 531 
Q 2569 213 2275 61 
Q 1981 -91 1556 -91 
Q 1019 -91 701 211 
Q 384 513 384 1019 
Q 384 1609 779 1909 
Q 1175 2209 1959 2209 
L 2766 2209 
L 2766 2266 
Q 2766 2663 2505 2880 
Q 2244 3097 1772 3097 
Q 1472 3097 1187 3025 
Q 903 2953 641 2809 
L 641 3341 
Q 956 3463 1253 3523 
Q 1550 3584 1831 3584 
Q 2591 3584 2966 3190 
Q 3341 2797 3341 1997 
z
" id="DejaVuSans-61" transform="scale(0.015625)"/>
        <path d="M 2631 2963 
Q 2534 3019 2420 3045 
Q 2306 3072 2169 3072 
Q 1681 3072 1420 2755 
Q 1159 2438 1159 1844 
L 1159 0 
L 581 0 
L 581 3500 
L 1159 3500 
L 1159 2956 
Q 1341 3275 1631 3429 
Q 1922 3584 2338 3584 
Q 2397 3584 2469 3576 
Q 2541 3569 2628 3553 
L 2631 2963 
z
" id="DejaVuSans-72" transform="scale(0.015625)"/>
        <path d="M 2059 -325 
Q 1816 -950 1584 -1140 
Q 1353 -1331 966 -1331 
L 506 -1331 
L 506 -850 
L 844 -850 
Q 1081 -850 1212 -737 
Q 1344 -625 1503 -206 
L 1606 56 
L 191 3500 
L 800 3500 
L 1894 763 
L 2988 3500 
L 3597 3500 
L 2059 -325 
z
" id="DejaVuSans-79" transform="scale(0.015625)"/>
        <path d="M 1959 3097 
Q 1497 3097 1228 2736 
Q 959 2375 959 1747 
Q 959 1119 1226 758 
Q 1494 397 1959 397 
Q 2419 397 2687 759 
Q 2956 1122 2956 1747 
Q 2956 2369 2687 2733 
Q 2419 3097 1959 3097 
z
M 1959 3584 
Q 2709 3584 3137 3096 
Q 3566 2609 3566 1747 
Q 3566 888 3137 398 
Q 2709 -91 1959 -91 
Q 1206 -91 779 398 
Q 353 888 353 1747 
Q 353 2609 779 3096 
Q 1206 3584 1959 3584 
z
" id="DejaVuSans-6f" transform="scale(0.015625)"/>
        <path d="M 1172 4494 
L 1172 3500 
L 2356 3500 
L 2356 3053 
L 1172 3053 
L 1172 1153 
Q 1172 725 1289 603 
Q 1406 481 1766 481 
L 2356 481 
L 2356 0 
L 1766 0 
Q 1100 0 847 248 
Q 594 497 594 1153 
L 594 3053 
L 172 3053 
L 172 3500 
L 594 3500 
L 594 4494 
L 1172 4494 
z
" id="DejaVuSans-74" transform="scale(0.015625)"/>
       </defs>
       <use xlink:href="#DejaVuSans-65"/>
       <use x="61.523438" xlink:href="#DejaVuSans-75"/>
       <use x="124.902344" xlink:href="#DejaVuSans-6b"/>
       <use x="181.0625" xlink:href="#DejaVuSans-61"/>
       <use x="242.341797" xlink:href="#DejaVuSans-72"/>
       <use x="283.455078" xlink:href="#DejaVuSans-79"/>
       <use x="342.634766" xlink:href="#DejaVuSans-6f"/>
       <use x="403.816406" xlink:href="#DejaVuSans-74"/>
       <use x="443.025391" xlink:href="#DejaVuSans-61"/>
      </g>
     </g>
    </g>
    <g id="xtick_2">
     <g id="text_2">
      <!-- bacteria -->
      <g style="fill:#262626;" transform="translate(213.573906 325.442281)scale(0.11 -0.11)">
       <defs>
        <path d="M 3116 1747 
Q 3116 2381 2855 2742 
Q 2594 3103 2138 3103 
Q 1681 3103 1420 2742 
Q 1159 2381 1159 1747 
Q 1159 1113 1420 752 
Q 1681 391 2138 391 
Q 2594 391 2855 752 
Q 3116 1113 3116 1747 
z
M 1159 2969 
Q 1341 3281 1617 3432 
Q 1894 3584 2278 3584 
Q 2916 3584 3314 3078 
Q 3713 2572 3713 1747 
Q 3713 922 3314 415 
Q 2916 -91 2278 -91 
Q 1894 -91 1617 61 
Q 1341 213 1159 525 
L 1159 0 
L 581 0 
L 581 4863 
L 1159 4863 
L 1159 2969 
z
" id="DejaVuSans-62" transform="scale(0.015625)"/>
        <path d="M 3122 3366 
L 3122 2828 
Q 2878 2963 2633 3030 
Q 2388 3097 2138 3097 
Q 1578 3097 1268 2742 
Q 959 2388 959 1747 
Q 959 1106 1268 751 
Q 1578 397 2138 397 
Q 2388 397 2633 464 
Q 2878 531 3122 666 
L 3122 134 
Q 2881 22 2623 -34 
Q 2366 -91 2075 -91 
Q 1284 -91 818 406 
Q 353 903 353 1747 
Q 353 2603 823 3093 
Q 1294 3584 2113 3584 
Q 2378 3584 2631 3529 
Q 2884 3475 3122 3366 
z
" id="DejaVuSans-63" transform="scale(0.015625)"/>
        <path d="M 603 3500 
L 1178 3500 
L 1178 0 
L 603 0 
L 603 3500 
z
M 603 4863 
L 1178 4863 
L 1178 4134 
L 603 4134 
L 603 4863 
z
" id="DejaVuSans-69" transform="scale(0.015625)"/>
       </defs>
       <use xlink:href="#DejaVuSans-62"/>
       <use x="63.476562" xlink:href="#DejaVuSans-61"/>
       <use x="124.755859" xlink:href="#DejaVuSans-63"/>
       <use x="179.736328" xlink:href="#DejaVuSans-74"/>
       <use x="218.945312" xlink:href="#DejaVuSans-65"/>
       <use x="280.46875" xlink:href="#DejaVuSans-72"/>
       <use x="321.582031" xlink:href="#DejaVuSans-69"/>
       <use x="349.365234" xlink:href="#DejaVuSans-61"/>
      </g>
     </g>
    </g>
    <g id="xtick_3">
     <g id="text_3">
      <!-- archaea -->
      <g style="fill:#262626;" transform="translate(333.057344 325.442281)scale(0.11 -0.11)">
       <defs>
        <path d="M 3513 2113 
L 3513 0 
L 2938 0 
L 2938 2094 
Q 2938 2591 2744 2837 
Q 2550 3084 2163 3084 
Q 1697 3084 1428 2787 
Q 1159 2491 1159 1978 
L 1159 0 
L 581 0 
L 581 4863 
L 1159 4863 
L 1159 2956 
Q 1366 3272 1645 3428 
Q 1925 3584 2291 3584 
Q 2894 3584 3203 3211 
Q 3513 2838 3513 2113 
z
" id="DejaVuSans-68" transform="scale(0.015625)"/>
       </defs>
       <use xlink:href="#DejaVuSans-61"/>
       <use x="61.279297" xlink:href="#DejaVuSans-72"/>
       <use x="100.142578" xlink:href="#DejaVuSans-63"/>
       <use x="155.123047" xlink:href="#DejaVuSans-68"/>
       <use x="218.501953" xlink:href="#DejaVuSans-61"/>
       <use x="279.78125" xlink:href="#DejaVuSans-65"/>
       <use x="341.304688" xlink:href="#DejaVuSans-61"/>
      </g>
     </g>
    </g>
    <g id="text_4">
     <!-- Domain -->
     <g style="fill:#262626;" transform="translate(212.878125 340.848062)scale(0.12 -0.12)">
      <defs>
       <path d="M 1259 4147 
L 1259 519 
L 2022 519 
Q 2988 519 3436 956 
Q 3884 1394 3884 2338 
Q 3884 3275 3436 3711 
Q 2988 4147 2022 4147 
L 1259 4147 
z
M 628 4666 
L 1925 4666 
Q 3281 4666 3915 4102 
Q 4550 3538 4550 2338 
Q 4550 1131 3912 565 
Q 3275 0 1925 0 
L 628 0 
L 628 4666 
z
" id="DejaVuSans-44" transform="scale(0.015625)"/>
       <path d="M 3328 2828 
Q 3544 3216 3844 3400 
Q 4144 3584 4550 3584 
Q 5097 3584 5394 3201 
Q 5691 2819 5691 2113 
L 5691 0 
L 5113 0 
L 5113 2094 
Q 5113 2597 4934 2840 
Q 4756 3084 4391 3084 
Q 3944 3084 3684 2787 
Q 3425 2491 3425 1978 
L 3425 0 
L 2847 0 
L 2847 2094 
Q 2847 2600 2669 2842 
Q 2491 3084 2119 3084 
Q 1678 3084 1418 2786 
Q 1159 2488 1159 1978 
L 1159 0 
L 581 0 
L 581 3500 
L 1159 3500 
L 1159 2956 
Q 1356 3278 1631 3431 
Q 1906 3584 2284 3584 
Q 2666 3584 2933 3390 
Q 3200 3197 3328 2828 
z
" id="DejaVuSans-6d" transform="scale(0.015625)"/>
       <path d="M 3513 2113 
L 3513 0 
L 2938 0 
L 2938 2094 
Q 2938 2591 2744 2837 
Q 2550 3084 2163 3084 
Q 1697 3084 1428 2787 
Q 1159 2491 1159 1978 
L 1159 0 
L 581 0 
L 581 3500 
L 1159 3500 
L 1159 2956 
Q 1366 3272 1645 3428 
Q 1925 3584 2291 3584 
Q 2894 3584 3203 3211 
Q 3513 2838 3513 2113 
z
" id="DejaVuSans-6e" transform="scale(0.015625)"/>
      </defs>
      <use xlink:href="#DejaVuSans-44"/>
      <use x="77.001953" xlink:href="#DejaVuSans-6f"/>
      <use x="138.183594" xlink:href="#DejaVuSans-6d"/>
      <use x="235.595703" xlink:href="#DejaVuSans-61"/>
      <use x="296.875" xlink:href="#DejaVuSans-69"/>
      <use x="324.658203" xlink:href="#DejaVuSans-6e"/>
     </g>
    </g>
   </g>
   <g id="matplotlib.axis_2">
    <g id="ytick_1">
     <g id="line2d_1">
      <path clip-path="url(#p3578cb9ffc)" d="M 57.6 297.890128 
L 414.72 297.890128 
" style="fill:none;stroke:#cccccc;stroke-linecap:round;"/>
     </g>
     <g id="text_5">
      <!-- 0.0 -->
      <g style="fill:#262626;" transform="translate(30.606563 302.069268)scale(0.11 -0.11)">
       <defs>
        <path d="M 2034 4250 
Q 1547 4250 1301 3770 
Q 1056 3291 1056 2328 
Q 1056 1369 1301 889 
Q 1547 409 2034 409 
Q 2525 409 2770 889 
Q 3016 1369 3016 2328 
Q 3016 3291 2770 3770 
Q 2525 4250 2034 4250 
z
M 2034 4750 
Q 2819 4750 3233 4129 
Q 3647 3509 3647 2328 
Q 3647 1150 3233 529 
Q 2819 -91 2034 -91 
Q 1250 -91 836 529 
Q 422 1150 422 2328 
Q 422 3509 836 4129 
Q 1250 4750 2034 4750 
z
" id="DejaVuSans-30" transform="scale(0.015625)"/>
        <path d="M 684 794 
L 1344 794 
L 1344 0 
L 684 0 
L 684 794 
z
" id="DejaVuSans-2e" transform="scale(0.015625)"/>
       </defs>
       <use xlink:href="#DejaVuSans-30"/>
       <use x="63.623047" xlink:href="#DejaVuSans-2e"/>
       <use x="95.410156" xlink:href="#DejaVuSans-30"/>
      </g>
     </g>
    </g>
    <g id="ytick_2">
     <g id="line2d_2">
      <path clip-path="url(#p3578cb9ffc)" d="M 57.6 263.974227 
L 414.72 263.974227 
" style="fill:none;stroke:#cccccc;stroke-linecap:round;"/>
     </g>
     <g id="text_6">
      <!-- 2.5 -->
      <g style="fill:#262626;" transform="translate(30.606563 268.153368)scale(0.11 -0.11)">
       <defs>
        <path d="M 1228 531 
L 3431 531 
L 3431 0 
L 469 0 
L 469 531 
Q 828 903 1448 1529 
Q 2069 2156 2228 2338 
Q 2531 2678 2651 2914 
Q 2772 3150 2772 3378 
Q 2772 3750 2511 3984 
Q 2250 4219 1831 4219 
Q 1534 4219 1204 4116 
Q 875 4013 500 3803 
L 500 4441 
Q 881 4594 1212 4672 
Q 1544 4750 1819 4750 
Q 2544 4750 2975 4387 
Q 3406 4025 3406 3419 
Q 3406 3131 3298 2873 
Q 3191 2616 2906 2266 
Q 2828 2175 2409 1742 
Q 1991 1309 1228 531 
z
" id="DejaVuSans-32" transform="scale(0.015625)"/>
        <path d="M 691 4666 
L 3169 4666 
L 3169 4134 
L 1269 4134 
L 1269 2991 
Q 1406 3038 1543 3061 
Q 1681 3084 1819 3084 
Q 2600 3084 3056 2656 
Q 3513 2228 3513 1497 
Q 3513 744 3044 326 
Q 2575 -91 1722 -91 
Q 1428 -91 1123 -41 
Q 819 9 494 109 
L 494 744 
Q 775 591 1075 516 
Q 1375 441 1709 441 
Q 2250 441 2565 725 
Q 2881 1009 2881 1497 
Q 2881 1984 2565 2268 
Q 2250 2553 1709 2553 
Q 1456 2553 1204 2497 
Q 953 2441 691 2322 
L 691 4666 
z
" id="DejaVuSans-35" transform="scale(0.015625)"/>
       </defs>
       <use xlink:href="#DejaVuSans-32"/>
       <use x="63.623047" xlink:href="#DejaVuSans-2e"/>
       <use x="95.410156" xlink:href="#DejaVuSans-35"/>
      </g>
     </g>
    </g>
    <g id="ytick_3">
     <g id="line2d_3">
      <path clip-path="url(#p3578cb9ffc)" d="M 57.6 230.058327 
L 414.72 230.058327 
" style="fill:none;stroke:#cccccc;stroke-linecap:round;"/>
     </g>
     <g id="text_7">
      <!-- 5.0 -->
      <g style="fill:#262626;" transform="translate(30.606563 234.237468)scale(0.11 -0.11)">
       <use xlink:href="#DejaVuSans-35"/>
       <use x="63.623047" xlink:href="#DejaVuSans-2e"/>
       <use x="95.410156" xlink:href="#DejaVuSans-30"/>
      </g>
     </g>
    </g>
    <g id="ytick_4">
     <g id="line2d_4">
      <path clip-path="url(#p3578cb9ffc)" d="M 57.6 196.142427 
L 414.72 196.142427 
" style="fill:none;stroke:#cccccc;stroke-linecap:round;"/>
     </g>
     <g id="text_8">
      <!-- 7.5 -->
      <g style="fill:#262626;" transform="translate(30.606563 200.321567)scale(0.11 -0.11)">
       <defs>
        <path d="M 525 4666 
L 3525 4666 
L 3525 4397 
L 1831 0 
L 1172 0 
L 2766 4134 
L 525 4134 
L 525 4666 
z
" id="DejaVuSans-37" transform="scale(0.015625)"/>
       </defs>
       <use xlink:href="#DejaVuSans-37"/>
       <use x="63.623047" xlink:href="#DejaVuSans-2e"/>
       <use x="95.410156" xlink:href="#DejaVuSans-35"/>
      </g>
     </g>
    </g>
    <g id="ytick_5">
     <g id="line2d_5">
      <path clip-path="url(#p3578cb9ffc)" d="M 57.6 162.226527 
L 414.72 162.226527 
" style="fill:none;stroke:#cccccc;stroke-linecap:round;"/>
     </g>
     <g id="text_9">
      <!-- 10.0 -->
      <g style="fill:#262626;" transform="translate(23.607813 166.405667)scale(0.11 -0.11)">
       <defs>
        <path d="M 794 531 
L 1825 531 
L 1825 4091 
L 703 3866 
L 703 4441 
L 1819 4666 
L 2450 4666 
L 2450 531 
L 3481 531 
L 3481 0 
L 794 0 
L 794 531 
z
" id="DejaVuSans-31" transform="scale(0.015625)"/>
       </defs>
       <use xlink:href="#DejaVuSans-31"/>
       <use x="63.623047" xlink:href="#DejaVuSans-30"/>
       <use x="127.246094" xlink:href="#DejaVuSans-2e"/>
       <use x="159.033203" xlink:href="#DejaVuSans-30"/>
      </g>
     </g>
    </g>
    <g id="ytick_6">
     <g id="line2d_6">
      <path clip-path="url(#p3578cb9ffc)" d="M 57.6 128.310626 
L 414.72 128.310626 
" style="fill:none;stroke:#cccccc;stroke-linecap:round;"/>
     </g>
     <g id="text_10">
      <!-- 12.5 -->
      <g style="fill:#262626;" transform="translate(23.607813 132.489767)scale(0.11 -0.11)">
       <use xlink:href="#DejaVuSans-31"/>
       <use x="63.623047" xlink:href="#DejaVuSans-32"/>
       <use x="127.246094" xlink:href="#DejaVuSans-2e"/>
       <use x="159.033203" xlink:href="#DejaVuSans-35"/>
      </g>
     </g>
    </g>
    <g id="ytick_7">
     <g id="line2d_7">
      <path clip-path="url(#p3578cb9ffc)" d="M 57.6 94.394726 
L 414.72 94.394726 
" style="fill:none;stroke:#cccccc;stroke-linecap:round;"/>
     </g>
     <g id="text_11">
      <!-- 15.0 -->
      <g style="fill:#262626;" transform="translate(23.607813 98.573867)scale(0.11 -0.11)">
       <use xlink:href="#DejaVuSans-31"/>
       <use x="63.623047" xlink:href="#DejaVuSans-35"/>
       <use x="127.246094" xlink:href="#DejaVuSans-2e"/>
       <use x="159.033203" xlink:href="#DejaVuSans-30"/>
      </g>
     </g>
    </g>
    <g id="ytick_8">
     <g id="line2d_8">
      <path clip-path="url(#p3578cb9ffc)" d="M 57.6 60.478826 
L 414.72 60.478826 
" style="fill:none;stroke:#cccccc;stroke-linecap:round;"/>
     </g>
     <g id="text_12">
      <!-- 17.5 -->
      <g style="fill:#262626;" transform="translate(23.607813 64.657967)scale(0.11 -0.11)">
       <use xlink:href="#DejaVuSans-31"/>
       <use x="63.623047" xlink:href="#DejaVuSans-37"/>
       <use x="127.246094" xlink:href="#DejaVuSans-2e"/>
       <use x="159.033203" xlink:href="#DejaVuSans-35"/>
      </g>
     </g>
    </g>
    <g id="text_13">
     <!-- Proteome size -->
     <g style="fill:#262626;" transform="translate(17.112187 216.8355)rotate(-90)scale(0.12 -0.12)">
      <defs>
       <path d="M 1259 4147 
L 1259 2394 
L 2053 2394 
Q 2494 2394 2734 2622 
Q 2975 2850 2975 3272 
Q 2975 3691 2734 3919 
Q 2494 4147 2053 4147 
L 1259 4147 
z
M 628 4666 
L 2053 4666 
Q 2838 4666 3239 4311 
Q 3641 3956 3641 3272 
Q 3641 2581 3239 2228 
Q 2838 1875 2053 1875 
L 1259 1875 
L 1259 0 
L 628 0 
L 628 4666 
z
" id="DejaVuSans-50" transform="scale(0.015625)"/>
       <path id="DejaVuSans-20" transform="scale(0.015625)"/>
       <path d="M 2834 3397 
L 2834 2853 
Q 2591 2978 2328 3040 
Q 2066 3103 1784 3103 
Q 1356 3103 1142 2972 
Q 928 2841 928 2578 
Q 928 2378 1081 2264 
Q 1234 2150 1697 2047 
L 1894 2003 
Q 2506 1872 2764 1633 
Q 3022 1394 3022 966 
Q 3022 478 2636 193 
Q 2250 -91 1575 -91 
Q 1294 -91 989 -36 
Q 684 19 347 128 
L 347 722 
Q 666 556 975 473 
Q 1284 391 1588 391 
Q 1994 391 2212 530 
Q 2431 669 2431 922 
Q 2431 1156 2273 1281 
Q 2116 1406 1581 1522 
L 1381 1569 
Q 847 1681 609 1914 
Q 372 2147 372 2553 
Q 372 3047 722 3315 
Q 1072 3584 1716 3584 
Q 2034 3584 2315 3537 
Q 2597 3491 2834 3397 
z
" id="DejaVuSans-73" transform="scale(0.015625)"/>
       <path d="M 353 3500 
L 3084 3500 
L 3084 2975 
L 922 459 
L 3084 459 
L 3084 0 
L 275 0 
L 275 525 
L 2438 3041 
L 353 3041 
L 353 3500 
z
" id="DejaVuSans-7a" transform="scale(0.015625)"/>
      </defs>
      <use xlink:href="#DejaVuSans-50"/>
      <use x="58.552734" xlink:href="#DejaVuSans-72"/>
      <use x="97.416016" xlink:href="#DejaVuSans-6f"/>
      <use x="158.597656" xlink:href="#DejaVuSans-74"/>
      <use x="197.806641" xlink:href="#DejaVuSans-65"/>
      <use x="259.330078" xlink:href="#DejaVuSans-6f"/>
      <use x="320.511719" xlink:href="#DejaVuSans-6d"/>
      <use x="417.923828" xlink:href="#DejaVuSans-65"/>
      <use x="479.447266" xlink:href="#DejaVuSans-20"/>
      <use x="511.234375" xlink:href="#DejaVuSans-73"/>
      <use x="563.333984" xlink:href="#DejaVuSans-69"/>
      <use x="591.117188" xlink:href="#DejaVuSans-7a"/>
      <use x="643.607422" xlink:href="#DejaVuSans-65"/>
     </g>
    </g>
   </g>
   <g id="patch_3">
    <path clip-path="url(#p3578cb9ffc)" d="M 69.504 227.099826 
L 164.736 227.099826 
L 164.736 142.658677 
L 69.504 142.658677 
L 69.504 227.099826 
z
" style="fill:#5875a4;stroke:#4c4c4c;stroke-linejoin:miter;stroke-width:1.5;"/>
   </g>
   <g id="patch_4">
    <path clip-path="url(#p3578cb9ffc)" d="M 188.544 289.980879 
L 283.776 289.980879 
L 283.776 279.009946 
L 188.544 279.009946 
L 188.544 289.980879 
z
" style="fill:#cc8963;stroke:#4c4c4c;stroke-linejoin:miter;stroke-width:1.5;"/>
   </g>
   <g id="patch_5">
    <path clip-path="url(#p3578cb9ffc)" d="M 307.584 291.115182 
L 402.816 291.115182 
L 402.816 287.662862 
L 307.584 287.662862 
L 307.584 291.115182 
z
" style="fill:#5f9e6e;stroke:#4c4c4c;stroke-linejoin:miter;stroke-width:1.5;"/>
   </g>
   <g id="line2d_9">
    <path clip-path="url(#p3578cb9ffc)" d="M 117.12 227.099826 
L 117.12 265.548196 
" style="fill:none;stroke:#4c4c4c;stroke-linecap:round;stroke-width:1.5;"/>
   </g>
   <g id="line2d_10">
    <path clip-path="url(#p3578cb9ffc)" d="M 117.12 142.658677 
L 117.12 53.568 
" style="fill:none;stroke:#4c4c4c;stroke-linecap:round;stroke-width:1.5;"/>
   </g>
   <g id="line2d_11">
    <path clip-path="url(#p3578cb9ffc)" d="M 93.312 265.548196 
L 140.928 265.548196 
" style="fill:none;stroke:#4c4c4c;stroke-linecap:round;stroke-width:1.5;"/>
   </g>
   <g id="line2d_12">
    <path clip-path="url(#p3578cb9ffc)" d="M 93.312 53.568 
L 140.928 53.568 
" style="fill:none;stroke:#4c4c4c;stroke-linecap:round;stroke-width:1.5;"/>
   </g>
   <g id="line2d_13"/>
   <g id="line2d_14">
    <path clip-path="url(#p3578cb9ffc)" d="M 236.16 289.980879 
L 236.16 295.488 
" style="fill:none;stroke:#4c4c4c;stroke-linecap:round;stroke-width:1.5;"/>
   </g>
   <g id="line2d_15">
    <path clip-path="url(#p3578cb9ffc)" d="M 236.16 279.009946 
L 236.16 266.821142 
" style="fill:none;stroke:#4c4c4c;stroke-linecap:round;stroke-width:1.5;"/>
   </g>
   <g id="line2d_16">
    <path clip-path="url(#p3578cb9ffc)" d="M 212.352 295.488 
L 259.968 295.488 
" style="fill:none;stroke:#4c4c4c;stroke-linecap:round;stroke-width:1.5;"/>
   </g>
   <g id="line2d_17">
    <path clip-path="url(#p3578cb9ffc)" d="M 212.352 266.821142 
L 259.968 266.821142 
" style="fill:none;stroke:#4c4c4c;stroke-linecap:round;stroke-width:1.5;"/>
   </g>
   <g id="line2d_18"/>
   <g id="line2d_19">
    <path clip-path="url(#p3578cb9ffc)" d="M 355.2 291.115182 
L 355.2 291.446093 
" style="fill:none;stroke:#4c4c4c;stroke-linecap:round;stroke-width:1.5;"/>
   </g>
   <g id="line2d_20">
    <path clip-path="url(#p3578cb9ffc)" d="M 355.2 287.662862 
L 355.2 286.658769 
" style="fill:none;stroke:#4c4c4c;stroke-linecap:round;stroke-width:1.5;"/>
   </g>
   <g id="line2d_21">
    <path clip-path="url(#p3578cb9ffc)" d="M 331.392 291.446093 
L 379.008 291.446093 
" style="fill:none;stroke:#4c4c4c;stroke-linecap:round;stroke-width:1.5;"/>
   </g>
   <g id="line2d_22">
    <path clip-path="url(#p3578cb9ffc)" d="M 331.392 286.658769 
L 379.008 286.658769 
" style="fill:none;stroke:#4c4c4c;stroke-linecap:round;stroke-width:1.5;"/>
   </g>
   <g id="line2d_23"/>
   <g id="line2d_24">
    <path clip-path="url(#p3578cb9ffc)" d="M 69.504 191.880107 
L 164.736 191.880107 
" style="fill:none;stroke:#4c4c4c;stroke-linecap:round;stroke-width:1.5;"/>
   </g>
   <g id="line2d_25">
    <path clip-path="url(#p3578cb9ffc)" d="M 188.544 282.366739 
L 283.776 282.366739 
" style="fill:none;stroke:#4c4c4c;stroke-linecap:round;stroke-width:1.5;"/>
   </g>
   <g id="line2d_26">
    <path clip-path="url(#p3578cb9ffc)" d="M 307.584 289.239131 
L 402.816 289.239131 
" style="fill:none;stroke:#4c4c4c;stroke-linecap:round;stroke-width:1.5;"/>
   </g>
   <g id="patch_6">
    <path d="M 117.12 307.584 
L 355.2 307.584 
" style="fill:none;stroke:#cccccc;stroke-linecap:square;stroke-linejoin:miter;stroke-width:1.25;"/>
   </g>
   <g id="PathCollection_1">
    <defs>
     <path d="M 0 1.5 
C 0.397805 1.5 0.77937 1.341951 1.06066 1.06066 
C 1.341951 0.77937 1.5 0.397805 1.5 -0 
C 1.5 -0.397805 1.341951 -0.77937 1.06066 -1.06066 
C 0.77937 -1.341951 0.397805 -1.5 0 -1.5 
C -0.397805 -1.5 -0.77937 -1.341951 -1.06066 -1.06066 
C -1.341951 -0.77937 -1.5 -0.397805 -1.5 0 
C -1.5 0.397805 -1.341951 0.77937 -1.06066 1.06066 
C -0.77937 1.341951 -0.397805 1.5 0 1.5 
z
" id="C0_0_f0d5d860c4"/>
    </defs>
    <g clip-path="url(#p3578cb9ffc)">
     <use style="fill:#333333;" x="117.12" xlink:href="#C0_0_f0d5d860c4" y="265.548196"/>
    </g>
    <g clip-path="url(#p3578cb9ffc)">
     <use style="fill:#333333;" x="117.12" xlink:href="#C0_0_f0d5d860c4" y="258.05437"/>
    </g>
    <g clip-path="url(#p3578cb9ffc)">
     <use style="fill:#333333;" x="114.037871" xlink:href="#C0_0_f0d5d860c4" y="257.43497"/>
    </g>
    <g clip-path="url(#p3578cb9ffc)">
     <use style="fill:#333333;" x="118.839918" xlink:href="#C0_0_f0d5d860c4" y="255.541025"/>
    </g>
    <g clip-path="url(#p3578cb9ffc)">
     <use style="fill:#333333;" x="117.12" xlink:href="#C0_0_f0d5d860c4" y="249.550107"/>
    </g>
    <g clip-path="url(#p3578cb9ffc)">
     <use style="fill:#333333;" x="116.580766" xlink:href="#C0_0_f0d5d860c4" y="246.594391"/>
    </g>
    <g clip-path="url(#p3578cb9ffc)">
     <use style="fill:#333333;" x="119.338917" xlink:href="#C0_0_f0d5d860c4" y="245.1453"/>
    </g>
    <g clip-path="url(#p3578cb9ffc)">
     <use style="fill:#333333;" x="115.991164" xlink:href="#C0_0_f0d5d860c4" y="243.647411"/>
    </g>
    <g clip-path="url(#p3578cb9ffc)">
     <use style="fill:#333333;" x="118.590731" xlink:href="#C0_0_f0d5d860c4" y="241.953149"/>
    </g>
    <g clip-path="url(#p3578cb9ffc)">
     <use style="fill:#333333;" x="117.12" xlink:href="#C0_0_f0d5d860c4" y="233.545981"/>
    </g>
    <g clip-path="url(#p3578cb9ffc)">
     <use style="fill:#333333;" x="116.704497" xlink:href="#C0_0_f0d5d860c4" y="230.572194"/>
    </g>
    <g clip-path="url(#p3578cb9ffc)">
     <use style="fill:#333333;" x="118.51515" xlink:href="#C0_0_f0d5d860c4" y="228.117334"/>
    </g>
    <g clip-path="url(#p3578cb9ffc)">
     <use style="fill:#333333;" x="115.705653" xlink:href="#C0_0_f0d5d860c4" y="226.760657"/>
    </g>
    <g clip-path="url(#p3578cb9ffc)">
     <use style="fill:#333333;" x="118.279946" xlink:href="#C0_0_f0d5d860c4" y="225.031746"/>
    </g>
    <g clip-path="url(#p3578cb9ffc)">
     <use style="fill:#333333;" x="115.858598" xlink:href="#C0_0_f0d5d860c4" y="223.112853"/>
    </g>
    <g clip-path="url(#p3578cb9ffc)">
     <use style="fill:#333333;" x="117.12" xlink:href="#C0_0_f0d5d860c4" y="218.996887"/>
    </g>
    <g clip-path="url(#p3578cb9ffc)">
     <use style="fill:#333333;" x="113.972242" xlink:href="#C0_0_f0d5d860c4" y="218.88373"/>
    </g>
    <g clip-path="url(#p3578cb9ffc)">
     <use style="fill:#333333;" x="117.12" xlink:href="#C0_0_f0d5d860c4" y="215.443247"/>
    </g>
    <g clip-path="url(#p3578cb9ffc)">
     <use style="fill:#333333;" x="114.368475" xlink:href="#C0_0_f0d5d860c4" y="213.982774"/>
    </g>
    <g clip-path="url(#p3578cb9ffc)">
     <use style="fill:#333333;" x="117.12" xlink:href="#C0_0_f0d5d860c4" y="209.314182"/>
    </g>
    <g clip-path="url(#p3578cb9ffc)">
     <use style="fill:#333333;" x="117.12" xlink:href="#C0_0_f0d5d860c4" y="204.866329"/>
    </g>
    <g clip-path="url(#p3578cb9ffc)">
     <use style="fill:#333333;" x="117.12" xlink:href="#C0_0_f0d5d860c4" y="197.746988"/>
    </g>
    <g clip-path="url(#p3578cb9ffc)">
     <use style="fill:#333333;" x="113.983811" xlink:href="#C0_0_f0d5d860c4" y="197.466368"/>
    </g>
    <g clip-path="url(#p3578cb9ffc)">
     <use style="fill:#333333;" x="119.788702" xlink:href="#C0_0_f0d5d860c4" y="196.153199"/>
    </g>
    <g clip-path="url(#p3578cb9ffc)">
     <use style="fill:#333333;" x="117.12" xlink:href="#C0_0_f0d5d860c4" y="187.607016"/>
    </g>
    <g clip-path="url(#p3578cb9ffc)">
     <use style="fill:#333333;" x="114.564453" xlink:href="#C0_0_f0d5d860c4" y="185.853062"/>
    </g>
    <g clip-path="url(#p3578cb9ffc)">
     <use style="fill:#333333;" x="117.12" xlink:href="#C0_0_f0d5d860c4" y="178.932156"/>
    </g>
    <g clip-path="url(#p3578cb9ffc)">
     <use style="fill:#333333;" x="117.12" xlink:href="#C0_0_f0d5d860c4" y="170.350456"/>
    </g>
    <g clip-path="url(#p3578cb9ffc)">
     <use style="fill:#333333;" x="117.12" xlink:href="#C0_0_f0d5d860c4" y="160.65462"/>
    </g>
    <g clip-path="url(#p3578cb9ffc)">
     <use style="fill:#333333;" x="116.691848" xlink:href="#C0_0_f0d5d860c4" y="157.682461"/>
    </g>
    <g clip-path="url(#p3578cb9ffc)">
     <use style="fill:#333333;" x="117.12" xlink:href="#C0_0_f0d5d860c4" y="147.572104"/>
    </g>
    <g clip-path="url(#p3578cb9ffc)">
     <use style="fill:#333333;" x="114.12492" xlink:href="#C0_0_f0d5d860c4" y="146.642862"/>
    </g>
    <g clip-path="url(#p3578cb9ffc)">
     <use style="fill:#333333;" x="119.860695" xlink:href="#C0_0_f0d5d860c4" y="146.093276"/>
    </g>
    <g clip-path="url(#p3578cb9ffc)">
     <use style="fill:#333333;" x="111.637908" xlink:href="#C0_0_f0d5d860c4" y="144.801717"/>
    </g>
    <g clip-path="url(#p3578cb9ffc)">
     <use style="fill:#333333;" x="117.12" xlink:href="#C0_0_f0d5d860c4" y="143.95633"/>
    </g>
    <g clip-path="url(#p3578cb9ffc)">
     <use style="fill:#333333;" x="121.002988" xlink:href="#C0_0_f0d5d860c4" y="143.297479"/>
    </g>
    <g clip-path="url(#p3578cb9ffc)">
     <use style="fill:#333333;" x="117.12" xlink:href="#C0_0_f0d5d860c4" y="140.742269"/>
    </g>
    <g clip-path="url(#p3578cb9ffc)">
     <use style="fill:#333333;" x="114.635161" xlink:href="#C0_0_f0d5d860c4" y="138.898465"/>
    </g>
    <g clip-path="url(#p3578cb9ffc)">
     <use style="fill:#333333;" x="117.12" xlink:href="#C0_0_f0d5d860c4" y="135.722526"/>
    </g>
    <g clip-path="url(#p3578cb9ffc)">
     <use style="fill:#333333;" x="117.12" xlink:href="#C0_0_f0d5d860c4" y="131.179111"/>
    </g>
    <g clip-path="url(#p3578cb9ffc)">
     <use style="fill:#333333;" x="117.12" xlink:href="#C0_0_f0d5d860c4" y="121.312365"/>
    </g>
    <g clip-path="url(#p3578cb9ffc)">
     <use style="fill:#333333;" x="114.391801" xlink:href="#C0_0_f0d5d860c4" y="119.812726"/>
    </g>
    <g clip-path="url(#p3578cb9ffc)">
     <use style="fill:#333333;" x="117.12" xlink:href="#C0_0_f0d5d860c4" y="118.161809"/>
    </g>
    <g clip-path="url(#p3578cb9ffc)">
     <use style="fill:#333333;" x="114.786723" xlink:href="#C0_0_f0d5d860c4" y="116.146377"/>
    </g>
    <g clip-path="url(#p3578cb9ffc)">
     <use style="fill:#333333;" x="117.12" xlink:href="#C0_0_f0d5d860c4" y="110.267476"/>
    </g>
    <g clip-path="url(#p3578cb9ffc)">
     <use style="fill:#333333;" x="117.12" xlink:href="#C0_0_f0d5d860c4" y="88.446189"/>
    </g>
    <g clip-path="url(#p3578cb9ffc)">
     <use style="fill:#333333;" x="117.12" xlink:href="#C0_0_f0d5d860c4" y="66.513143"/>
    </g>
    <g clip-path="url(#p3578cb9ffc)">
     <use style="fill:#333333;" x="117.12" xlink:href="#C0_0_f0d5d860c4" y="53.568"/>
    </g>
   </g>
   <g id="PathCollection_2">
    <defs>
     <path d="M 0 1.5 
C 0.397805 1.5 0.77937 1.341951 1.06066 1.06066 
C 1.341951 0.77937 1.5 0.397805 1.5 -0 
C 1.5 -0.397805 1.341951 -0.77937 1.06066 -1.06066 
C 0.77937 -1.341951 0.397805 -1.5 0 -1.5 
C -0.397805 -1.5 -0.77937 -1.341951 -1.06066 -1.06066 
C -1.341951 -0.77937 -1.5 -0.397805 -1.5 0 
C -1.5 0.397805 -1.341951 0.77937 -1.06066 1.06066 
C -0.77937 1.341951 -0.397805 1.5 0 1.5 
z
" id="C1_0_2faf5f965b"/>
    </defs>
    <g clip-path="url(#p3578cb9ffc)">
     <use style="fill:#333333;" x="236.16" xlink:href="#C1_0_2faf5f965b" y="295.488"/>
    </g>
    <g clip-path="url(#p3578cb9ffc)">
     <use style="fill:#333333;" x="233.666247" xlink:href="#C1_0_2faf5f965b" y="293.655144"/>
    </g>
    <g clip-path="url(#p3578cb9ffc)">
     <use style="fill:#333333;" x="236.16" xlink:href="#C1_0_2faf5f965b" y="291.256354"/>
    </g>
    <g clip-path="url(#p3578cb9ffc)">
     <use style="fill:#333333;" x="239.30974" xlink:href="#C1_0_2faf5f965b" y="291.217839"/>
    </g>
    <g clip-path="url(#p3578cb9ffc)">
     <use style="fill:#333333;" x="233.238573" xlink:href="#C1_0_2faf5f965b" y="290.134416"/>
    </g>
    <g clip-path="url(#p3578cb9ffc)">
     <use style="fill:#333333;" x="242.180824" xlink:href="#C1_0_2faf5f965b" y="289.983639"/>
    </g>
    <g clip-path="url(#p3578cb9ffc)">
     <use style="fill:#333333;" x="230.092851" xlink:href="#C1_0_2faf5f965b" y="289.978118"/>
    </g>
    <g clip-path="url(#p3578cb9ffc)">
     <use style="fill:#333333;" x="245.30885" xlink:href="#C1_0_2faf5f965b" y="289.62991"/>
    </g>
    <g clip-path="url(#p3578cb9ffc)">
     <use style="fill:#333333;" x="227.052662" xlink:href="#C1_0_2faf5f965b" y="289.19291"/>
    </g>
    <g clip-path="url(#p3578cb9ffc)">
     <use style="fill:#333333;" x="236.16" xlink:href="#C1_0_2faf5f965b" y="285.011473"/>
    </g>
    <g clip-path="url(#p3578cb9ffc)">
     <use style="fill:#333333;" x="234.205611" xlink:href="#C1_0_2faf5f965b" y="282.658714"/>
    </g>
    <g clip-path="url(#p3578cb9ffc)">
     <use style="fill:#333333;" x="237.646919" xlink:href="#C1_0_2faf5f965b" y="282.366739"/>
    </g>
    <g clip-path="url(#p3578cb9ffc)">
     <use style="fill:#333333;" x="240.789181" xlink:href="#C1_0_2faf5f965b" y="282.156582"/>
    </g>
    <g clip-path="url(#p3578cb9ffc)">
     <use style="fill:#333333;" x="231.486533" xlink:href="#C1_0_2faf5f965b" y="281.144125"/>
    </g>
    <g clip-path="url(#p3578cb9ffc)">
     <use style="fill:#333333;" x="235.974525" xlink:href="#C1_0_2faf5f965b" y="279.824471"/>
    </g>
    <g clip-path="url(#p3578cb9ffc)">
     <use style="fill:#333333;" x="239.108137" xlink:href="#C1_0_2faf5f965b" y="279.518848"/>
    </g>
    <g clip-path="url(#p3578cb9ffc)">
     <use style="fill:#333333;" x="242.240302" xlink:href="#C1_0_2faf5f965b" y="279.200065"/>
    </g>
    <g clip-path="url(#p3578cb9ffc)">
     <use style="fill:#333333;" x="229.49495" xlink:href="#C1_0_2faf5f965b" y="278.819827"/>
    </g>
    <g clip-path="url(#p3578cb9ffc)">
     <use style="fill:#333333;" x="236.16" xlink:href="#C1_0_2faf5f965b" y="272.692391"/>
    </g>
    <g clip-path="url(#p3578cb9ffc)">
     <use style="fill:#333333;" x="233.011605" xlink:href="#C1_0_2faf5f965b" y="272.59664"/>
    </g>
    <g clip-path="url(#p3578cb9ffc)">
     <use style="fill:#333333;" x="236.16" xlink:href="#C1_0_2faf5f965b" y="266.821142"/>
    </g>
    <g clip-path="url(#p3578cb9ffc)">
     <use style="fill:#333333;" x="236.16" xlink:href="#C1_0_2faf5f965b" y="262.394045"/>
    </g>
    <g clip-path="url(#p3578cb9ffc)">
     <use style="fill:#333333;" x="233.015308" xlink:href="#C1_0_2faf5f965b" y="262.219961"/>
    </g>
   </g>
   <g id="PathCollection_3">
    <defs>
     <path d="M 0 1.5 
C 0.397805 1.5 0.77937 1.341951 1.06066 1.06066 
C 1.341951 0.77937 1.5 0.397805 1.5 -0 
C 1.5 -0.397805 1.341951 -0.77937 1.06066 -1.06066 
C 0.77937 -1.341951 0.397805 -1.5 0 -1.5 
C -0.397805 -1.5 -0.77937 -1.341951 -1.06066 -1.06066 
C -1.341951 -0.77937 -1.5 -0.397805 -1.5 0 
C -1.5 0.397805 -1.341951 0.77937 -1.06066 1.06066 
C -0.77937 1.341951 -0.397805 1.5 0 1.5 
z
" id="C2_0_94d5ab75e8"/>
    </defs>
    <g clip-path="url(#p3578cb9ffc)">
     <use style="fill:#333333;" x="355.2" xlink:href="#C2_0_94d5ab75e8" y="291.446093"/>
    </g>
    <g clip-path="url(#p3578cb9ffc)">
     <use style="fill:#333333;" x="352.061185" xlink:href="#C2_0_94d5ab75e8" y="291.193501"/>
    </g>
    <g clip-path="url(#p3578cb9ffc)">
     <use style="fill:#333333;" x="358.320555" xlink:href="#C2_0_94d5ab75e8" y="291.036864"/>
    </g>
    <g clip-path="url(#p3578cb9ffc)">
     <use style="fill:#333333;" x="349.671325" xlink:href="#C2_0_94d5ab75e8" y="289.239131"/>
    </g>
    <g clip-path="url(#p3578cb9ffc)">
     <use style="fill:#333333;" x="354.013733" xlink:href="#C2_0_94d5ab75e8" y="288.666956"/>
    </g>
    <g clip-path="url(#p3578cb9ffc)">
     <use style="fill:#333333;" x="356.353886" xlink:href="#C2_0_94d5ab75e8" y="286.658769"/>
    </g>
    <g clip-path="url(#p3578cb9ffc)">
     <use style="fill:#333333;" x="355.2" xlink:href="#C2_0_94d5ab75e8" y="279.001467"/>
    </g>
   </g>
  </g>
 </g>
 <defs>
  <clipPath id="p3578cb9ffc">
   <rect height="266.112" width="357.12" x="57.6" y="41.472"/>
  </clipPath>
 </defs>
</svg>
